<?xml version='1.0' encoding='UTF-8' ?>
<svg xmlns='http://www.w3.org/2000/svg' xmlns:xlink='http://www.w3.org/1999/xlink' class='svglite' width='576.00pt' height='576.00pt' viewBox='0 0 576.00 576.00'>
<defs>
  <style type='text/css'><![CDATA[
    .svglite line, .svglite polyline, .svglite polygon, .svglite path, .svglite rect, .svglite circle {
      fill: none;
      stroke: #000000;
      stroke-linecap: round;
      stroke-linejoin: round;
      stroke-miterlimit: 10.00;
    }
  ]]></style>
</defs>
<rect width='100%' height='100%' style='stroke: none; fill: none;'/>
<defs>
  <clipPath id='cpMC4wMHw1NzYuMDB8MC4wMHw1NzYuMDA='>
    <rect x='0.00' y='0.00' width='576.00' height='576.00' />
  </clipPath>
</defs>
<g clip-path='url(#cpMC4wMHw1NzYuMDB8MC4wMHw1NzYuMDA=)'>
</g>
<defs>
  <clipPath id='cpMzIuNDN8NTcwLjUyfDIzLjE4fDU0NC41MA=='>
    <rect x='32.43' y='23.18' width='538.09' height='521.33' />
  </clipPath>
</defs>
<g clip-path='url(#cpMzIuNDN8NTcwLjUyfDIzLjE4fDU0NC41MA==)'>
<polyline points='116.82,544.50 116.82,23.18 ' style='stroke-width: 0.53; stroke: #EBEBEB; stroke-linecap: butt;' />
<polyline points='239.18,544.50 239.18,23.18 ' style='stroke-width: 0.53; stroke: #EBEBEB; stroke-linecap: butt;' />
<polyline points='361.54,544.50 361.54,23.18 ' style='stroke-width: 0.53; stroke: #EBEBEB; stroke-linecap: butt;' />
<polyline points='483.90,544.50 483.90,23.18 ' style='stroke-width: 0.53; stroke: #EBEBEB; stroke-linecap: butt;' />
<polyline points='32.43,501.06 570.52,501.06 ' style='stroke-width: 1.07; stroke: #EBEBEB; stroke-linecap: butt;' />
<polyline points='32.43,428.65 570.52,428.65 ' style='stroke-width: 1.07; stroke: #EBEBEB; stroke-linecap: butt;' />
<polyline points='32.43,356.25 570.52,356.25 ' style='stroke-width: 1.07; stroke: #EBEBEB; stroke-linecap: butt;' />
<polyline points='32.43,283.84 570.52,283.84 ' style='stroke-width: 1.07; stroke: #EBEBEB; stroke-linecap: butt;' />
<polyline points='32.43,211.43 570.52,211.43 ' style='stroke-width: 1.07; stroke: #EBEBEB; stroke-linecap: butt;' />
<polyline points='32.43,139.03 570.52,139.03 ' style='stroke-width: 1.07; stroke: #EBEBEB; stroke-linecap: butt;' />
<polyline points='32.43,66.62 570.52,66.62 ' style='stroke-width: 1.07; stroke: #EBEBEB; stroke-linecap: butt;' />
<polyline points='55.64,544.50 55.64,23.18 ' style='stroke-width: 1.07; stroke: #EBEBEB; stroke-linecap: butt;' />
<polyline points='178.00,544.50 178.00,23.18 ' style='stroke-width: 1.07; stroke: #EBEBEB; stroke-linecap: butt;' />
<polyline points='300.36,544.50 300.36,23.18 ' style='stroke-width: 1.07; stroke: #EBEBEB; stroke-linecap: butt;' />
<polyline points='422.72,544.50 422.72,23.18 ' style='stroke-width: 1.07; stroke: #EBEBEB; stroke-linecap: butt;' />
<polyline points='545.08,544.50 545.08,23.18 ' style='stroke-width: 1.07; stroke: #EBEBEB; stroke-linecap: butt;' />
<line x1='300.36' y1='544.50' x2='300.36' y2='23.18' style='stroke-width: 1.07; stroke-linecap: butt;' />
<circle cx='318.54' cy='356.25' r='2.83' style='stroke-width: 0.71; stroke: none; fill: #D3E039;' />
<circle cx='299.34' cy='428.65' r='1.46' style='stroke-width: 0.71; stroke: none; fill: #FDE725;' />
<circle cx='270.74' cy='501.06' r='3.25' style='stroke-width: 0.71; stroke: none; fill: #B5DB43;' />
<circle cx='254.96' cy='66.62' r='3.69' style='stroke-width: 0.71; stroke: none; fill: #89D34E;' />
<circle cx='123.72' cy='139.03' r='5.94' style='stroke-width: 0.71; stroke: none; fill: #3C5A8A;' />
<circle cx='64.55' cy='211.43' r='6.65' style='stroke-width: 0.71; stroke: none; fill: #45145E;' />
<circle cx='99.36' cy='283.84' r='6.24' style='stroke-width: 0.71; stroke: none; fill: #423F82;' />
<polygon points='508.04,346.41 516.56,361.16 499.52,361.16 ' style='stroke-width: 0.71; stroke: none; fill: #44387B;' />
<polygon points='459.21,419.78 466.89,433.09 451.52,433.09 ' style='stroke-width: 0.71; stroke: none; fill: #346C8D;' />
<polygon points='429.66,492.84 436.78,505.17 422.54,505.17 ' style='stroke-width: 0.71; stroke: none; fill: #2C8A8B;' />
<polygon points='433.63,58.31 440.83,70.78 426.43,70.78 ' style='stroke-width: 0.71; stroke: none; fill: #2C868B;' />
<polygon points='322.51,134.38 326.54,141.35 318.48,141.35 ' style='stroke-width: 0.71; stroke: none; fill: #C9DE3D;' />
<polygon points='287.04,207.36 290.56,213.47 283.51,213.47 ' style='stroke-width: 0.71; stroke: none; fill: #DFE234;' />
<polygon points='306.77,280.40 309.75,285.56 303.79,285.56 ' style='stroke-width: 0.71; stroke: none; fill: #F0E52C;' />
<circle cx='309.77' cy='356.25' r='2.41' style='stroke-width: 0.71; stroke: none; fill: #E9E430;' />
<circle cx='302.44' cy='428.65' r='1.78' style='stroke-width: 0.71; stroke: none; fill: #FAE727;' />
<circle cx='211.63' cy='501.06' r='4.62' style='stroke-width: 0.71; stroke: none; fill: #40B07B;' />
<circle cx='176.60' cy='66.62' r='5.20' style='stroke-width: 0.71; stroke: none; fill: #2B8F8A;' />
<circle cx='83.04' cy='139.03' r='6.44' style='stroke-width: 0.71; stroke: none; fill: #452D71;' />
<circle cx='91.91' cy='211.43' r='6.33' style='stroke-width: 0.71; stroke: none; fill: #44377A;' />
<circle cx='76.96' cy='283.84' r='6.51' style='stroke-width: 0.71; stroke: none; fill: #46256B;' />
<polygon points='421.80,348.22 428.76,360.26 414.85,360.26 ' style='stroke-width: 0.71; stroke: none; fill: #2B9289;' />
<polygon points='435.28,420.31 442.51,432.83 428.05,432.83 ' style='stroke-width: 0.71; stroke: none; fill: #2C848C;' />
<polygon points='371.05,494.42 376.80,504.38 365.31,504.38 ' style='stroke-width: 0.71; stroke: none; fill: #5FBF69;' />
<polygon points='368.24,60.07 373.91,69.89 362.57,69.89 ' style='stroke-width: 0.71; stroke: none; fill: #63C266;' />
<polygon points='299.35,136.82 301.27,140.13 297.44,140.13 ' style='stroke-width: 0.71; stroke: none; fill: #FDE725;' />
<polygon points='302.58,208.64 305.00,212.83 300.16,212.83 ' style='stroke-width: 0.71; stroke: none; fill: #FAE727;' />
<polygon points='287.79,279.83 291.26,285.85 284.31,285.85 ' style='stroke-width: 0.71; stroke: none; fill: #E1E234;' />
<circle cx='313.71' cy='356.25' r='2.62' style='stroke-width: 0.71; stroke: none; fill: #DFE234;' />
<circle cx='213.07' cy='428.65' r='4.59' style='stroke-width: 0.71; stroke: none; fill: #43B17A;' />
<circle cx='218.84' cy='501.06' r='4.48' style='stroke-width: 0.71; stroke: none; fill: #4EB674;' />
<circle cx='244.96' cy='66.62' r='3.94' style='stroke-width: 0.71; stroke: none; fill: #74CC58;' />
<circle cx='81.94' cy='139.03' r='6.45' style='stroke-width: 0.71; stroke: none; fill: #452B70;' />
<circle cx='56.89' cy='211.43' r='6.73' style='stroke-width: 0.71; stroke: none; fill: #440556;' />
<circle cx='84.40' cy='283.84' r='6.42' style='stroke-width: 0.71; stroke: none; fill: #452E73;' />
<polygon points='546.06,345.74 555.16,361.50 536.96,361.50 ' style='stroke-width: 0.71; stroke: none; fill: #440154;' />
<polygon points='407.03,420.99 413.66,432.48 400.39,432.48 ' style='stroke-width: 0.71; stroke: none; fill: #26A086;' />
<polygon points='381.35,494.11 387.37,504.54 375.33,504.54 ' style='stroke-width: 0.71; stroke: none; fill: #4FB774;' />
<polygon points='451.90,57.90 459.45,70.98 444.35,70.98 ' style='stroke-width: 0.71; stroke: none; fill: #2E748E;' />
<polygon points='293.19,135.50 296.24,140.79 290.14,140.79 ' style='stroke-width: 0.71; stroke: none; fill: #EEE52D;' />
<polygon points='290.02,207.60 293.34,213.35 286.70,213.35 ' style='stroke-width: 0.71; stroke: none; fill: #E6E331;' />
<polygon points='323.20,279.15 327.26,286.18 319.14,286.18 ' style='stroke-width: 0.71; stroke: none; fill: #C7DE3D;' />
<circle cx='293.06' cy='356.25' r='2.28' style='stroke-width: 0.71; stroke: none; fill: #EEE52E;' />
<circle cx='277.76' cy='428.65' r='3.01' style='stroke-width: 0.71; stroke: none; fill: #C8DE3D;' />
<circle cx='340.33' cy='501.06' r='3.55' style='stroke-width: 0.71; stroke: none; fill: #99D64B;' />
<circle cx='296.49' cy='66.62' r='2.00' style='stroke-width: 0.71; stroke: none; fill: #F6E629;' />
<circle cx='106.47' cy='139.03' r='6.16' style='stroke-width: 0.71; stroke: none; fill: #414787;' />
<circle cx='74.84' cy='211.43' r='6.53' style='stroke-width: 0.71; stroke: none; fill: #462369;' />
<circle cx='76.85' cy='283.84' r='6.51' style='stroke-width: 0.71; stroke: none; fill: #46256B;' />
<polygon points='457.71,347.41 465.36,360.67 450.05,360.67 ' style='stroke-width: 0.71; stroke: none; fill: #326E8D;' />
<polygon points='478.18,419.39 486.21,433.28 470.16,433.28 ' style='stroke-width: 0.71; stroke: none; fill: #3D588A;' />
<polygon points='454.79,492.28 462.40,505.45 447.19,505.45 ' style='stroke-width: 0.71; stroke: none; fill: #30718D;' />
<polygon points='467.37,57.58 475.20,71.14 459.53,71.14 ' style='stroke-width: 0.71; stroke: none; fill: #38648B;' />
<polygon points='313.40,134.98 316.91,141.05 309.89,141.05 ' style='stroke-width: 0.71; stroke: none; fill: #E0E234;' />
<polygon points='290.58,207.65 293.85,213.32 287.30,213.32 ' style='stroke-width: 0.71; stroke: none; fill: #E8E431;' />
<polygon points='304.96,280.62 307.74,285.45 302.17,285.45 ' style='stroke-width: 0.71; stroke: none; fill: #F4E62A;' />
<circle cx='293.67' cy='356.25' r='2.23' style='stroke-width: 0.71; stroke: none; fill: #EFE52D;' />
<circle cx='310.62' cy='428.65' r='2.46' style='stroke-width: 0.71; stroke: none; fill: #E7E331;' />
<circle cx='295.62' cy='501.06' r='2.08' style='stroke-width: 0.71; stroke: none; fill: #F4E62A;' />
<circle cx='289.34' cy='66.62' r='2.50' style='stroke-width: 0.71; stroke: none; fill: #E5E332;' />
<circle cx='87.52' cy='139.03' r='6.39' style='stroke-width: 0.71; stroke: none; fill: #453276;' />
<circle cx='94.64' cy='211.43' r='6.30' style='stroke-width: 0.71; stroke: none; fill: #443A7D;' />
<circle cx='81.20' cy='283.84' r='6.46' style='stroke-width: 0.71; stroke: none; fill: #452A6F;' />
<polygon points='445.66,347.67 453.10,360.54 438.23,360.54 ' style='stroke-width: 0.71; stroke: none; fill: #2A7A8E;' />
<polygon points='489.96,419.16 498.18,433.40 481.74,433.40 ' style='stroke-width: 0.71; stroke: none; fill: #404C88;' />
<polygon points='397.23,493.66 403.64,504.76 390.82,504.76 ' style='stroke-width: 0.71; stroke: none; fill: #2AAA82;' />
<polygon points='467.93,57.57 475.78,71.15 460.09,71.15 ' style='stroke-width: 0.71; stroke: none; fill: #39638B;' />
<polygon points='301.79,136.47 304.00,140.31 299.57,140.31 ' style='stroke-width: 0.71; stroke: none; fill: #FCE726;' />
<polygon points='307.02,207.96 310.03,213.17 304.02,213.17 ' style='stroke-width: 0.71; stroke: none; fill: #EFE52D;' />
<polygon points='294.17,280.42 297.13,285.55 291.21,285.55 ' style='stroke-width: 0.71; stroke: none; fill: #F0E52C;' />
<circle cx='309.66' cy='356.25' r='2.40' style='stroke-width: 0.71; stroke: none; fill: #E9E430;' />
<circle cx='301.87' cy='428.65' r='1.67' style='stroke-width: 0.71; stroke: none; fill: #FCE726;' />
<circle cx='223.85' cy='501.06' r='4.38' style='stroke-width: 0.71; stroke: none; fill: #56BA6F;' />
<circle cx='306.98' cy='66.62' r='2.23' style='stroke-width: 0.71; stroke: none; fill: #EFE52D;' />
<circle cx='104.10' cy='139.03' r='6.19' style='stroke-width: 0.71; stroke: none; fill: #414587;' />
<circle cx='86.96' cy='211.43' r='6.39' style='stroke-width: 0.71; stroke: none; fill: #453175;' />
<circle cx='95.43' cy='283.84' r='6.29' style='stroke-width: 0.71; stroke: none; fill: #433B7E;' />
<polygon points='494.00,346.68 502.29,361.03 485.71,361.03 ' style='stroke-width: 0.71; stroke: none; fill: #414787;' />
<polygon points='449.31,419.99 456.81,432.98 441.81,432.98 ' style='stroke-width: 0.71; stroke: none; fill: #2B778E;' />
<polygon points='419.49,493.09 426.40,505.05 412.59,505.05 ' style='stroke-width: 0.71; stroke: none; fill: #2A9489;' />
<polygon points='459.61,57.74 467.30,71.06 451.92,71.06 ' style='stroke-width: 0.71; stroke: none; fill: #346C8D;' />
<polygon points='317.58,134.68 321.34,141.20 313.81,141.20 ' style='stroke-width: 0.71; stroke: none; fill: #D5E038;' />
<polygon points='280.61,206.93 284.52,213.69 276.71,213.69 ' style='stroke-width: 0.71; stroke: none; fill: #CFDF3B;' />
<polygon points='304.77,280.65 307.53,285.44 302.01,285.44 ' style='stroke-width: 0.71; stroke: none; fill: #F5E62A;' />
<line x1='340.76' y1='359.63' x2='318.54' y2='356.25' style='stroke-width: 1.07;' />
<text x='348.49' y='362.73' text-anchor='middle' style='font-size: 8.54px; font-family: Arial;' textLength='11.85px' lengthAdjust='spacingAndGlyphs'>AU</text>
<line x1='291.06' y1='422.71' x2='299.34' y2='428.65' style='stroke-width: 1.07;' />
<text x='283.34' y='424.70' text-anchor='middle' style='font-size: 8.54px; font-family: Arial;' textLength='11.85px' lengthAdjust='spacingAndGlyphs'>AU</text>
<text x='276.33' y='497.33' text-anchor='middle' style='font-size: 8.54px; font-family: Arial;' textLength='11.85px' lengthAdjust='spacingAndGlyphs'>AU</text>
<text x='260.11' y='61.62' text-anchor='middle' style='font-size: 8.54px; font-family: Arial;' textLength='11.85px' lengthAdjust='spacingAndGlyphs'>AU</text>
<line x1='132.00' y1='136.78' x2='123.72' y2='139.03' style='stroke-width: 1.07;' />
<text x='139.73' y='139.74' text-anchor='middle' style='font-size: 8.54px; font-family: Arial;' textLength='11.85px' lengthAdjust='spacingAndGlyphs'>AU</text>
<text x='63.97' y='221.94' text-anchor='middle' style='font-size: 8.54px; font-family: Arial;' textLength='11.85px' lengthAdjust='spacingAndGlyphs'>AU</text>
<line x1='112.62' y1='286.93' x2='99.36' y2='283.84' style='stroke-width: 1.07;' />
<text x='120.35' y='290.08' text-anchor='middle' style='font-size: 8.54px; font-family: Arial;' textLength='11.85px' lengthAdjust='spacingAndGlyphs'>AU</text>
<text x='517.82' y='359.30' text-anchor='middle' style='font-size: 8.54px; font-family: Arial;' textLength='11.85px' lengthAdjust='spacingAndGlyphs'>AU</text>
<text x='467.69' y='424.51' text-anchor='middle' style='font-size: 8.54px; font-family: Arial;' textLength='11.85px' lengthAdjust='spacingAndGlyphs'>AU</text>
<text x='443.57' y='504.01' text-anchor='middle' style='font-size: 8.54px; font-family: Arial;' textLength='11.85px' lengthAdjust='spacingAndGlyphs'>AU</text>
<text x='421.59' y='69.70' text-anchor='middle' style='font-size: 8.54px; font-family: Arial;' textLength='11.85px' lengthAdjust='spacingAndGlyphs'>AU</text>
<line x1='340.65' y1='136.78' x2='322.51' y2='139.03' style='stroke-width: 1.07;' />
<text x='348.37' y='139.82' text-anchor='middle' style='font-size: 8.54px; font-family: Arial;' textLength='11.85px' lengthAdjust='spacingAndGlyphs'>AU</text>
<line x1='279.08' y1='217.33' x2='287.04' y2='211.43' style='stroke-width: 1.07;' />
<text x='271.35' y='221.51' text-anchor='middle' style='font-size: 8.54px; font-family: Arial;' textLength='11.85px' lengthAdjust='spacingAndGlyphs'>AU</text>
<line x1='312.05' y1='278.32' x2='306.77' y2='283.84' style='stroke-width: 1.07;' />
<text x='319.78' y='279.61' text-anchor='middle' style='font-size: 8.54px; font-family: Arial;' textLength='11.85px' lengthAdjust='spacingAndGlyphs'>AU</text>
<text x='308.60' y='367.22' text-anchor='middle' style='font-size: 8.54px; font-family: Arial;' textLength='8.06px' lengthAdjust='spacingAndGlyphs'>AI</text>
<text x='296.77' y='439.41' text-anchor='middle' style='font-size: 8.54px; font-family: Arial;' textLength='8.06px' lengthAdjust='spacingAndGlyphs'>AI</text>
<line x1='192.32' y1='503.01' x2='211.63' y2='501.06' style='stroke-width: 1.07;' />
<text x='186.50' y='506.08' text-anchor='middle' style='font-size: 8.54px; font-family: Arial;' textLength='8.06px' lengthAdjust='spacingAndGlyphs'>AI</text>
<text x='169.68' y='76.38' text-anchor='middle' style='font-size: 8.54px; font-family: Arial;' textLength='8.06px' lengthAdjust='spacingAndGlyphs'>AI</text>
<text x='75.88' y='149.84' text-anchor='middle' style='font-size: 8.54px; font-family: Arial;' textLength='8.06px' lengthAdjust='spacingAndGlyphs'>AI</text>
<text x='98.87' y='206.05' text-anchor='middle' style='font-size: 8.54px; font-family: Arial;' textLength='8.06px' lengthAdjust='spacingAndGlyphs'>AI</text>
<text x='68.76' y='292.90' text-anchor='middle' style='font-size: 8.54px; font-family: Arial;' textLength='8.06px' lengthAdjust='spacingAndGlyphs'>AI</text>
<text x='413.79' y='359.30' text-anchor='middle' style='font-size: 8.54px; font-family: Arial;' textLength='8.06px' lengthAdjust='spacingAndGlyphs'>AI</text>
<text x='426.49' y='431.70' text-anchor='middle' style='font-size: 8.54px; font-family: Arial;' textLength='8.06px' lengthAdjust='spacingAndGlyphs'>AI</text>
<text x='363.13' y='506.52' text-anchor='middle' style='font-size: 8.54px; font-family: Arial;' textLength='8.06px' lengthAdjust='spacingAndGlyphs'>AI</text>
<text x='360.23' y='77.44' text-anchor='middle' style='font-size: 8.54px; font-family: Arial;' textLength='8.06px' lengthAdjust='spacingAndGlyphs'>AI</text>
<text x='293.62' y='133.01' text-anchor='middle' style='font-size: 8.54px; font-family: Arial;' textLength='8.06px' lengthAdjust='spacingAndGlyphs'>AI</text>
<line x1='309.40' y1='215.38' x2='302.58' y2='211.43' style='stroke-width: 1.07;' />
<text x='315.23' y='219.39' text-anchor='middle' style='font-size: 8.54px; font-family: Arial;' textLength='8.06px' lengthAdjust='spacingAndGlyphs'>AI</text>
<line x1='273.36' y1='281.94' x2='287.79' y2='283.84' style='stroke-width: 1.07;' />
<text x='267.53' y='284.98' text-anchor='middle' style='font-size: 8.54px; font-family: Arial;' textLength='8.06px' lengthAdjust='spacingAndGlyphs'>AI</text>
<line x1='320.51' y1='349.64' x2='313.71' y2='356.25' style='stroke-width: 1.07;' />
<text x='328.48' y='351.26' text-anchor='middle' style='font-size: 8.54px; font-family: Arial;' textLength='12.33px' lengthAdjust='spacingAndGlyphs'>CU</text>
<text x='219.98' y='425.01' text-anchor='middle' style='font-size: 8.54px; font-family: Arial;' textLength='12.33px' lengthAdjust='spacingAndGlyphs'>CU</text>
<line x1='212.09' y1='494.10' x2='218.84' y2='501.06' style='stroke-width: 1.07;' />
<text x='204.13' y='495.69' text-anchor='middle' style='font-size: 8.54px; font-family: Arial;' textLength='12.33px' lengthAdjust='spacingAndGlyphs'>CU</text>
<text x='234.33' y='69.68' text-anchor='middle' style='font-size: 8.54px; font-family: Arial;' textLength='12.33px' lengthAdjust='spacingAndGlyphs'>CU</text>
<line x1='69.54' y1='133.54' x2='81.94' y2='139.03' style='stroke-width: 1.07;' />
<text x='61.58' y='136.11' text-anchor='middle' style='font-size: 8.54px; font-family: Arial;' textLength='12.33px' lengthAdjust='spacingAndGlyphs'>CU</text>
<text x='43.93' y='214.06' text-anchor='middle' style='font-size: 8.54px; font-family: Arial;' textLength='12.33px' lengthAdjust='spacingAndGlyphs'>CU</text>
<text x='90.36' y='293.71' text-anchor='middle' style='font-size: 8.54px; font-family: Arial;' textLength='12.33px' lengthAdjust='spacingAndGlyphs'>CU</text>
<text x='553.82' y='352.54' text-anchor='middle' style='font-size: 8.54px; font-family: Arial;' textLength='12.33px' lengthAdjust='spacingAndGlyphs'>CU</text>
<text x='399.79' y='439.51' text-anchor='middle' style='font-size: 8.54px; font-family: Arial;' textLength='12.33px' lengthAdjust='spacingAndGlyphs'>CU</text>
<text x='388.55' y='511.17' text-anchor='middle' style='font-size: 8.54px; font-family: Arial;' textLength='12.33px' lengthAdjust='spacingAndGlyphs'>CU</text>
<text x='443.30' y='77.69' text-anchor='middle' style='font-size: 8.54px; font-family: Arial;' textLength='12.33px' lengthAdjust='spacingAndGlyphs'>CU</text>
<line x1='280.87' y1='136.63' x2='293.19' y2='139.03' style='stroke-width: 1.07;' />
<text x='272.91' y='139.64' text-anchor='middle' style='font-size: 8.54px; font-family: Arial;' textLength='12.33px' lengthAdjust='spacingAndGlyphs'>CU</text>
<text x='294.68' y='206.30' text-anchor='middle' style='font-size: 8.54px; font-family: Arial;' textLength='12.33px' lengthAdjust='spacingAndGlyphs'>CU</text>
<line x1='332.25' y1='286.03' x2='323.20' y2='283.84' style='stroke-width: 1.07;' />
<text x='340.21' y='289.16' text-anchor='middle' style='font-size: 8.54px; font-family: Arial;' textLength='12.33px' lengthAdjust='spacingAndGlyphs'>CU</text>
<line x1='280.68' y1='351.03' x2='293.06' y2='356.25' style='stroke-width: 1.07;' />
<text x='274.61' y='353.63' text-anchor='middle' style='font-size: 8.54px; font-family: Arial;' textLength='8.53px' lengthAdjust='spacingAndGlyphs'>CI</text>
<line x1='269.06' y1='429.53' x2='277.76' y2='428.65' style='stroke-width: 1.07;' />
<text x='262.99' y='432.59' text-anchor='middle' style='font-size: 8.54px; font-family: Arial;' textLength='8.53px' lengthAdjust='spacingAndGlyphs'>CI</text>
<text x='347.32' y='495.51' text-anchor='middle' style='font-size: 8.54px; font-family: Arial;' textLength='8.53px' lengthAdjust='spacingAndGlyphs'>CI</text>
<text x='298.98' y='60.74' text-anchor='middle' style='font-size: 8.54px; font-family: Arial;' textLength='8.53px' lengthAdjust='spacingAndGlyphs'>CI</text>
<line x1='115.35' y1='145.26' x2='106.47' y2='139.03' style='stroke-width: 1.07;' />
<text x='121.42' y='149.32' text-anchor='middle' style='font-size: 8.54px; font-family: Arial;' textLength='8.53px' lengthAdjust='spacingAndGlyphs'>CI</text>
<text x='79.58' y='205.63' text-anchor='middle' style='font-size: 8.54px; font-family: Arial;' textLength='8.53px' lengthAdjust='spacingAndGlyphs'>CI</text>
<line x1='59.22' y1='281.51' x2='76.85' y2='283.84' style='stroke-width: 1.07;' />
<text x='53.16' y='284.54' text-anchor='middle' style='font-size: 8.54px; font-family: Arial;' textLength='8.53px' lengthAdjust='spacingAndGlyphs'>CI</text>
<text x='465.94' y='359.30' text-anchor='middle' style='font-size: 8.54px; font-family: Arial;' textLength='8.53px' lengthAdjust='spacingAndGlyphs'>CI</text>
<text x='485.55' y='440.33' text-anchor='middle' style='font-size: 8.54px; font-family: Arial;' textLength='8.53px' lengthAdjust='spacingAndGlyphs'>CI</text>
<text x='463.60' y='504.11' text-anchor='middle' style='font-size: 8.54px; font-family: Arial;' textLength='8.53px' lengthAdjust='spacingAndGlyphs'>CI</text>
<text x='474.46' y='79.28' text-anchor='middle' style='font-size: 8.54px; font-family: Arial;' textLength='8.53px' lengthAdjust='spacingAndGlyphs'>CI</text>
<line x1='324.48' y1='142.03' x2='313.40' y2='139.03' style='stroke-width: 1.07;' />
<text x='330.55' y='145.21' text-anchor='middle' style='font-size: 8.54px; font-family: Arial;' textLength='8.53px' lengthAdjust='spacingAndGlyphs'>CI</text>
<text x='295.75' y='221.60' text-anchor='middle' style='font-size: 8.54px; font-family: Arial;' textLength='8.53px' lengthAdjust='spacingAndGlyphs'>CI</text>
<line x1='310.39' y1='289.46' x2='304.96' y2='283.84' style='stroke-width: 1.07;' />
<text x='312.67' y='297.38' text-anchor='middle' style='font-size: 8.54px; font-family: Arial;' textLength='8.53px' lengthAdjust='spacingAndGlyphs'>CI</text>
<text x='285.72' y='367.60' text-anchor='middle' style='font-size: 8.54px; font-family: Arial;' textLength='11.85px' lengthAdjust='spacingAndGlyphs'>EU</text>
<line x1='329.06' y1='429.01' x2='310.62' y2='428.65' style='stroke-width: 1.07;' />
<text x='336.78' y='432.07' text-anchor='middle' style='font-size: 8.54px; font-family: Arial;' textLength='11.85px' lengthAdjust='spacingAndGlyphs'>EU</text>
<text x='295.75' y='510.81' text-anchor='middle' style='font-size: 8.54px; font-family: Arial;' textLength='11.85px' lengthAdjust='spacingAndGlyphs'>EU</text>
<text x='279.07' y='76.07' text-anchor='middle' style='font-size: 8.54px; font-family: Arial;' textLength='11.85px' lengthAdjust='spacingAndGlyphs'>EU</text>
<text x='94.28' y='150.00' text-anchor='middle' style='font-size: 8.54px; font-family: Arial;' textLength='11.85px' lengthAdjust='spacingAndGlyphs'>EU</text>
<line x1='107.81' y1='216.23' x2='94.64' y2='211.43' style='stroke-width: 1.07;' />
<text x='115.54' y='219.64' text-anchor='middle' style='font-size: 8.54px; font-family: Arial;' textLength='11.85px' lengthAdjust='spacingAndGlyphs'>EU</text>
<text x='84.18' y='278.67' text-anchor='middle' style='font-size: 8.54px; font-family: Arial;' textLength='11.85px' lengthAdjust='spacingAndGlyphs'>EU</text>
<text x='435.15' y='359.30' text-anchor='middle' style='font-size: 8.54px; font-family: Arial;' textLength='11.85px' lengthAdjust='spacingAndGlyphs'>EU</text>
<line x1='497.25' y1='427.97' x2='489.96' y2='428.65' style='stroke-width: 1.07;' />
<text x='504.98' y='431.02' text-anchor='middle' style='font-size: 8.54px; font-family: Arial;' textLength='11.85px' lengthAdjust='spacingAndGlyphs'>EU</text>
<text x='408.23' y='503.30' text-anchor='middle' style='font-size: 8.54px; font-family: Arial;' textLength='11.85px' lengthAdjust='spacingAndGlyphs'>EU</text>
<line x1='476.64' y1='62.33' x2='467.93' y2='66.62' style='stroke-width: 1.07;' />
<text x='484.36' y='64.72' text-anchor='middle' style='font-size: 8.54px; font-family: Arial;' textLength='11.85px' lengthAdjust='spacingAndGlyphs'>EU</text>
<text x='292.47' y='150.67' text-anchor='middle' style='font-size: 8.54px; font-family: Arial;' textLength='11.85px' lengthAdjust='spacingAndGlyphs'>EU</text>
<line x1='325.26' y1='208.34' x2='307.02' y2='211.43' style='stroke-width: 1.07;' />
<text x='332.99' y='211.35' text-anchor='middle' style='font-size: 8.54px; font-family: Arial;' textLength='11.85px' lengthAdjust='spacingAndGlyphs'>EU</text>
<text x='285.60' y='295.15' text-anchor='middle' style='font-size: 8.54px; font-family: Arial;' textLength='11.85px' lengthAdjust='spacingAndGlyphs'>EU</text>
<text x='301.20' y='351.37' text-anchor='middle' style='font-size: 8.54px; font-family: Arial;' textLength='8.06px' lengthAdjust='spacingAndGlyphs'>EI</text>
<line x1='312.81' y1='428.24' x2='301.87' y2='428.65' style='stroke-width: 1.07;' />
<text x='318.64' y='431.29' text-anchor='middle' style='font-size: 8.54px; font-family: Arial;' textLength='8.06px' lengthAdjust='spacingAndGlyphs'>EI</text>
<text x='231.89' y='504.12' text-anchor='middle' style='font-size: 8.54px; font-family: Arial;' textLength='8.06px' lengthAdjust='spacingAndGlyphs'>EI</text>
<text x='316.53' y='69.69' text-anchor='middle' style='font-size: 8.54px; font-family: Arial;' textLength='8.06px' lengthAdjust='spacingAndGlyphs'>EI</text>
<text x='111.73' y='133.09' text-anchor='middle' style='font-size: 8.54px; font-family: Arial;' textLength='8.06px' lengthAdjust='spacingAndGlyphs'>EI</text>
<text x='83.56' y='221.17' text-anchor='middle' style='font-size: 8.54px; font-family: Arial;' textLength='8.06px' lengthAdjust='spacingAndGlyphs'>EI</text>
<text x='102.74' y='277.52' text-anchor='middle' style='font-size: 8.54px; font-family: Arial;' textLength='8.06px' lengthAdjust='spacingAndGlyphs'>EI</text>
<text x='485.93' y='359.29' text-anchor='middle' style='font-size: 8.54px; font-family: Arial;' textLength='8.06px' lengthAdjust='spacingAndGlyphs'>EI</text>
<text x='442.87' y='439.87' text-anchor='middle' style='font-size: 8.54px; font-family: Arial;' textLength='8.06px' lengthAdjust='spacingAndGlyphs'>EI</text>
<text x='426.23' y='511.47' text-anchor='middle' style='font-size: 8.54px; font-family: Arial;' textLength='8.06px' lengthAdjust='spacingAndGlyphs'>EI</text>
<text x='460.87' y='62.48' text-anchor='middle' style='font-size: 8.54px; font-family: Arial;' textLength='8.06px' lengthAdjust='spacingAndGlyphs'>EI</text>
<text x='309.21' y='134.83' text-anchor='middle' style='font-size: 8.54px; font-family: Arial;' textLength='8.06px' lengthAdjust='spacingAndGlyphs'>EI</text>
<line x1='259.84' y1='206.42' x2='280.61' y2='211.43' style='stroke-width: 1.07;' />
<text x='254.01' y='209.32' text-anchor='middle' style='font-size: 8.54px; font-family: Arial;' textLength='8.06px' lengthAdjust='spacingAndGlyphs'>EI</text>
<text x='298.93' y='279.23' text-anchor='middle' style='font-size: 8.54px; font-family: Arial;' textLength='8.06px' lengthAdjust='spacingAndGlyphs'>EI</text>
</g>
<g clip-path='url(#cpMC4wMHw1NzYuMDB8MC4wMHw1NzYuMDA=)'>
<text x='27.50' y='504.21' text-anchor='end' style='font-size: 8.80px; fill: #4D4D4D; font-family: Arial;' textLength='22.02px' lengthAdjust='spacingAndGlyphs'>Imp 3</text>
<text x='27.50' y='431.80' text-anchor='end' style='font-size: 8.80px; fill: #4D4D4D; font-family: Arial;' textLength='22.02px' lengthAdjust='spacingAndGlyphs'>Imp 2</text>
<text x='27.50' y='359.40' text-anchor='end' style='font-size: 8.80px; fill: #4D4D4D; font-family: Arial;' textLength='22.02px' lengthAdjust='spacingAndGlyphs'>Imp 1</text>
<text x='27.50' y='286.99' text-anchor='end' style='font-size: 8.80px; fill: #4D4D4D; font-family: Arial;' textLength='19.56px' lengthAdjust='spacingAndGlyphs'>PN 4</text>
<text x='27.50' y='214.58' text-anchor='end' style='font-size: 8.80px; fill: #4D4D4D; font-family: Arial;' textLength='19.56px' lengthAdjust='spacingAndGlyphs'>PN 3</text>
<text x='27.50' y='142.18' text-anchor='end' style='font-size: 8.80px; fill: #4D4D4D; font-family: Arial;' textLength='19.56px' lengthAdjust='spacingAndGlyphs'>PN 2</text>
<text x='27.50' y='69.77' text-anchor='end' style='font-size: 8.80px; fill: #4D4D4D; font-family: Arial;' textLength='19.56px' lengthAdjust='spacingAndGlyphs'>PN 1</text>
<text x='55.64' y='555.74' text-anchor='middle' style='font-size: 8.80px; fill: #4D4D4D; font-family: Arial;' textLength='15.17px' lengthAdjust='spacingAndGlyphs'>-1.0</text>
<text x='178.00' y='555.74' text-anchor='middle' style='font-size: 8.80px; fill: #4D4D4D; font-family: Arial;' textLength='15.17px' lengthAdjust='spacingAndGlyphs'>-0.5</text>
<text x='300.36' y='555.74' text-anchor='middle' style='font-size: 8.80px; fill: #4D4D4D; font-family: Arial;' textLength='12.24px' lengthAdjust='spacingAndGlyphs'>0.0</text>
<text x='422.72' y='555.74' text-anchor='middle' style='font-size: 8.80px; fill: #4D4D4D; font-family: Arial;' textLength='12.24px' lengthAdjust='spacingAndGlyphs'>0.5</text>
<text x='545.08' y='555.74' text-anchor='middle' style='font-size: 8.80px; fill: #4D4D4D; font-family: Arial;' textLength='12.24px' lengthAdjust='spacingAndGlyphs'>1.0</text>
<text x='301.47' y='568.20' text-anchor='middle' style='font-size: 11.00px; font-family: Arial;' textLength='69.72px' lengthAdjust='spacingAndGlyphs'>Factor loading</text>
<text x='32.43' y='14.93' style='font-size: 13.20px; font-family: Arial;' textLength='196.49px' lengthAdjust='spacingAndGlyphs'>Importance and Perceived Norms</text>
</g>
</svg>
