<?xml version='1.0' encoding='UTF-8' ?>
<svg xmlns='http://www.w3.org/2000/svg' xmlns:xlink='http://www.w3.org/1999/xlink' class='svglite' width='576.00pt' height='576.00pt' viewBox='0 0 576.00 576.00'>
<defs>
  <style type='text/css'><![CDATA[
    .svglite line, .svglite polyline, .svglite polygon, .svglite path, .svglite rect, .svglite circle {
      fill: none;
      stroke: #000000;
      stroke-linecap: round;
      stroke-linejoin: round;
      stroke-miterlimit: 10.00;
    }
  ]]></style>
</defs>
<rect width='100%' height='100%' style='stroke: none; fill: none;'/>
<defs>
  <clipPath id='cpMC4wMHw1NzYuMDB8MC4wMHw1NzYuMDA='>
    <rect x='0.00' y='0.00' width='576.00' height='576.00' />
  </clipPath>
</defs>
<g clip-path='url(#cpMC4wMHw1NzYuMDB8MC4wMHw1NzYuMDA=)'>
</g>
<defs>
  <clipPath id='cpNDIuNDN8NTcwLjUyfDUuNDh8NTQ0LjUw'>
    <rect x='42.43' y='5.48' width='528.09' height='539.02' />
  </clipPath>
</defs>
<g clip-path='url(#cpNDIuNDN8NTcwLjUyfDUuNDh8NTQ0LjUw)'>
<polyline points='123.95,544.50 123.95,5.48 ' style='stroke-width: 0.53; stroke: #EBEBEB; stroke-linecap: butt;' />
<polyline points='247.54,544.50 247.54,5.48 ' style='stroke-width: 0.53; stroke: #EBEBEB; stroke-linecap: butt;' />
<polyline points='371.13,544.50 371.13,5.48 ' style='stroke-width: 0.53; stroke: #EBEBEB; stroke-linecap: butt;' />
<polyline points='494.72,544.50 494.72,5.48 ' style='stroke-width: 0.53; stroke: #EBEBEB; stroke-linecap: butt;' />
<polyline points='42.43,512.80 570.52,512.80 ' style='stroke-width: 1.07; stroke: #EBEBEB; stroke-linecap: butt;' />
<polyline points='42.43,459.95 570.52,459.95 ' style='stroke-width: 1.07; stroke: #EBEBEB; stroke-linecap: butt;' />
<polyline points='42.43,407.11 570.52,407.11 ' style='stroke-width: 1.07; stroke: #EBEBEB; stroke-linecap: butt;' />
<polyline points='42.43,354.26 570.52,354.26 ' style='stroke-width: 1.07; stroke: #EBEBEB; stroke-linecap: butt;' />
<polyline points='42.43,301.41 570.52,301.41 ' style='stroke-width: 1.07; stroke: #EBEBEB; stroke-linecap: butt;' />
<polyline points='42.43,248.57 570.52,248.57 ' style='stroke-width: 1.07; stroke: #EBEBEB; stroke-linecap: butt;' />
<polyline points='42.43,195.72 570.52,195.72 ' style='stroke-width: 1.07; stroke: #EBEBEB; stroke-linecap: butt;' />
<polyline points='42.43,142.88 570.52,142.88 ' style='stroke-width: 1.07; stroke: #EBEBEB; stroke-linecap: butt;' />
<polyline points='42.43,90.03 570.52,90.03 ' style='stroke-width: 1.07; stroke: #EBEBEB; stroke-linecap: butt;' />
<polyline points='42.43,37.19 570.52,37.19 ' style='stroke-width: 1.07; stroke: #EBEBEB; stroke-linecap: butt;' />
<polyline points='62.16,544.50 62.16,5.48 ' style='stroke-width: 1.07; stroke: #EBEBEB; stroke-linecap: butt;' />
<polyline points='185.75,544.50 185.75,5.48 ' style='stroke-width: 1.07; stroke: #EBEBEB; stroke-linecap: butt;' />
<polyline points='309.34,544.50 309.34,5.48 ' style='stroke-width: 1.07; stroke: #EBEBEB; stroke-linecap: butt;' />
<polyline points='432.93,544.50 432.93,5.48 ' style='stroke-width: 1.07; stroke: #EBEBEB; stroke-linecap: butt;' />
<polyline points='556.52,544.50 556.52,5.48 ' style='stroke-width: 1.07; stroke: #EBEBEB; stroke-linecap: butt;' />
<line x1='309.34' y1='544.50' x2='309.34' y2='5.48' style='stroke-width: 1.07; stroke-linecap: butt;' />
<circle cx='317.25' cy='195.72' r='2.38' style='stroke-width: 0.71; stroke: none; fill: #EAE430;' />
<circle cx='309.37' cy='248.57' r='1.42' style='stroke-width: 0.71; stroke: none; fill: #FDE725;' />
<circle cx='328.30' cy='301.41' r='2.91' style='stroke-width: 0.71; stroke: none; fill: #CEDF3B;' />
<circle cx='119.12' cy='354.26' r='6.14' style='stroke-width: 0.71; stroke: none; fill: #404988;' />
<circle cx='85.50' cy='407.11' r='6.54' style='stroke-width: 0.71; stroke: none; fill: #462168;' />
<circle cx='106.01' cy='459.95' r='6.30' style='stroke-width: 0.71; stroke: none; fill: #443A7D;' />
<circle cx='302.42' cy='512.80' r='2.32' style='stroke-width: 0.71; stroke: none; fill: #ECE42E;' />
<circle cx='160.77' cy='37.19' r='5.59' style='stroke-width: 0.71; stroke: none; fill: #2D758E;' />
<circle cx='259.07' cy='90.03' r='3.85' style='stroke-width: 0.71; stroke: none; fill: #78D053;' />
<circle cx='202.29' cy='142.88' r='4.96' style='stroke-width: 0.71; stroke: none; fill: #279E86;' />
<polygon points='505.89,186.05 514.27,200.56 497.51,200.56 ' style='stroke-width: 0.71; stroke: none; fill: #424285;' />
<polygon points='493.97,239.13 502.14,253.29 485.79,253.29 ' style='stroke-width: 0.71; stroke: none; fill: #3F4F89;' />
<polygon points='495.91,291.93 504.12,306.15 487.70,306.15 ' style='stroke-width: 0.71; stroke: none; fill: #404D88;' />
<polygon points='281.55,349.24 285.89,356.77 277.20,356.77 ' style='stroke-width: 0.71; stroke: none; fill: #B7DB43;' />
<polygon points='306.07,403.94 308.81,408.69 303.32,408.69 ' style='stroke-width: 0.71; stroke: none; fill: #F5E62A;' />
<polygon points='321.30,455.90 324.80,461.98 317.79,461.98 ' style='stroke-width: 0.71; stroke: none; fill: #E0E234;' />
<polygon points='387.99,505.87 393.99,516.26 381.99,516.26 ' style='stroke-width: 0.71; stroke: none; fill: #50B773;' />
<polygon points='349.60,31.60 354.44,39.98 344.76,39.98 ' style='stroke-width: 0.71; stroke: none; fill: #94D54C;' />
<polygon points='464.38,81.19 472.03,94.45 456.73,94.45 ' style='stroke-width: 0.71; stroke: none; fill: #326E8D;' />
<polygon points='420.17,135.06 426.93,146.78 413.40,146.78 ' style='stroke-width: 0.71; stroke: none; fill: #299A87;' />
<circle cx='277.21' cy='195.72' r='3.36' style='stroke-width: 0.71; stroke: none; fill: #ABD946;' />
<circle cx='315.28' cy='248.57' r='2.25' style='stroke-width: 0.71; stroke: none; fill: #EFE52D;' />
<circle cx='278.23' cy='301.41' r='3.33' style='stroke-width: 0.71; stroke: none; fill: #AEDA45;' />
<circle cx='89.85' cy='354.26' r='6.49' style='stroke-width: 0.71; stroke: none; fill: #46276C;' />
<circle cx='84.68' cy='407.11' r='6.55' style='stroke-width: 0.71; stroke: none; fill: #462067;' />
<circle cx='85.75' cy='459.95' r='6.54' style='stroke-width: 0.71; stroke: none; fill: #462268;' />
<circle cx='205.56' cy='512.80' r='4.91' style='stroke-width: 0.71; stroke: none; fill: #26A186;' />
<circle cx='142.96' cy='37.19' r='5.84' style='stroke-width: 0.71; stroke: none; fill: #39628B;' />
<circle cx='150.85' cy='90.03' r='5.73' style='stroke-width: 0.71; stroke: none; fill: #356B8C;' />
<circle cx='118.39' cy='142.88' r='6.15' style='stroke-width: 0.71; stroke: none; fill: #414888;' />
<polygon points='441.51,187.39 448.72,199.89 434.30,199.89 ' style='stroke-width: 0.71; stroke: none; fill: #2C858C;' />
<polygon points='525.70,238.53 534.39,253.59 517.00,253.59 ' style='stroke-width: 0.71; stroke: none; fill: #452B6F;' />
<polygon points='437.03,293.19 444.16,305.53 429.91,305.53 ' style='stroke-width: 0.71; stroke: none; fill: #2C8A8B;' />
<polygon points='296.09,350.11 299.68,356.33 292.50,356.33 ' style='stroke-width: 0.71; stroke: none; fill: #DDE235;' />
<polygon points='292.98,402.74 296.76,409.29 289.21,409.29 ' style='stroke-width: 0.71; stroke: none; fill: #D5E039;' />
<polygon points='299.30,456.06 302.67,461.90 295.93,461.90 ' style='stroke-width: 0.71; stroke: none; fill: #E4E332;' />
<polygon points='365.94,506.58 371.32,515.90 360.56,515.90 ' style='stroke-width: 0.71; stroke: none; fill: #70CA5B;' />
<polygon points='337.99,32.13 342.37,39.72 333.61,39.72 ' style='stroke-width: 0.71; stroke: none; fill: #B5DB43;' />
<polygon points='343.80,84.70 348.42,92.70 339.18,92.70 ' style='stroke-width: 0.71; stroke: none; fill: #A5D848;' />
<polygon points='339.28,137.76 343.72,145.44 334.84,145.44 ' style='stroke-width: 0.71; stroke: none; fill: #B1DA44;' />
<circle cx='74.16' cy='195.72' r='6.67' style='stroke-width: 0.71; stroke: none; fill: #45115C;' />
<circle cx='78.25' cy='248.57' r='6.62' style='stroke-width: 0.71; stroke: none; fill: #451760;' />
<circle cx='66.44' cy='301.41' r='6.76' style='stroke-width: 0.71; stroke: none; fill: #440154;' />
<circle cx='133.64' cy='354.26' r='5.96' style='stroke-width: 0.71; stroke: none; fill: #3D588A;' />
<circle cx='118.95' cy='407.11' r='6.14' style='stroke-width: 0.71; stroke: none; fill: #404888;' />
<circle cx='115.87' cy='459.95' r='6.18' style='stroke-width: 0.71; stroke: none; fill: #414587;' />
<circle cx='278.30' cy='512.80' r='3.33' style='stroke-width: 0.71; stroke: none; fill: #AEDA45;' />
<circle cx='142.21' cy='37.19' r='5.85' style='stroke-width: 0.71; stroke: none; fill: #3A618B;' />
<circle cx='277.48' cy='90.03' r='3.35' style='stroke-width: 0.71; stroke: none; fill: #ACD946;' />
<circle cx='153.89' cy='142.88' r='5.69' style='stroke-width: 0.71; stroke: none; fill: #336E8D;' />
<polygon points='283.36,190.80 287.63,198.18 279.10,198.18 ' style='stroke-width: 0.71; stroke: none; fill: #BCDC41;' />
<polygon points='254.01,242.40 259.35,251.65 248.67,251.65 ' style='stroke-width: 0.71; stroke: none; fill: #72CB5A;' />
<polygon points='295.69,297.24 299.31,303.50 292.08,303.50 ' style='stroke-width: 0.71; stroke: none; fill: #DCE236;' />
<polygon points='377.57,347.65 383.29,357.56 371.85,357.56 ' style='stroke-width: 0.71; stroke: none; fill: #61C068;' />
<polygon points='372.35,400.67 377.92,410.32 366.78,410.32 ' style='stroke-width: 0.71; stroke: none; fill: #68C562;' />
<polygon points='361.59,453.89 366.84,462.98 356.35,462.98 ' style='stroke-width: 0.71; stroke: none; fill: #76CE56;' />
<polygon points='454.11,504.18 461.57,517.10 446.65,517.10 ' style='stroke-width: 0.71; stroke: none; fill: #2A798E;' />
<polygon points='349.68,31.60 354.53,39.98 344.84,39.98 ' style='stroke-width: 0.71; stroke: none; fill: #94D54C;' />
<polygon points='483.52,80.80 491.52,94.65 475.53,94.65 ' style='stroke-width: 0.71; stroke: none; fill: #3C5A8A;' />
<polygon points='370.97,136.49 376.50,146.07 365.43,146.07 ' style='stroke-width: 0.71; stroke: none; fill: #6AC661;' />
<circle cx='312.55' cy='195.72' r='2.03' style='stroke-width: 0.71; stroke: none; fill: #F5E62A;' />
<circle cx='309.08' cy='248.57' r='1.58' style='stroke-width: 0.71; stroke: none; fill: #FCE725;' />
<circle cx='267.88' cy='301.41' r='3.62' style='stroke-width: 0.71; stroke: none; fill: #91D54C;' />
<circle cx='71.84' cy='354.26' r='6.70' style='stroke-width: 0.71; stroke: none; fill: #450C59;' />
<circle cx='118.24' cy='407.11' r='6.15' style='stroke-width: 0.71; stroke: none; fill: #414888;' />
<circle cx='125.75' cy='459.95' r='6.06' style='stroke-width: 0.71; stroke: none; fill: #3F5089;' />
<circle cx='149.09' cy='512.80' r='5.75' style='stroke-width: 0.71; stroke: none; fill: #36698C;' />
<circle cx='123.11' cy='37.19' r='6.09' style='stroke-width: 0.71; stroke: none; fill: #404D88;' />
<circle cx='149.21' cy='90.03' r='5.75' style='stroke-width: 0.71; stroke: none; fill: #36698C;' />
<circle cx='148.05' cy='142.88' r='5.77' style='stroke-width: 0.71; stroke: none; fill: #36688C;' />
<polygon points='529.08,185.62 537.83,200.77 520.34,200.77 ' style='stroke-width: 0.71; stroke: none; fill: #46276C;' />
<polygon points='536.40,238.34 545.26,253.68 527.54,253.68 ' style='stroke-width: 0.71; stroke: none; fill: #461D64;' />
<polygon points='481.77,292.21 489.74,306.01 473.80,306.01 ' style='stroke-width: 0.71; stroke: none; fill: #3C5C8A;' />
<polygon points='268.28,348.64 273.14,357.07 263.41,357.07 ' style='stroke-width: 0.71; stroke: none; fill: #92D54C;' />
<polygon points='342.12,401.85 346.67,409.73 337.56,409.73 ' style='stroke-width: 0.71; stroke: none; fill: #AAD946;' />
<polygon points='351.74,454.28 356.66,462.79 346.82,462.79 ' style='stroke-width: 0.71; stroke: none; fill: #8ED44D;' />
<polygon points='311.36,509.84 313.92,514.28 308.79,514.28 ' style='stroke-width: 0.71; stroke: none; fill: #F8E628;' />
<polygon points='332.92,32.39 337.07,39.58 328.77,39.58 ' style='stroke-width: 0.71; stroke: none; fill: #C2DD3F;' />
<polygon points='299.02,86.12 302.42,91.99 295.63,91.99 ' style='stroke-width: 0.71; stroke: none; fill: #E4E332;' />
<polygon points='337.97,137.82 342.35,145.41 333.59,145.41 ' style='stroke-width: 0.71; stroke: none; fill: #B5DB43;' />
<circle cx='324.37' cy='195.72' r='2.75' style='stroke-width: 0.71; stroke: none; fill: #D8E137;' />
<circle cx='297.48' cy='248.57' r='2.60' style='stroke-width: 0.71; stroke: none; fill: #E0E234;' />
<circle cx='304.75' cy='301.41' r='2.15' style='stroke-width: 0.71; stroke: none; fill: #F2E52B;' />
<circle cx='94.24' cy='354.26' r='6.44' style='stroke-width: 0.71; stroke: none; fill: #452C71;' />
<circle cx='113.97' cy='407.11' r='6.21' style='stroke-width: 0.71; stroke: none; fill: #414386;' />
<circle cx='86.87' cy='459.95' r='6.53' style='stroke-width: 0.71; stroke: none; fill: #462369;' />
<circle cx='220.46' cy='512.80' r='4.65' style='stroke-width: 0.71; stroke: none; fill: #3BAF7C;' />
<circle cx='150.55' cy='37.19' r='5.73' style='stroke-width: 0.71; stroke: none; fill: #356A8C;' />
<circle cx='234.98' cy='90.03' r='4.37' style='stroke-width: 0.71; stroke: none; fill: #57BB6F;' />
<circle cx='156.94' cy='142.88' r='5.65' style='stroke-width: 0.71; stroke: none; fill: #30718D;' />
<polygon points='546.52,185.31 555.53,200.93 537.50,200.93 ' style='stroke-width: 0.71; stroke: none; fill: #450D5A;' />
<polygon points='521.69,238.60 530.32,253.55 513.05,253.55 ' style='stroke-width: 0.71; stroke: none; fill: #453074;' />
<polygon points='543.66,291.06 552.63,306.59 534.69,306.59 ' style='stroke-width: 0.71; stroke: none; fill: #45125D;' />
<polygon points='309.14,351.84 311.24,355.47 307.04,355.47 ' style='stroke-width: 0.71; stroke: none; fill: #FDE725;' />
<polygon points='314.14,403.73 317.07,408.79 311.22,408.79 ' style='stroke-width: 0.71; stroke: none; fill: #F1E52C;' />
<polygon points='300.23,456.14 303.53,461.86 296.93,461.86 ' style='stroke-width: 0.71; stroke: none; fill: #E7E331;' />
<polygon points='380.40,506.10 386.20,516.15 374.60,516.15 ' style='stroke-width: 0.71; stroke: none; fill: #5CBE6B;' />
<polygon points='297.00,33.11 300.53,39.23 293.46,39.23 ' style='stroke-width: 0.71; stroke: none; fill: #DFE234;' />
<polygon points='425.23,82.09 432.11,94.00 418.36,94.00 ' style='stroke-width: 0.71; stroke: none; fill: #2A9588;' />
<polygon points='351.50,137.21 356.41,145.71 346.59,145.71 ' style='stroke-width: 0.71; stroke: none; fill: #8ED44D;' />
<circle cx='326.31' cy='195.72' r='2.83' style='stroke-width: 0.71; stroke: none; fill: #D3E039;' />
<circle cx='316.84' cy='248.57' r='2.36' style='stroke-width: 0.71; stroke: none; fill: #EBE42F;' />
<circle cx='233.16' cy='301.41' r='4.41' style='stroke-width: 0.71; stroke: none; fill: #54B970;' />
<circle cx='95.79' cy='354.26' r='6.42' style='stroke-width: 0.71; stroke: none; fill: #452E72;' />
<circle cx='105.15' cy='407.11' r='6.31' style='stroke-width: 0.71; stroke: none; fill: #44397C;' />
<circle cx='99.19' cy='459.95' r='6.38' style='stroke-width: 0.71; stroke: none; fill: #453276;' />
<circle cx='182.35' cy='512.80' r='5.28' style='stroke-width: 0.71; stroke: none; fill: #2C8A8B;' />
<circle cx='192.78' cy='37.19' r='5.12' style='stroke-width: 0.71; stroke: none; fill: #2A9588;' />
<circle cx='222.94' cy='90.03' r='4.60' style='stroke-width: 0.71; stroke: none; fill: #41B17A;' />
<circle cx='196.95' cy='142.88' r='5.05' style='stroke-width: 0.71; stroke: none; fill: #299988;' />
<polygon points='521.58,185.76 530.21,200.71 512.95,200.71 ' style='stroke-width: 0.71; stroke: none; fill: #453074;' />
<polygon points='514.07,238.74 522.58,253.48 505.56,253.48 ' style='stroke-width: 0.71; stroke: none; fill: #44387C;' />
<polygon points='416.86,293.68 423.55,305.28 410.17,305.28 ' style='stroke-width: 0.71; stroke: none; fill: #279E86;' />
<polygon points='301.92,350.60 305.09,356.09 298.75,356.09 ' style='stroke-width: 0.71; stroke: none; fill: #EBE42F;' />
<polygon points='284.74,402.26 288.94,409.53 280.54,409.53 ' style='stroke-width: 0.71; stroke: none; fill: #BFDD40;' />
<polygon points='310.70,457.13 313.15,461.36 308.25,461.36 ' style='stroke-width: 0.71; stroke: none; fill: #FAE627;' />
<polygon points='413.27,505.16 419.89,516.61 406.66,516.61 ' style='stroke-width: 0.71; stroke: none; fill: #26A186;' />
<polygon points='382.13,30.44 387.98,40.56 376.28,40.56 ' style='stroke-width: 0.71; stroke: none; fill: #5ABC6D;' />
<polygon points='433.41,81.89 440.46,94.10 426.36,94.10 ' style='stroke-width: 0.71; stroke: none; fill: #2B8D8A;' />
<polygon points='408.16,135.38 414.66,146.63 401.66,146.63 ' style='stroke-width: 0.71; stroke: none; fill: #23A684;' />
<text x='309.08' y='190.25' text-anchor='middle' style='font-size: 8.54px; font-family: Arial;' textLength='11.85px' lengthAdjust='spacingAndGlyphs'>AU</text>
<text x='300.82' y='260.95' text-anchor='middle' style='font-size: 8.54px; font-family: Arial;' textLength='11.85px' lengthAdjust='spacingAndGlyphs'>AU</text>
<text x='338.44' y='304.45' text-anchor='middle' style='font-size: 8.54px; font-family: Arial;' textLength='11.85px' lengthAdjust='spacingAndGlyphs'>AU</text>
<text x='125.11' y='348.26' text-anchor='middle' style='font-size: 8.54px; font-family: Arial;' textLength='11.85px' lengthAdjust='spacingAndGlyphs'>AU</text>
<line x1='79.55' y1='401.85' x2='85.50' y2='407.11' style='stroke-width: 1.07;' />
<text x='71.82' y='403.46' text-anchor='middle' style='font-size: 8.54px; font-family: Arial;' textLength='11.85px' lengthAdjust='spacingAndGlyphs'>AU</text>
<text x='108.17' y='452.79' text-anchor='middle' style='font-size: 8.54px; font-family: Arial;' textLength='11.85px' lengthAdjust='spacingAndGlyphs'>AU</text>
<text x='292.88' y='515.86' text-anchor='middle' style='font-size: 8.54px; font-family: Arial;' textLength='11.85px' lengthAdjust='spacingAndGlyphs'>AU</text>
<text x='171.79' y='40.26' text-anchor='middle' style='font-size: 8.54px; font-family: Arial;' textLength='11.85px' lengthAdjust='spacingAndGlyphs'>AU</text>
<text x='267.48' y='100.25' text-anchor='middle' style='font-size: 8.54px; font-family: Arial;' textLength='11.85px' lengthAdjust='spacingAndGlyphs'>AU</text>
<text x='211.88' y='145.95' text-anchor='middle' style='font-size: 8.54px; font-family: Arial;' textLength='11.85px' lengthAdjust='spacingAndGlyphs'>AU</text>
<text x='495.24' y='198.74' text-anchor='middle' style='font-size: 8.54px; font-family: Arial;' textLength='11.85px' lengthAdjust='spacingAndGlyphs'>AU</text>
<text x='481.50' y='251.73' text-anchor='middle' style='font-size: 8.54px; font-family: Arial;' textLength='11.85px' lengthAdjust='spacingAndGlyphs'>AU</text>
<text x='505.58' y='304.48' text-anchor='middle' style='font-size: 8.54px; font-family: Arial;' textLength='11.85px' lengthAdjust='spacingAndGlyphs'>AU</text>
<text x='274.47' y='348.63' text-anchor='middle' style='font-size: 8.54px; font-family: Arial;' textLength='11.85px' lengthAdjust='spacingAndGlyphs'>AU</text>
<text x='302.96' y='417.03' text-anchor='middle' style='font-size: 8.54px; font-family: Arial;' textLength='11.85px' lengthAdjust='spacingAndGlyphs'>AU</text>
<text x='332.70' y='462.95' text-anchor='middle' style='font-size: 8.54px; font-family: Arial;' textLength='11.85px' lengthAdjust='spacingAndGlyphs'>AU</text>
<text x='398.35' y='515.85' text-anchor='middle' style='font-size: 8.54px; font-family: Arial;' textLength='11.85px' lengthAdjust='spacingAndGlyphs'>AU</text>
<line x1='361.26' y1='42.29' x2='349.60' y2='37.19' style='stroke-width: 1.07;' />
<text x='368.99' y='45.79' text-anchor='middle' style='font-size: 8.54px; font-family: Arial;' textLength='11.85px' lengthAdjust='spacingAndGlyphs'>AU</text>
<text x='458.71' y='101.26' text-anchor='middle' style='font-size: 8.54px; font-family: Arial;' textLength='11.85px' lengthAdjust='spacingAndGlyphs'>AU</text>
<text x='430.80' y='145.93' text-anchor='middle' style='font-size: 8.54px; font-family: Arial;' textLength='11.85px' lengthAdjust='spacingAndGlyphs'>AU</text>
<text x='269.08' y='199.13' text-anchor='middle' style='font-size: 8.54px; font-family: Arial;' textLength='8.06px' lengthAdjust='spacingAndGlyphs'>AI</text>
<text x='323.04' y='243.83' text-anchor='middle' style='font-size: 8.54px; font-family: Arial;' textLength='8.06px' lengthAdjust='spacingAndGlyphs'>AI</text>
<text x='273.91' y='311.94' text-anchor='middle' style='font-size: 8.54px; font-family: Arial;' textLength='8.06px' lengthAdjust='spacingAndGlyphs'>AI</text>
<text x='80.09' y='360.88' text-anchor='middle' style='font-size: 8.54px; font-family: Arial;' textLength='8.06px' lengthAdjust='spacingAndGlyphs'>AI</text>
<text x='78.22' y='416.93' text-anchor='middle' style='font-size: 8.54px; font-family: Arial;' textLength='8.06px' lengthAdjust='spacingAndGlyphs'>AI</text>
<line x1='68.86' y1='465.12' x2='85.75' y2='459.95' style='stroke-width: 1.07;' />
<text x='63.03' y='468.40' text-anchor='middle' style='font-size: 8.54px; font-family: Arial;' textLength='8.06px' lengthAdjust='spacingAndGlyphs'>AI</text>
<text x='197.83' y='515.83' text-anchor='middle' style='font-size: 8.54px; font-family: Arial;' textLength='8.06px' lengthAdjust='spacingAndGlyphs'>AI</text>
<text x='137.32' y='48.53' text-anchor='middle' style='font-size: 8.54px; font-family: Arial;' textLength='8.06px' lengthAdjust='spacingAndGlyphs'>AI</text>
<text x='159.25' y='93.11' text-anchor='middle' style='font-size: 8.54px; font-family: Arial;' textLength='8.06px' lengthAdjust='spacingAndGlyphs'>AI</text>
<text x='110.67' y='145.51' text-anchor='middle' style='font-size: 8.54px; font-family: Arial;' textLength='8.06px' lengthAdjust='spacingAndGlyphs'>AI</text>
<text x='448.10' y='192.05' text-anchor='middle' style='font-size: 8.54px; font-family: Arial;' textLength='8.06px' lengthAdjust='spacingAndGlyphs'>AI</text>
<text x='532.00' y='244.23' text-anchor='middle' style='font-size: 8.54px; font-family: Arial;' textLength='8.06px' lengthAdjust='spacingAndGlyphs'>AI</text>
<text x='443.95' y='297.41' text-anchor='middle' style='font-size: 8.54px; font-family: Arial;' textLength='8.06px' lengthAdjust='spacingAndGlyphs'>AI</text>
<text x='291.05' y='364.54' text-anchor='middle' style='font-size: 8.54px; font-family: Arial;' textLength='8.06px' lengthAdjust='spacingAndGlyphs'>AI</text>
<line x1='285.87' y1='400.70' x2='292.98' y2='407.11' style='stroke-width: 1.07;' />
<text x='280.04' y='402.48' text-anchor='middle' style='font-size: 8.54px; font-family: Arial;' textLength='8.06px' lengthAdjust='spacingAndGlyphs'>AI</text>
<line x1='285.68' y1='462.25' x2='299.30' y2='459.95' style='stroke-width: 1.07;' />
<text x='279.85' y='465.34' text-anchor='middle' style='font-size: 8.54px; font-family: Arial;' textLength='8.06px' lengthAdjust='spacingAndGlyphs'>AI</text>
<text x='358.17' y='515.85' text-anchor='middle' style='font-size: 8.54px; font-family: Arial;' textLength='8.06px' lengthAdjust='spacingAndGlyphs'>AI</text>
<text x='332.29' y='48.80' text-anchor='middle' style='font-size: 8.54px; font-family: Arial;' textLength='8.06px' lengthAdjust='spacingAndGlyphs'>AI</text>
<text x='350.51' y='85.48' text-anchor='middle' style='font-size: 8.54px; font-family: Arial;' textLength='8.06px' lengthAdjust='spacingAndGlyphs'>AI</text>
<text x='344.35' y='155.38' text-anchor='middle' style='font-size: 8.54px; font-family: Arial;' textLength='8.06px' lengthAdjust='spacingAndGlyphs'>AI</text>
<text x='67.91' y='205.87' text-anchor='middle' style='font-size: 8.54px; font-family: Arial;' textLength='12.33px' lengthAdjust='spacingAndGlyphs'>CU</text>
<text x='85.51' y='244.22' text-anchor='middle' style='font-size: 8.54px; font-family: Arial;' textLength='12.33px' lengthAdjust='spacingAndGlyphs'>CU</text>
<text x='73.25' y='297.52' text-anchor='middle' style='font-size: 8.54px; font-family: Arial;' textLength='12.33px' lengthAdjust='spacingAndGlyphs'>CU</text>
<text x='144.93' y='358.40' text-anchor='middle' style='font-size: 8.54px; font-family: Arial;' textLength='12.33px' lengthAdjust='spacingAndGlyphs'>CU</text>
<line x1='136.45' y1='405.87' x2='118.95' y2='407.11' style='stroke-width: 1.07;' />
<text x='144.41' y='408.92' text-anchor='middle' style='font-size: 8.54px; font-family: Arial;' textLength='12.33px' lengthAdjust='spacingAndGlyphs'>CU</text>
<text x='120.99' y='472.71' text-anchor='middle' style='font-size: 8.54px; font-family: Arial;' textLength='12.33px' lengthAdjust='spacingAndGlyphs'>CU</text>
<text x='267.98' y='515.84' text-anchor='middle' style='font-size: 8.54px; font-family: Arial;' textLength='12.33px' lengthAdjust='spacingAndGlyphs'>CU</text>
<text x='130.70' y='33.28' text-anchor='middle' style='font-size: 8.54px; font-family: Arial;' textLength='12.33px' lengthAdjust='spacingAndGlyphs'>CU</text>
<text x='288.16' y='93.09' text-anchor='middle' style='font-size: 8.54px; font-family: Arial;' textLength='12.33px' lengthAdjust='spacingAndGlyphs'>CU</text>
<text x='145.27' y='138.50' text-anchor='middle' style='font-size: 8.54px; font-family: Arial;' textLength='12.33px' lengthAdjust='spacingAndGlyphs'>CU</text>
<text x='288.62' y='191.92' text-anchor='middle' style='font-size: 8.54px; font-family: Arial;' textLength='12.33px' lengthAdjust='spacingAndGlyphs'>CU</text>
<text x='261.15' y='244.34' text-anchor='middle' style='font-size: 8.54px; font-family: Arial;' textLength='12.33px' lengthAdjust='spacingAndGlyphs'>CU</text>
<text x='288.35' y='297.46' text-anchor='middle' style='font-size: 8.54px; font-family: Arial;' textLength='12.33px' lengthAdjust='spacingAndGlyphs'>CU</text>
<text x='369.71' y='365.34' text-anchor='middle' style='font-size: 8.54px; font-family: Arial;' textLength='12.33px' lengthAdjust='spacingAndGlyphs'>CU</text>
<text x='368.99' y='419.97' text-anchor='middle' style='font-size: 8.54px; font-family: Arial;' textLength='12.33px' lengthAdjust='spacingAndGlyphs'>CU</text>
<text x='371.51' y='463.01' text-anchor='middle' style='font-size: 8.54px; font-family: Arial;' textLength='12.33px' lengthAdjust='spacingAndGlyphs'>CU</text>
<text x='461.95' y='507.85' text-anchor='middle' style='font-size: 8.54px; font-family: Arial;' textLength='12.33px' lengthAdjust='spacingAndGlyphs'>CU</text>
<text x='356.23' y='32.47' text-anchor='middle' style='font-size: 8.54px; font-family: Arial;' textLength='12.33px' lengthAdjust='spacingAndGlyphs'>CU</text>
<text x='489.66' y='86.13' text-anchor='middle' style='font-size: 8.54px; font-family: Arial;' textLength='12.33px' lengthAdjust='spacingAndGlyphs'>CU</text>
<text x='381.76' y='145.94' text-anchor='middle' style='font-size: 8.54px; font-family: Arial;' textLength='12.33px' lengthAdjust='spacingAndGlyphs'>CU</text>
<text x='303.86' y='206.19' text-anchor='middle' style='font-size: 8.54px; font-family: Arial;' textLength='8.53px' lengthAdjust='spacingAndGlyphs'>CI</text>
<text x='306.97' y='241.78' text-anchor='middle' style='font-size: 8.54px; font-family: Arial;' textLength='8.53px' lengthAdjust='spacingAndGlyphs'>CI</text>
<text x='258.13' y='303.24' text-anchor='middle' style='font-size: 8.54px; font-family: Arial;' textLength='8.53px' lengthAdjust='spacingAndGlyphs'>CI</text>
<text x='63.78' y='357.31' text-anchor='middle' style='font-size: 8.54px; font-family: Arial;' textLength='8.53px' lengthAdjust='spacingAndGlyphs'>CI</text>
<text x='126.03' y='418.75' text-anchor='middle' style='font-size: 8.54px; font-family: Arial;' textLength='8.53px' lengthAdjust='spacingAndGlyphs'>CI</text>
<line x1='133.32' y1='457.30' x2='125.75' y2='459.95' style='stroke-width: 1.07;' />
<text x='139.38' y='460.18' text-anchor='middle' style='font-size: 8.54px; font-family: Arial;' textLength='8.53px' lengthAdjust='spacingAndGlyphs'>CI</text>
<text x='155.90' y='508.91' text-anchor='middle' style='font-size: 8.54px; font-family: Arial;' textLength='8.53px' lengthAdjust='spacingAndGlyphs'>CI</text>
<text x='112.71' y='42.23' text-anchor='middle' style='font-size: 8.54px; font-family: Arial;' textLength='8.53px' lengthAdjust='spacingAndGlyphs'>CI</text>
<text x='140.85' y='93.07' text-anchor='middle' style='font-size: 8.54px; font-family: Arial;' textLength='8.53px' lengthAdjust='spacingAndGlyphs'>CI</text>
<line x1='135.27' y1='149.63' x2='148.05' y2='142.88' style='stroke-width: 1.07;' />
<text x='129.21' y='153.23' text-anchor='middle' style='font-size: 8.54px; font-family: Arial;' textLength='8.53px' lengthAdjust='spacingAndGlyphs'>CI</text>
<text x='536.99' y='198.77' text-anchor='middle' style='font-size: 8.54px; font-family: Arial;' textLength='8.53px' lengthAdjust='spacingAndGlyphs'>CI</text>
<text x='548.63' y='251.65' text-anchor='middle' style='font-size: 8.54px; font-family: Arial;' textLength='8.53px' lengthAdjust='spacingAndGlyphs'>CI</text>
<text x='473.61' y='304.48' text-anchor='middle' style='font-size: 8.54px; font-family: Arial;' textLength='8.53px' lengthAdjust='spacingAndGlyphs'>CI</text>
<line x1='260.68' y1='355.11' x2='268.28' y2='354.26' style='stroke-width: 1.07;' />
<text x='254.61' y='358.17' text-anchor='middle' style='font-size: 8.54px; font-family: Arial;' textLength='8.53px' lengthAdjust='spacingAndGlyphs'>CI</text>
<text x='350.39' y='406.39' text-anchor='middle' style='font-size: 8.54px; font-family: Arial;' textLength='8.53px' lengthAdjust='spacingAndGlyphs'>CI</text>
<text x='352.39' y='470.03' text-anchor='middle' style='font-size: 8.54px; font-family: Arial;' textLength='8.53px' lengthAdjust='spacingAndGlyphs'>CI</text>
<text x='319.84' y='515.84' text-anchor='middle' style='font-size: 8.54px; font-family: Arial;' textLength='8.53px' lengthAdjust='spacingAndGlyphs'>CI</text>
<line x1='321.73' y1='36.72' x2='332.92' y2='37.19' style='stroke-width: 1.07;' />
<text x='315.67' y='39.77' text-anchor='middle' style='font-size: 8.54px; font-family: Arial;' textLength='8.53px' lengthAdjust='spacingAndGlyphs'>CI</text>
<text x='307.77' y='93.10' text-anchor='middle' style='font-size: 8.54px; font-family: Arial;' textLength='8.53px' lengthAdjust='spacingAndGlyphs'>CI</text>
<text x='328.44' y='145.89' text-anchor='middle' style='font-size: 8.54px; font-family: Arial;' textLength='8.53px' lengthAdjust='spacingAndGlyphs'>CI</text>
<text x='338.08' y='203.70' text-anchor='middle' style='font-size: 8.54px; font-family: Arial;' textLength='11.85px' lengthAdjust='spacingAndGlyphs'>EU</text>
<line x1='290.66' y1='245.02' x2='297.48' y2='248.57' style='stroke-width: 1.07;' />
<text x='282.93' y='247.51' text-anchor='middle' style='font-size: 8.54px; font-family: Arial;' textLength='11.85px' lengthAdjust='spacingAndGlyphs'>EU</text>
<text x='314.26' y='304.50' text-anchor='middle' style='font-size: 8.54px; font-family: Arial;' textLength='11.85px' lengthAdjust='spacingAndGlyphs'>EU</text>
<text x='97.63' y='347.08' text-anchor='middle' style='font-size: 8.54px; font-family: Arial;' textLength='11.85px' lengthAdjust='spacingAndGlyphs'>EU</text>
<text x='109.10' y='399.40' text-anchor='middle' style='font-size: 8.54px; font-family: Arial;' textLength='11.85px' lengthAdjust='spacingAndGlyphs'>EU</text>
<text x='79.15' y='454.89' text-anchor='middle' style='font-size: 8.54px; font-family: Arial;' textLength='11.85px' lengthAdjust='spacingAndGlyphs'>EU</text>
<text x='230.18' y='515.84' text-anchor='middle' style='font-size: 8.54px; font-family: Arial;' textLength='11.85px' lengthAdjust='spacingAndGlyphs'>EU</text>
<text x='151.30' y='30.39' text-anchor='middle' style='font-size: 8.54px; font-family: Arial;' textLength='11.85px' lengthAdjust='spacingAndGlyphs'>EU</text>
<text x='245.44' y='93.09' text-anchor='middle' style='font-size: 8.54px; font-family: Arial;' textLength='11.85px' lengthAdjust='spacingAndGlyphs'>EU</text>
<text x='168.88' y='146.02' text-anchor='middle' style='font-size: 8.54px; font-family: Arial;' textLength='11.85px' lengthAdjust='spacingAndGlyphs'>EU</text>
<text x='556.97' y='198.79' text-anchor='middle' style='font-size: 8.54px; font-family: Arial;' textLength='11.85px' lengthAdjust='spacingAndGlyphs'>EU</text>
<text x='516.66' y='259.18' text-anchor='middle' style='font-size: 8.54px; font-family: Arial;' textLength='11.85px' lengthAdjust='spacingAndGlyphs'>EU</text>
<text x='536.13' y='311.38' text-anchor='middle' style='font-size: 8.54px; font-family: Arial;' textLength='11.85px' lengthAdjust='spacingAndGlyphs'>EU</text>
<line x1='322.01' y1='356.84' x2='309.14' y2='354.26' style='stroke-width: 1.07;' />
<text x='329.73' y='359.95' text-anchor='middle' style='font-size: 8.54px; font-family: Arial;' textLength='11.85px' lengthAdjust='spacingAndGlyphs'>EU</text>
<text x='323.68' y='410.14' text-anchor='middle' style='font-size: 8.54px; font-family: Arial;' textLength='11.85px' lengthAdjust='spacingAndGlyphs'>EU</text>
<text x='297.26' y='452.85' text-anchor='middle' style='font-size: 8.54px; font-family: Arial;' textLength='11.85px' lengthAdjust='spacingAndGlyphs'>EU</text>
<text x='376.46' y='524.46' text-anchor='middle' style='font-size: 8.54px; font-family: Arial;' textLength='11.85px' lengthAdjust='spacingAndGlyphs'>EU</text>
<text x='286.96' y='41.66' text-anchor='middle' style='font-size: 8.54px; font-family: Arial;' textLength='11.85px' lengthAdjust='spacingAndGlyphs'>EU</text>
<text x='415.51' y='93.08' text-anchor='middle' style='font-size: 8.54px; font-family: Arial;' textLength='11.85px' lengthAdjust='spacingAndGlyphs'>EU</text>
<text x='360.18' y='138.26' text-anchor='middle' style='font-size: 8.54px; font-family: Arial;' textLength='11.85px' lengthAdjust='spacingAndGlyphs'>EU</text>
<text x='328.85' y='188.36' text-anchor='middle' style='font-size: 8.54px; font-family: Arial;' textLength='8.06px' lengthAdjust='spacingAndGlyphs'>EI</text>
<line x1='324.30' y1='253.97' x2='316.84' y2='248.57' style='stroke-width: 1.07;' />
<text x='330.13' y='258.10' text-anchor='middle' style='font-size: 8.54px; font-family: Arial;' textLength='8.06px' lengthAdjust='spacingAndGlyphs'>EI</text>
<text x='239.37' y='297.42' text-anchor='middle' style='font-size: 8.54px; font-family: Arial;' textLength='8.06px' lengthAdjust='spacingAndGlyphs'>EI</text>
<text x='106.76' y='362.28' text-anchor='middle' style='font-size: 8.54px; font-family: Arial;' textLength='8.06px' lengthAdjust='spacingAndGlyphs'>EI</text>
<text x='95.35' y='413.54' text-anchor='middle' style='font-size: 8.54px; font-family: Arial;' textLength='8.06px' lengthAdjust='spacingAndGlyphs'>EI</text>
<text x='95.35' y='469.69' text-anchor='middle' style='font-size: 8.54px; font-family: Arial;' textLength='8.06px' lengthAdjust='spacingAndGlyphs'>EI</text>
<text x='174.57' y='515.94' text-anchor='middle' style='font-size: 8.54px; font-family: Arial;' textLength='8.06px' lengthAdjust='spacingAndGlyphs'>EI</text>
<text x='198.82' y='33.39' text-anchor='middle' style='font-size: 8.54px; font-family: Arial;' textLength='8.06px' lengthAdjust='spacingAndGlyphs'>EI</text>
<text x='214.44' y='93.08' text-anchor='middle' style='font-size: 8.54px; font-family: Arial;' textLength='8.06px' lengthAdjust='spacingAndGlyphs'>EI</text>
<text x='189.26' y='145.92' text-anchor='middle' style='font-size: 8.54px; font-family: Arial;' textLength='8.06px' lengthAdjust='spacingAndGlyphs'>EI</text>
<text x='513.95' y='202.30' text-anchor='middle' style='font-size: 8.54px; font-family: Arial;' textLength='8.06px' lengthAdjust='spacingAndGlyphs'>EI</text>
<text x='502.89' y='245.22' text-anchor='middle' style='font-size: 8.54px; font-family: Arial;' textLength='8.06px' lengthAdjust='spacingAndGlyphs'>EI</text>
<text x='424.64' y='296.53' text-anchor='middle' style='font-size: 8.54px; font-family: Arial;' textLength='8.06px' lengthAdjust='spacingAndGlyphs'>EI</text>
<line x1='306.34' y1='348.07' x2='301.92' y2='354.26' style='stroke-width: 1.07;' />
<text x='312.17' y='349.18' text-anchor='middle' style='font-size: 8.54px; font-family: Arial;' textLength='8.06px' lengthAdjust='spacingAndGlyphs'>EI</text>
<line x1='270.51' y1='411.71' x2='284.74' y2='407.11' style='stroke-width: 1.07;' />
<text x='264.68' y='415.02' text-anchor='middle' style='font-size: 8.54px; font-family: Arial;' textLength='8.06px' lengthAdjust='spacingAndGlyphs'>EI</text>
<text x='315.42' y='470.80' text-anchor='middle' style='font-size: 8.54px; font-family: Arial;' textLength='8.06px' lengthAdjust='spacingAndGlyphs'>EI</text>
<text x='421.40' y='515.87' text-anchor='middle' style='font-size: 8.54px; font-family: Arial;' textLength='8.06px' lengthAdjust='spacingAndGlyphs'>EI</text>
<text x='390.41' y='39.84' text-anchor='middle' style='font-size: 8.54px; font-family: Arial;' textLength='8.06px' lengthAdjust='spacingAndGlyphs'>EI</text>
<text x='441.55' y='86.24' text-anchor='middle' style='font-size: 8.54px; font-family: Arial;' textLength='8.06px' lengthAdjust='spacingAndGlyphs'>EI</text>
<text x='399.64' y='145.96' text-anchor='middle' style='font-size: 8.54px; font-family: Arial;' textLength='8.06px' lengthAdjust='spacingAndGlyphs'>EI</text>
</g>
<g clip-path='url(#cpMC4wMHw1NzYuMDB8MC4wMHw1NzYuMDA=)'>
<text x='37.50' y='515.95' text-anchor='end' style='font-size: 8.80px; fill: #4D4D4D; font-family: Arial;' textLength='17.14px' lengthAdjust='spacingAndGlyphs'>attI7</text>
<text x='37.50' y='463.10' text-anchor='end' style='font-size: 8.80px; fill: #4D4D4D; font-family: Arial;' textLength='17.14px' lengthAdjust='spacingAndGlyphs'>attI6</text>
<text x='37.50' y='410.26' text-anchor='end' style='font-size: 8.80px; fill: #4D4D4D; font-family: Arial;' textLength='17.14px' lengthAdjust='spacingAndGlyphs'>attI5</text>
<text x='37.50' y='357.41' text-anchor='end' style='font-size: 8.80px; fill: #4D4D4D; font-family: Arial;' textLength='17.14px' lengthAdjust='spacingAndGlyphs'>attI4</text>
<text x='37.50' y='304.56' text-anchor='end' style='font-size: 8.80px; fill: #4D4D4D; font-family: Arial;' textLength='17.14px' lengthAdjust='spacingAndGlyphs'>attI3</text>
<text x='37.50' y='251.72' text-anchor='end' style='font-size: 8.80px; fill: #4D4D4D; font-family: Arial;' textLength='17.14px' lengthAdjust='spacingAndGlyphs'>attI2</text>
<text x='37.50' y='198.87' text-anchor='end' style='font-size: 8.80px; fill: #4D4D4D; font-family: Arial;' textLength='17.14px' lengthAdjust='spacingAndGlyphs'>attI1</text>
<text x='37.50' y='146.03' text-anchor='end' style='font-size: 8.80px; fill: #4D4D4D; font-family: Arial;' textLength='19.09px' lengthAdjust='spacingAndGlyphs'>intn3</text>
<text x='37.50' y='93.18' text-anchor='end' style='font-size: 8.80px; fill: #4D4D4D; font-family: Arial;' textLength='19.09px' lengthAdjust='spacingAndGlyphs'>intn2</text>
<text x='37.50' y='40.34' text-anchor='end' style='font-size: 8.80px; fill: #4D4D4D; font-family: Arial;' textLength='19.09px' lengthAdjust='spacingAndGlyphs'>intn1</text>
<text x='62.16' y='555.74' text-anchor='middle' style='font-size: 8.80px; fill: #4D4D4D; font-family: Arial;' textLength='15.17px' lengthAdjust='spacingAndGlyphs'>-1.0</text>
<text x='185.75' y='555.74' text-anchor='middle' style='font-size: 8.80px; fill: #4D4D4D; font-family: Arial;' textLength='15.17px' lengthAdjust='spacingAndGlyphs'>-0.5</text>
<text x='309.34' y='555.74' text-anchor='middle' style='font-size: 8.80px; fill: #4D4D4D; font-family: Arial;' textLength='12.24px' lengthAdjust='spacingAndGlyphs'>0.0</text>
<text x='432.93' y='555.74' text-anchor='middle' style='font-size: 8.80px; fill: #4D4D4D; font-family: Arial;' textLength='12.24px' lengthAdjust='spacingAndGlyphs'>0.5</text>
<text x='556.52' y='555.74' text-anchor='middle' style='font-size: 8.80px; fill: #4D4D4D; font-family: Arial;' textLength='12.24px' lengthAdjust='spacingAndGlyphs'>1.0</text>
<text x='306.48' y='568.20' text-anchor='middle' style='font-size: 11.00px; font-family: Arial;' textLength='66.69px' lengthAdjust='spacingAndGlyphs'>factorLoading</text>
<text transform='translate(13.36,274.99) rotate(-90)' text-anchor='middle' style='font-size: 11.00px; font-family: Arial;' textLength='20.79px' lengthAdjust='spacingAndGlyphs'>item</text>
</g>
</svg>
