<?xml version='1.0' encoding='UTF-8' ?>
<svg xmlns='http://www.w3.org/2000/svg' xmlns:xlink='http://www.w3.org/1999/xlink' class='svglite' width='576.00pt' height='576.00pt' viewBox='0 0 576.00 576.00'>
<defs>
  <style type='text/css'><![CDATA[
    .svglite line, .svglite polyline, .svglite polygon, .svglite path, .svglite rect, .svglite circle {
      fill: none;
      stroke: #000000;
      stroke-linecap: round;
      stroke-linejoin: round;
      stroke-miterlimit: 10.00;
    }
  ]]></style>
</defs>
<rect width='100%' height='100%' style='stroke: none; fill: none;'/>
<defs>
  <clipPath id='cpMC4wMHw1NzYuMDB8MC4wMHw1NzYuMDA='>
    <rect x='0.00' y='0.00' width='576.00' height='576.00' />
  </clipPath>
</defs>
<g clip-path='url(#cpMC4wMHw1NzYuMDB8MC4wMHw1NzYuMDA=)'>
</g>
<defs>
  <clipPath id='cpNDIuOTF8NTcwLjUyfDUuNDh8NTQ0LjUw'>
    <rect x='42.91' y='5.48' width='527.61' height='539.02' />
  </clipPath>
</defs>
<g clip-path='url(#cpNDIuOTF8NTcwLjUyfDUuNDh8NTQ0LjUw)'>
<polyline points='110.58,544.50 110.58,5.48 ' style='stroke-width: 0.53; stroke: #EBEBEB; stroke-linecap: butt;' />
<polyline points='233.85,544.50 233.85,5.48 ' style='stroke-width: 0.53; stroke: #EBEBEB; stroke-linecap: butt;' />
<polyline points='357.13,544.50 357.13,5.48 ' style='stroke-width: 0.53; stroke: #EBEBEB; stroke-linecap: butt;' />
<polyline points='480.40,544.50 480.40,5.48 ' style='stroke-width: 0.53; stroke: #EBEBEB; stroke-linecap: butt;' />
<polyline points='42.91,515.63 570.52,515.63 ' style='stroke-width: 1.07; stroke: #EBEBEB; stroke-linecap: butt;' />
<polyline points='42.91,467.50 570.52,467.50 ' style='stroke-width: 1.07; stroke: #EBEBEB; stroke-linecap: butt;' />
<polyline points='42.91,419.37 570.52,419.37 ' style='stroke-width: 1.07; stroke: #EBEBEB; stroke-linecap: butt;' />
<polyline points='42.91,371.25 570.52,371.25 ' style='stroke-width: 1.07; stroke: #EBEBEB; stroke-linecap: butt;' />
<polyline points='42.91,323.12 570.52,323.12 ' style='stroke-width: 1.07; stroke: #EBEBEB; stroke-linecap: butt;' />
<polyline points='42.91,274.99 570.52,274.99 ' style='stroke-width: 1.07; stroke: #EBEBEB; stroke-linecap: butt;' />
<polyline points='42.91,226.86 570.52,226.86 ' style='stroke-width: 1.07; stroke: #EBEBEB; stroke-linecap: butt;' />
<polyline points='42.91,178.74 570.52,178.74 ' style='stroke-width: 1.07; stroke: #EBEBEB; stroke-linecap: butt;' />
<polyline points='42.91,130.61 570.52,130.61 ' style='stroke-width: 1.07; stroke: #EBEBEB; stroke-linecap: butt;' />
<polyline points='42.91,82.48 570.52,82.48 ' style='stroke-width: 1.07; stroke: #EBEBEB; stroke-linecap: butt;' />
<polyline points='42.91,34.36 570.52,34.36 ' style='stroke-width: 1.07; stroke: #EBEBEB; stroke-linecap: butt;' />
<polyline points='48.94,544.50 48.94,5.48 ' style='stroke-width: 1.07; stroke: #EBEBEB; stroke-linecap: butt;' />
<polyline points='172.21,544.50 172.21,5.48 ' style='stroke-width: 1.07; stroke: #EBEBEB; stroke-linecap: butt;' />
<polyline points='295.49,544.50 295.49,5.48 ' style='stroke-width: 1.07; stroke: #EBEBEB; stroke-linecap: butt;' />
<polyline points='418.76,544.50 418.76,5.48 ' style='stroke-width: 1.07; stroke: #EBEBEB; stroke-linecap: butt;' />
<polyline points='542.04,544.50 542.04,5.48 ' style='stroke-width: 1.07; stroke: #EBEBEB; stroke-linecap: butt;' />
<line x1='295.49' y1='544.50' x2='295.49' y2='5.48' style='stroke-width: 1.07; stroke-linecap: butt;' />
<circle cx='144.82' cy='34.36' r='5.55' style='stroke-width: 0.71; stroke: none; fill: #2A788E;' />
<circle cx='198.56' cy='82.48' r='4.73' style='stroke-width: 0.71; stroke: none; fill: #2EAB81;' />
<circle cx='162.01' cy='130.61' r='5.31' style='stroke-width: 0.71; stroke: none; fill: #2C888B;' />
<circle cx='330.65' cy='178.74' r='3.41' style='stroke-width: 0.71; stroke: none; fill: #A6D847;' />
<circle cx='348.99' cy='226.86' r='3.88' style='stroke-width: 0.71; stroke: none; fill: #76CE55;' />
<circle cx='260.04' cy='274.99' r='3.42' style='stroke-width: 0.71; stroke: none; fill: #A6D847;' />
<circle cx='295.31' cy='323.12' r='1.42' style='stroke-width: 0.71; stroke: none; fill: #FDE725;' />
<circle cx='113.70' cy='371.25' r='5.96' style='stroke-width: 0.71; stroke: none; fill: #3D588A;' />
<circle cx='68.23' cy='419.37' r='6.50' style='stroke-width: 0.71; stroke: none; fill: #46266C;' />
<circle cx='87.85' cy='467.50' r='6.27' style='stroke-width: 0.71; stroke: none; fill: #433D80;' />
<circle cx='251.74' cy='515.63' r='3.64' style='stroke-width: 0.71; stroke: none; fill: #8ED44D;' />
<polygon points='346.80,28.40 351.96,37.33 341.64,37.33 ' style='stroke-width: 0.71; stroke: none; fill: #79D052;' />
<polygon points='426.84,74.27 433.95,86.59 419.73,86.59 ' style='stroke-width: 0.71; stroke: none; fill: #2C8A8B;' />
<polygon points='404.65,122.93 411.30,134.45 398.00,134.45 ' style='stroke-width: 0.71; stroke: none; fill: #27A086;' />
<polygon points='375.84,171.84 381.81,182.19 369.86,182.19 ' style='stroke-width: 0.71; stroke: none; fill: #52B872;' />
<polygon points='469.34,217.75 477.23,231.42 461.45,231.42 ' style='stroke-width: 0.71; stroke: none; fill: #3A608B;' />
<polygon points='427.99,266.76 435.12,279.11 420.86,279.11 ' style='stroke-width: 0.71; stroke: none; fill: #2C898B;' />
<polygon points='484.95,313.70 493.10,327.83 476.79,327.83 ' style='stroke-width: 0.71; stroke: none; fill: #3F5089;' />
<polygon points='270.12,366.41 274.31,373.67 265.93,373.67 ' style='stroke-width: 0.71; stroke: none; fill: #C0DD40;' />
<polygon points='277.14,414.93 280.99,421.59 273.29,421.59 ' style='stroke-width: 0.71; stroke: none; fill: #D1E03A;' />
<polygon points='299.11,464.32 301.87,469.09 296.35,469.09 ' style='stroke-width: 0.71; stroke: none; fill: #F5E62A;' />
<polygon points='346.56,509.68 351.71,518.60 341.41,518.60 ' style='stroke-width: 0.71; stroke: none; fill: #79D052;' />
<circle cx='117.04' cy='34.36' r='5.92' style='stroke-width: 0.71; stroke: none; fill: #3C5C8A;' />
<circle cx='103.92' cy='82.48' r='6.08' style='stroke-width: 0.71; stroke: none; fill: #404E88;' />
<circle cx='76.98' cy='130.61' r='6.40' style='stroke-width: 0.71; stroke: none; fill: #453175;' />
<circle cx='317.89' cy='178.74' r='3.01' style='stroke-width: 0.71; stroke: none; fill: #C7DE3D;' />
<circle cx='269.51' cy='226.86' r='3.13' style='stroke-width: 0.71; stroke: none; fill: #BEDD40;' />
<circle cx='201.67' cy='274.99' r='4.68' style='stroke-width: 0.71; stroke: none; fill: #37AD7E;' />
<circle cx='201.64' cy='323.12' r='4.68' style='stroke-width: 0.71; stroke: none; fill: #37AD7E;' />
<circle cx='89.32' cy='371.25' r='6.26' style='stroke-width: 0.71; stroke: none; fill: #433E81;' />
<circle cx='93.98' cy='419.37' r='6.20' style='stroke-width: 0.71; stroke: none; fill: #414386;' />
<circle cx='83.59' cy='467.50' r='6.32' style='stroke-width: 0.71; stroke: none; fill: #44387B;' />
<circle cx='159.38' cy='515.63' r='5.35' style='stroke-width: 0.71; stroke: none; fill: #2C868B;' />
<polygon points='275.64,29.82 279.57,36.62 271.72,36.62 ' style='stroke-width: 0.71; stroke: none; fill: #CEDF3B;' />
<polygon points='326.73,77.35 331.17,85.05 322.29,85.05 ' style='stroke-width: 0.71; stroke: none; fill: #B1DA44;' />
<polygon points='318.43,125.90 322.51,132.96 314.35,132.96 ' style='stroke-width: 0.71; stroke: none; fill: #C6DE3E;' />
<polygon points='479.40,169.43 487.46,183.39 471.34,183.39 ' style='stroke-width: 0.71; stroke: none; fill: #3E568A;' />
<polygon points='452.28,218.10 459.87,231.25 444.69,231.25 ' style='stroke-width: 0.71; stroke: none; fill: #30728D;' />
<polygon points='257.77,269.57 262.46,277.70 253.07,277.70 ' style='stroke-width: 0.71; stroke: none; fill: #9FD749;' />
<polygon points='260.27,317.81 264.87,325.77 255.67,325.77 ' style='stroke-width: 0.71; stroke: none; fill: #A6D847;' />
<polygon points='283.14,367.21 286.64,373.26 279.64,373.26 ' style='stroke-width: 0.71; stroke: none; fill: #E0E234;' />
<polygon points='280.27,415.13 283.95,421.49 276.60,421.49 ' style='stroke-width: 0.71; stroke: none; fill: #D9E137;' />
<polygon points='293.24,464.54 295.80,468.98 290.67,468.98 ' style='stroke-width: 0.71; stroke: none; fill: #F8E628;' />
<polygon points='264.15,510.49 268.60,518.19 259.70,518.19 ' style='stroke-width: 0.71; stroke: none; fill: #B1DA44;' />
<circle cx='107.39' cy='34.36' r='6.04' style='stroke-width: 0.71; stroke: none; fill: #3F5289;' />
<circle cx='128.34' cy='82.48' r='5.77' style='stroke-width: 0.71; stroke: none; fill: #37678C;' />
<circle cx='102.54' cy='130.61' r='6.10' style='stroke-width: 0.71; stroke: none; fill: #404C88;' />
<circle cx='223.38' cy='178.74' r='4.28' style='stroke-width: 0.71; stroke: none; fill: #5FBF6A;' />
<circle cx='194.76' cy='226.86' r='4.80' style='stroke-width: 0.71; stroke: none; fill: #22A884;' />
<circle cx='140.24' cy='274.99' r='5.62' style='stroke-width: 0.71; stroke: none; fill: #2E738D;' />
<circle cx='137.24' cy='323.12' r='5.66' style='stroke-width: 0.71; stroke: none; fill: #31708D;' />
<circle cx='73.84' cy='371.25' r='6.43' style='stroke-width: 0.71; stroke: none; fill: #452D71;' />
<circle cx='66.89' cy='419.37' r='6.51' style='stroke-width: 0.71; stroke: none; fill: #46256A;' />
<circle cx='71.21' cy='467.50' r='6.46' style='stroke-width: 0.71; stroke: none; fill: #462A6F;' />
<circle cx='150.49' cy='515.63' r='5.47' style='stroke-width: 0.71; stroke: none; fill: #2B7D8D;' />
<polygon points='287.25,30.66 290.45,36.20 284.05,36.20 ' style='stroke-width: 0.71; stroke: none; fill: #EAE42F;' />
<polygon points='207.14,75.35 213.31,86.05 200.96,86.05 ' style='stroke-width: 0.71; stroke: none; fill: #43B279;' />
<polygon points='285.26,126.74 288.61,132.55 281.91,132.55 ' style='stroke-width: 0.71; stroke: none; fill: #E5E332;' />
<polygon points='411.96,170.88 418.77,182.67 405.16,182.67 ' style='stroke-width: 0.71; stroke: none; fill: #299988;' />
<polygon points='395.63,219.42 402.08,230.59 389.18,230.59 ' style='stroke-width: 0.71; stroke: none; fill: #24A884;' />
<polygon points='357.98,268.65 363.47,278.16 352.48,278.16 ' style='stroke-width: 0.71; stroke: none; fill: #6CC75F;' />
<polygon points='360.62,316.69 366.19,326.33 355.05,326.33 ' style='stroke-width: 0.71; stroke: none; fill: #68C562;' />
<polygon points='288.71,367.69 291.79,373.02 285.63,373.02 ' style='stroke-width: 0.71; stroke: none; fill: #EDE42E;' />
<polygon points='307.33,415.37 310.80,421.37 303.87,421.37 ' style='stroke-width: 0.71; stroke: none; fill: #E1E233;' />
<polygon points='311.73,463.19 315.46,469.65 308.00,469.65 ' style='stroke-width: 0.71; stroke: none; fill: #D7E138;' />
<polygon points='223.18,508.97 228.95,518.96 217.41,518.96 ' style='stroke-width: 0.71; stroke: none; fill: #5EBF6A;' />
<circle cx='78.68' cy='34.36' r='6.38' style='stroke-width: 0.71; stroke: none; fill: #453376;' />
<circle cx='210.04' cy='82.48' r='4.53' style='stroke-width: 0.71; stroke: none; fill: #49B477;' />
<circle cx='163.58' cy='130.61' r='5.29' style='stroke-width: 0.71; stroke: none; fill: #2C8A8B;' />
<circle cx='275.99' cy='178.74' r='2.90' style='stroke-width: 0.71; stroke: none; fill: #CFDF3B;' />
<circle cx='326.64' cy='226.86' r='3.30' style='stroke-width: 0.71; stroke: none; fill: #B1DA44;' />
<circle cx='305.72' cy='274.99' r='2.49' style='stroke-width: 0.71; stroke: none; fill: #E5E332;' />
<circle cx='264.15' cy='323.12' r='3.30' style='stroke-width: 0.71; stroke: none; fill: #B1DA44;' />
<circle cx='81.86' cy='371.25' r='6.34' style='stroke-width: 0.71; stroke: none; fill: #44367A;' />
<circle cx='74.59' cy='419.37' r='6.43' style='stroke-width: 0.71; stroke: none; fill: #452E72;' />
<circle cx='86.23' cy='467.50' r='6.29' style='stroke-width: 0.71; stroke: none; fill: #433B7E;' />
<circle cx='208.09' cy='515.63' r='4.57' style='stroke-width: 0.71; stroke: none; fill: #45B278;' />
<polygon points='284.25,30.40 287.67,36.33 280.83,36.33 ' style='stroke-width: 0.71; stroke: none; fill: #E3E333;' />
<polygon points='377.61,75.53 383.63,85.96 371.59,85.96 ' style='stroke-width: 0.71; stroke: none; fill: #4FB773;' />
<polygon points='360.80,124.17 366.38,133.83 355.23,133.83 ' style='stroke-width: 0.71; stroke: none; fill: #68C563;' />
<polygon points='472.32,169.57 480.26,183.32 464.38,183.32 ' style='stroke-width: 0.71; stroke: none; fill: #3B5D8B;' />
<polygon points='482.22,217.50 490.33,231.55 474.11,231.55 ' style='stroke-width: 0.71; stroke: none; fill: #3E5389;' />
<polygon points='468.43,265.90 476.31,279.54 460.55,279.54 ' style='stroke-width: 0.71; stroke: none; fill: #3A618B;' />
<polygon points='468.94,314.01 476.83,327.67 461.06,327.67 ' style='stroke-width: 0.71; stroke: none; fill: #3A618B;' />
<polygon points='287.61,367.58 290.79,373.08 284.44,373.08 ' style='stroke-width: 0.71; stroke: none; fill: #EBE42F;' />
<polygon points='291.83,416.19 294.59,420.97 289.07,420.97 ' style='stroke-width: 0.71; stroke: none; fill: #F5E62A;' />
<polygon points='311.42,463.21 315.14,469.64 307.71,469.64 ' style='stroke-width: 0.71; stroke: none; fill: #D7E137;' />
<polygon points='393.66,508.23 400.06,519.33 387.26,519.33 ' style='stroke-width: 0.71; stroke: none; fill: #2BAA82;' />
<circle cx='112.44' cy='34.36' r='5.98' style='stroke-width: 0.71; stroke: none; fill: #3D578A;' />
<circle cx='218.51' cy='82.48' r='4.37' style='stroke-width: 0.71; stroke: none; fill: #57BB6F;' />
<circle cx='128.57' cy='130.61' r='5.77' style='stroke-width: 0.71; stroke: none; fill: #37678C;' />
<circle cx='281.53' cy='178.74' r='2.67' style='stroke-width: 0.71; stroke: none; fill: #DCE236;' />
<circle cx='326.46' cy='226.86' r='3.29' style='stroke-width: 0.71; stroke: none; fill: #B2DA44;' />
<circle cx='252.37' cy='274.99' r='3.63' style='stroke-width: 0.71; stroke: none; fill: #90D54D;' />
<circle cx='248.68' cy='323.12' r='3.72' style='stroke-width: 0.71; stroke: none; fill: #85D34F;' />
<circle cx='87.62' cy='371.25' r='6.28' style='stroke-width: 0.71; stroke: none; fill: #433C80;' />
<circle cx='123.93' cy='419.37' r='5.83' style='stroke-width: 0.71; stroke: none; fill: #39638B;' />
<circle cx='82.87' cy='467.50' r='6.33' style='stroke-width: 0.71; stroke: none; fill: #44377B;' />
<circle cx='231.49' cy='515.63' r='4.11' style='stroke-width: 0.71; stroke: none; fill: #6AC661;' />
<polygon points='250.23,28.63 255.19,37.22 245.27,37.22 ' style='stroke-width: 0.71; stroke: none; fill: #8AD44E;' />
<polygon points='422.25,74.38 429.26,86.53 415.23,86.53 ' style='stroke-width: 0.71; stroke: none; fill: #2B8F8A;' />
<polygon points='325.55,125.54 329.95,133.15 321.16,133.15 ' style='stroke-width: 0.71; stroke: none; fill: #B4DB43;' />
<polygon points='424.17,170.59 431.23,182.81 417.12,182.81 ' style='stroke-width: 0.71; stroke: none; fill: #2B8D8A;' />
<polygon points='546.54,216.36 555.64,232.12 537.44,232.12 ' style='stroke-width: 0.71; stroke: none; fill: #440154;' />
<polygon points='469.42,265.88 477.32,279.55 461.53,279.55 ' style='stroke-width: 0.71; stroke: none; fill: #3A608B;' />
<polygon points='469.37,314.01 477.26,327.68 461.47,327.68 ' style='stroke-width: 0.71; stroke: none; fill: #3A608B;' />
<polygon points='303.35,367.58 306.52,373.08 300.18,373.08 ' style='stroke-width: 0.71; stroke: none; fill: #EBE42F;' />
<polygon points='340.10,413.67 345.03,422.22 335.16,422.22 ' style='stroke-width: 0.71; stroke: none; fill: #8CD44D;' />
<polygon points='296.49,464.82 298.81,468.84 294.16,468.84 ' style='stroke-width: 0.71; stroke: none; fill: #FBE726;' />
<polygon points='415.01,507.70 421.88,519.59 408.14,519.59 ' style='stroke-width: 0.71; stroke: none; fill: #2A9688;' />
<circle cx='154.91' cy='34.36' r='5.41' style='stroke-width: 0.71; stroke: none; fill: #2B828C;' />
<circle cx='167.70' cy='82.48' r='5.23' style='stroke-width: 0.71; stroke: none; fill: #2B8E8A;' />
<circle cx='156.29' cy='130.61' r='5.39' style='stroke-width: 0.71; stroke: none; fill: #2C838C;' />
<circle cx='271.81' cy='178.74' r='3.05' style='stroke-width: 0.71; stroke: none; fill: #C4DE3E;' />
<circle cx='292.38' cy='226.86' r='2.00' style='stroke-width: 0.71; stroke: none; fill: #F6E629;' />
<circle cx='296.48' cy='274.99' r='1.72' style='stroke-width: 0.71; stroke: none; fill: #FBE726;' />
<circle cx='295.94' cy='323.12' r='1.60' style='stroke-width: 0.71; stroke: none; fill: #FCE725;' />
<circle cx='101.68' cy='371.25' r='6.11' style='stroke-width: 0.71; stroke: none; fill: #404C88;' />
<circle cx='88.60' cy='419.37' r='6.26' style='stroke-width: 0.71; stroke: none; fill: #433D81;' />
<circle cx='74.54' cy='467.50' r='6.43' style='stroke-width: 0.71; stroke: none; fill: #452E72;' />
<circle cx='135.19' cy='515.63' r='5.68' style='stroke-width: 0.71; stroke: none; fill: #326E8D;' />
<polygon points='346.07,28.43 351.21,37.32 340.94,37.32 ' style='stroke-width: 0.71; stroke: none; fill: #7AD151;' />
<polygon points='374.74,75.62 380.68,85.92 368.79,85.92 ' style='stroke-width: 0.71; stroke: none; fill: #54B971;' />
<polygon points='385.17,123.44 391.38,134.19 378.97,134.19 ' style='stroke-width: 0.71; stroke: none; fill: #41B17A;' />
<polygon points='407.22,170.99 413.92,182.61 400.51,182.61 ' style='stroke-width: 0.71; stroke: none; fill: #289D87;' />
<polygon points='463.61,217.87 471.40,231.36 455.82,231.36 ' style='stroke-width: 0.71; stroke: none; fill: #37668C;' />
<polygon points='478.04,265.71 486.08,279.63 470.00,279.63 ' style='stroke-width: 0.71; stroke: none; fill: #3D578A;' />
<polygon points='444.57,314.52 452.02,327.42 437.12,327.42 ' style='stroke-width: 0.71; stroke: none; fill: #2A7A8E;' />
<polygon points='305.98,367.35 309.36,373.19 302.61,373.19 ' style='stroke-width: 0.71; stroke: none; fill: #E5E332;' />
<polygon points='245.70,413.47 250.81,422.32 240.59,422.32 ' style='stroke-width: 0.71; stroke: none; fill: #7CD151;' />
<polygon points='274.03,462.87 278.04,469.81 270.02,469.81 ' style='stroke-width: 0.71; stroke: none; fill: #CADE3C;' />
<polygon points='370.64,508.88 376.48,519.00 364.80,519.00 ' style='stroke-width: 0.71; stroke: none; fill: #5ABC6D;' />
<text x='137.44' y='30.59' text-anchor='middle' style='font-size: 8.54px; font-family: Arial;' textLength='11.85px' lengthAdjust='spacingAndGlyphs'>AU</text>
<line x1='188.21' y1='88.24' x2='198.56' y2='82.48' style='stroke-width: 1.07;' />
<text x='180.49' y='91.96' text-anchor='middle' style='font-size: 8.54px; font-family: Arial;' textLength='11.85px' lengthAdjust='spacingAndGlyphs'>AU</text>
<text x='164.89' y='123.59' text-anchor='middle' style='font-size: 8.54px; font-family: Arial;' textLength='11.85px' lengthAdjust='spacingAndGlyphs'>AU</text>
<text x='340.46' y='181.78' text-anchor='middle' style='font-size: 8.54px; font-family: Arial;' textLength='11.85px' lengthAdjust='spacingAndGlyphs'>AU</text>
<text x='358.53' y='227.14' text-anchor='middle' style='font-size: 8.54px; font-family: Arial;' textLength='11.85px' lengthAdjust='spacingAndGlyphs'>AU</text>
<text x='270.59' y='277.77' text-anchor='middle' style='font-size: 8.54px; font-family: Arial;' textLength='11.85px' lengthAdjust='spacingAndGlyphs'>AU</text>
<text x='286.31' y='333.40' text-anchor='middle' style='font-size: 8.54px; font-family: Arial;' textLength='11.85px' lengthAdjust='spacingAndGlyphs'>AU</text>
<line x1='123.82' y1='369.08' x2='113.70' y2='371.25' style='stroke-width: 1.07;' />
<text x='131.54' y='372.09' text-anchor='middle' style='font-size: 8.54px; font-family: Arial;' textLength='11.85px' lengthAdjust='spacingAndGlyphs'>AU</text>
<text x='62.44' y='413.39' text-anchor='middle' style='font-size: 8.54px; font-family: Arial;' textLength='11.85px' lengthAdjust='spacingAndGlyphs'>AU</text>
<line x1='107.71' y1='463.10' x2='87.85' y2='467.50' style='stroke-width: 1.07;' />
<text x='115.44' y='466.05' text-anchor='middle' style='font-size: 8.54px; font-family: Arial;' textLength='11.85px' lengthAdjust='spacingAndGlyphs'>AU</text>
<text x='261.02' y='525.83' text-anchor='middle' style='font-size: 8.54px; font-family: Arial;' textLength='11.85px' lengthAdjust='spacingAndGlyphs'>AU</text>
<text x='356.47' y='37.55' text-anchor='middle' style='font-size: 8.54px; font-family: Arial;' textLength='11.85px' lengthAdjust='spacingAndGlyphs'>AU</text>
<text x='437.19' y='85.54' text-anchor='middle' style='font-size: 8.54px; font-family: Arial;' textLength='11.85px' lengthAdjust='spacingAndGlyphs'>AU</text>
<text x='412.14' y='126.01' text-anchor='middle' style='font-size: 8.54px; font-family: Arial;' textLength='11.85px' lengthAdjust='spacingAndGlyphs'>AU</text>
<text x='381.05' y='172.81' text-anchor='middle' style='font-size: 8.54px; font-family: Arial;' textLength='11.85px' lengthAdjust='spacingAndGlyphs'>AU</text>
<text x='474.40' y='238.72' text-anchor='middle' style='font-size: 8.54px; font-family: Arial;' textLength='11.85px' lengthAdjust='spacingAndGlyphs'>AU</text>
<text x='420.70' y='270.35' text-anchor='middle' style='font-size: 8.54px; font-family: Arial;' textLength='11.85px' lengthAdjust='spacingAndGlyphs'>AU</text>
<text x='497.66' y='326.43' text-anchor='middle' style='font-size: 8.54px; font-family: Arial;' textLength='11.85px' lengthAdjust='spacingAndGlyphs'>AU</text>
<text x='257.37' y='375.47' text-anchor='middle' style='font-size: 8.54px; font-family: Arial;' textLength='11.85px' lengthAdjust='spacingAndGlyphs'>AU</text>
<text x='267.50' y='425.65' text-anchor='middle' style='font-size: 8.54px; font-family: Arial;' textLength='11.85px' lengthAdjust='spacingAndGlyphs'>AU</text>
<text x='301.22' y='481.67' text-anchor='middle' style='font-size: 8.54px; font-family: Arial;' textLength='11.85px' lengthAdjust='spacingAndGlyphs'>AU</text>
<text x='352.28' y='511.80' text-anchor='middle' style='font-size: 8.54px; font-family: Arial;' textLength='11.85px' lengthAdjust='spacingAndGlyphs'>AU</text>
<text x='122.97' y='44.39' text-anchor='middle' style='font-size: 8.54px; font-family: Arial;' textLength='8.06px' lengthAdjust='spacingAndGlyphs'>AI</text>
<text x='96.21' y='92.62' text-anchor='middle' style='font-size: 8.54px; font-family: Arial;' textLength='8.06px' lengthAdjust='spacingAndGlyphs'>AI</text>
<text x='68.89' y='131.65' text-anchor='middle' style='font-size: 8.54px; font-family: Arial;' textLength='8.06px' lengthAdjust='spacingAndGlyphs'>AI</text>
<text x='310.12' y='180.24' text-anchor='middle' style='font-size: 8.54px; font-family: Arial;' textLength='8.06px' lengthAdjust='spacingAndGlyphs'>AI</text>
<text x='262.21' y='236.63' text-anchor='middle' style='font-size: 8.54px; font-family: Arial;' textLength='8.06px' lengthAdjust='spacingAndGlyphs'>AI</text>
<text x='194.43' y='286.26' text-anchor='middle' style='font-size: 8.54px; font-family: Arial;' textLength='8.06px' lengthAdjust='spacingAndGlyphs'>AI</text>
<text x='193.82' y='334.16' text-anchor='middle' style='font-size: 8.54px; font-family: Arial;' textLength='8.06px' lengthAdjust='spacingAndGlyphs'>AI</text>
<text x='96.60' y='367.26' text-anchor='middle' style='font-size: 8.54px; font-family: Arial;' textLength='8.06px' lengthAdjust='spacingAndGlyphs'>AI</text>
<line x1='107.35' y1='424.24' x2='93.98' y2='419.37' style='stroke-width: 1.07;' />
<text x='113.18' y='427.61' text-anchor='middle' style='font-size: 8.54px; font-family: Arial;' textLength='8.06px' lengthAdjust='spacingAndGlyphs'>AI</text>
<line x1='92.74' y1='475.96' x2='83.59' y2='467.50' style='stroke-width: 1.07;' />
<text x='98.57' y='480.07' text-anchor='middle' style='font-size: 8.54px; font-family: Arial;' textLength='8.06px' lengthAdjust='spacingAndGlyphs'>AI</text>
<text x='167.31' y='518.68' text-anchor='middle' style='font-size: 8.54px; font-family: Arial;' textLength='8.06px' lengthAdjust='spacingAndGlyphs'>AI</text>
<line x1='265.83' y1='30.94' x2='275.64' y2='34.36' style='stroke-width: 1.07;' />
<text x='260.00' y='33.78' text-anchor='middle' style='font-size: 8.54px; font-family: Arial;' textLength='8.06px' lengthAdjust='spacingAndGlyphs'>AI</text>
<text x='320.50' y='92.61' text-anchor='middle' style='font-size: 8.54px; font-family: Arial;' textLength='8.06px' lengthAdjust='spacingAndGlyphs'>AI</text>
<text x='310.28' y='133.67' text-anchor='middle' style='font-size: 8.54px; font-family: Arial;' textLength='8.06px' lengthAdjust='spacingAndGlyphs'>AI</text>
<text x='487.53' y='181.80' text-anchor='middle' style='font-size: 8.54px; font-family: Arial;' textLength='8.06px' lengthAdjust='spacingAndGlyphs'>AI</text>
<text x='439.43' y='229.93' text-anchor='middle' style='font-size: 8.54px; font-family: Arial;' textLength='8.06px' lengthAdjust='spacingAndGlyphs'>AI</text>
<text x='251.65' y='288.33' text-anchor='middle' style='font-size: 8.54px; font-family: Arial;' textLength='8.06px' lengthAdjust='spacingAndGlyphs'>AI</text>
<text x='254.60' y='317.63' text-anchor='middle' style='font-size: 8.54px; font-family: Arial;' textLength='8.06px' lengthAdjust='spacingAndGlyphs'>AI</text>
<text x='275.29' y='365.79' text-anchor='middle' style='font-size: 8.54px; font-family: Arial;' textLength='8.06px' lengthAdjust='spacingAndGlyphs'>AI</text>
<text x='285.19' y='412.19' text-anchor='middle' style='font-size: 8.54px; font-family: Arial;' textLength='8.06px' lengthAdjust='spacingAndGlyphs'>AI</text>
<text x='283.78' y='470.46' text-anchor='middle' style='font-size: 8.54px; font-family: Arial;' textLength='8.06px' lengthAdjust='spacingAndGlyphs'>AI</text>
<line x1='272.84' y1='514.62' x2='264.15' y2='515.63' style='stroke-width: 1.07;' />
<text x='278.67' y='517.67' text-anchor='middle' style='font-size: 8.54px; font-family: Arial;' textLength='8.06px' lengthAdjust='spacingAndGlyphs'>AI</text>
<line x1='98.68' y1='40.43' x2='107.39' y2='34.36' style='stroke-width: 1.07;' />
<text x='90.71' y='44.41' text-anchor='middle' style='font-size: 8.54px; font-family: Arial;' textLength='12.33px' lengthAdjust='spacingAndGlyphs'>CU</text>
<text x='121.07' y='92.23' text-anchor='middle' style='font-size: 8.54px; font-family: Arial;' textLength='12.33px' lengthAdjust='spacingAndGlyphs'>CU</text>
<text x='91.87' y='134.75' text-anchor='middle' style='font-size: 8.54px; font-family: Arial;' textLength='12.33px' lengthAdjust='spacingAndGlyphs'>CU</text>
<text x='230.04' y='175.00' text-anchor='middle' style='font-size: 8.54px; font-family: Arial;' textLength='12.33px' lengthAdjust='spacingAndGlyphs'>CU</text>
<text x='187.45' y='237.39' text-anchor='middle' style='font-size: 8.54px; font-family: Arial;' textLength='12.33px' lengthAdjust='spacingAndGlyphs'>CU</text>
<text x='147.29' y='270.05' text-anchor='middle' style='font-size: 8.54px; font-family: Arial;' textLength='12.33px' lengthAdjust='spacingAndGlyphs'>CU</text>
<text x='145.30' y='318.77' text-anchor='middle' style='font-size: 8.54px; font-family: Arial;' textLength='12.33px' lengthAdjust='spacingAndGlyphs'>CU</text>
<line x1='62.77' y1='375.85' x2='73.84' y2='371.25' style='stroke-width: 1.07;' />
<text x='54.80' y='379.33' text-anchor='middle' style='font-size: 8.54px; font-family: Arial;' textLength='12.33px' lengthAdjust='spacingAndGlyphs'>CU</text>
<text x='54.48' y='428.67' text-anchor='middle' style='font-size: 8.54px; font-family: Arial;' textLength='12.33px' lengthAdjust='spacingAndGlyphs'>CU</text>
<line x1='62.01' y1='463.59' x2='71.21' y2='467.50' style='stroke-width: 1.07;' />
<text x='54.04' y='466.26' text-anchor='middle' style='font-size: 8.54px; font-family: Arial;' textLength='12.33px' lengthAdjust='spacingAndGlyphs'>CU</text>
<text x='144.27' y='525.71' text-anchor='middle' style='font-size: 8.54px; font-family: Arial;' textLength='12.33px' lengthAdjust='spacingAndGlyphs'>CU</text>
<text x='297.32' y='37.40' text-anchor='middle' style='font-size: 8.54px; font-family: Arial;' textLength='12.33px' lengthAdjust='spacingAndGlyphs'>CU</text>
<text x='197.09' y='78.50' text-anchor='middle' style='font-size: 8.54px; font-family: Arial;' textLength='12.33px' lengthAdjust='spacingAndGlyphs'>CU</text>
<text x='278.77' y='141.03' text-anchor='middle' style='font-size: 8.54px; font-family: Arial;' textLength='12.33px' lengthAdjust='spacingAndGlyphs'>CU</text>
<text x='417.53' y='191.88' text-anchor='middle' style='font-size: 8.54px; font-family: Arial;' textLength='12.33px' lengthAdjust='spacingAndGlyphs'>CU</text>
<text x='401.50' y='223.26' text-anchor='middle' style='font-size: 8.54px; font-family: Arial;' textLength='12.33px' lengthAdjust='spacingAndGlyphs'>CU</text>
<text x='365.99' y='269.86' text-anchor='middle' style='font-size: 8.54px; font-family: Arial;' textLength='12.33px' lengthAdjust='spacingAndGlyphs'>CU</text>
<text x='353.01' y='333.95' text-anchor='middle' style='font-size: 8.54px; font-family: Arial;' textLength='12.33px' lengthAdjust='spacingAndGlyphs'>CU</text>
<text x='293.53' y='381.55' text-anchor='middle' style='font-size: 8.54px; font-family: Arial;' textLength='12.33px' lengthAdjust='spacingAndGlyphs'>CU</text>
<text x='317.36' y='416.05' text-anchor='middle' style='font-size: 8.54px; font-family: Arial;' textLength='12.33px' lengthAdjust='spacingAndGlyphs'>CU</text>
<line x1='330.29' y1='468.15' x2='311.73' y2='467.50' style='stroke-width: 1.07;' />
<text x='338.25' y='471.21' text-anchor='middle' style='font-size: 8.54px; font-family: Arial;' textLength='12.33px' lengthAdjust='spacingAndGlyphs'>CU</text>
<text x='218.28' y='527.51' text-anchor='middle' style='font-size: 8.54px; font-family: Arial;' textLength='12.33px' lengthAdjust='spacingAndGlyphs'>CU</text>
<text x='70.00' y='37.42' text-anchor='middle' style='font-size: 8.54px; font-family: Arial;' textLength='8.53px' lengthAdjust='spacingAndGlyphs'>CI</text>
<text x='215.54' y='92.99' text-anchor='middle' style='font-size: 8.54px; font-family: Arial;' textLength='8.53px' lengthAdjust='spacingAndGlyphs'>CI</text>
<line x1='175.61' y1='134.63' x2='163.58' y2='130.61' style='stroke-width: 1.07;' />
<text x='181.67' y='137.92' text-anchor='middle' style='font-size: 8.54px; font-family: Arial;' textLength='8.53px' lengthAdjust='spacingAndGlyphs'>CI</text>
<line x1='277.22' y1='171.60' x2='275.99' y2='178.74' style='stroke-width: 1.07;' />
<text x='277.24' y='169.80' text-anchor='middle' style='font-size: 8.54px; font-family: Arial;' textLength='8.53px' lengthAdjust='spacingAndGlyphs'>CI</text>
<text x='336.00' y='231.85' text-anchor='middle' style='font-size: 8.54px; font-family: Arial;' textLength='8.53px' lengthAdjust='spacingAndGlyphs'>CI</text>
<text x='313.73' y='278.05' text-anchor='middle' style='font-size: 8.54px; font-family: Arial;' textLength='8.53px' lengthAdjust='spacingAndGlyphs'>CI</text>
<text x='272.70' y='318.08' text-anchor='middle' style='font-size: 8.54px; font-family: Arial;' textLength='8.53px' lengthAdjust='spacingAndGlyphs'>CI</text>
<line x1='78.19' y1='364.10' x2='81.86' y2='371.25' style='stroke-width: 1.07;' />
<text x='72.13' y='365.11' text-anchor='middle' style='font-size: 8.54px; font-family: Arial;' textLength='8.53px' lengthAdjust='spacingAndGlyphs'>CI</text>
<text x='80.18' y='429.92' text-anchor='middle' style='font-size: 8.54px; font-family: Arial;' textLength='8.53px' lengthAdjust='spacingAndGlyphs'>CI</text>
<text x='94.79' y='462.40' text-anchor='middle' style='font-size: 8.54px; font-family: Arial;' textLength='8.53px' lengthAdjust='spacingAndGlyphs'>CI</text>
<text x='199.67' y='518.68' text-anchor='middle' style='font-size: 8.54px; font-family: Arial;' textLength='8.53px' lengthAdjust='spacingAndGlyphs'>CI</text>
<line x1='278.72' y1='39.17' x2='284.25' y2='34.36' style='stroke-width: 1.07;' />
<text x='275.97' y='47.08' text-anchor='middle' style='font-size: 8.54px; font-family: Arial;' textLength='8.53px' lengthAdjust='spacingAndGlyphs'>CI</text>
<text x='385.74' y='85.56' text-anchor='middle' style='font-size: 8.54px; font-family: Arial;' textLength='8.53px' lengthAdjust='spacingAndGlyphs'>CI</text>
<text x='364.69' y='124.08' text-anchor='middle' style='font-size: 8.54px; font-family: Arial;' textLength='8.53px' lengthAdjust='spacingAndGlyphs'>CI</text>
<text x='463.86' y='181.78' text-anchor='middle' style='font-size: 8.54px; font-family: Arial;' textLength='8.53px' lengthAdjust='spacingAndGlyphs'>CI</text>
<text x='491.84' y='229.64' text-anchor='middle' style='font-size: 8.54px; font-family: Arial;' textLength='8.53px' lengthAdjust='spacingAndGlyphs'>CI</text>
<line x1='452.16' y1='280.15' x2='468.43' y2='274.99' style='stroke-width: 1.07;' />
<text x='446.09' y='283.44' text-anchor='middle' style='font-size: 8.54px; font-family: Arial;' textLength='8.53px' lengthAdjust='spacingAndGlyphs'>CI</text>
<text x='459.58' y='327.41' text-anchor='middle' style='font-size: 8.54px; font-family: Arial;' textLength='8.53px' lengthAdjust='spacingAndGlyphs'>CI</text>
<text x='292.54' y='367.17' text-anchor='middle' style='font-size: 8.54px; font-family: Arial;' textLength='8.53px' lengthAdjust='spacingAndGlyphs'>CI</text>
<text x='298.18' y='430.76' text-anchor='middle' style='font-size: 8.54px; font-family: Arial;' textLength='8.53px' lengthAdjust='spacingAndGlyphs'>CI</text>
<text x='320.24' y='469.15' text-anchor='middle' style='font-size: 8.54px; font-family: Arial;' textLength='8.53px' lengthAdjust='spacingAndGlyphs'>CI</text>
<text x='387.07' y='525.42' text-anchor='middle' style='font-size: 8.54px; font-family: Arial;' textLength='8.53px' lengthAdjust='spacingAndGlyphs'>CI</text>
<text x='105.32' y='27.64' text-anchor='middle' style='font-size: 8.54px; font-family: Arial;' textLength='11.85px' lengthAdjust='spacingAndGlyphs'>EU</text>
<line x1='225.83' y1='80.83' x2='218.51' y2='82.48' style='stroke-width: 1.07;' />
<text x='233.55' y='83.85' text-anchor='middle' style='font-size: 8.54px; font-family: Arial;' textLength='11.85px' lengthAdjust='spacingAndGlyphs'>EU</text>
<text x='118.14' y='133.12' text-anchor='middle' style='font-size: 8.54px; font-family: Arial;' textLength='11.85px' lengthAdjust='spacingAndGlyphs'>EU</text>
<text x='292.11' y='185.58' text-anchor='middle' style='font-size: 8.54px; font-family: Arial;' textLength='11.85px' lengthAdjust='spacingAndGlyphs'>EU</text>
<text x='315.73' y='229.87' text-anchor='middle' style='font-size: 8.54px; font-family: Arial;' textLength='11.85px' lengthAdjust='spacingAndGlyphs'>EU</text>
<line x1='243.61' y1='270.92' x2='252.37' y2='274.99' style='stroke-width: 1.07;' />
<text x='235.88' y='273.48' text-anchor='middle' style='font-size: 8.54px; font-family: Arial;' textLength='11.85px' lengthAdjust='spacingAndGlyphs'>EU</text>
<text x='234.88' y='326.38' text-anchor='middle' style='font-size: 8.54px; font-family: Arial;' textLength='11.85px' lengthAdjust='spacingAndGlyphs'>EU</text>
<text x='86.27' y='382.95' text-anchor='middle' style='font-size: 8.54px; font-family: Arial;' textLength='11.85px' lengthAdjust='spacingAndGlyphs'>EU</text>
<text x='133.79' y='421.10' text-anchor='middle' style='font-size: 8.54px; font-family: Arial;' textLength='11.85px' lengthAdjust='spacingAndGlyphs'>EU</text>
<line x1='76.70' y1='460.01' x2='82.87' y2='467.50' style='stroke-width: 1.07;' />
<text x='73.94' y='458.21' text-anchor='middle' style='font-size: 8.54px; font-family: Arial;' textLength='11.85px' lengthAdjust='spacingAndGlyphs'>EU</text>
<text x='241.22' y='518.65' text-anchor='middle' style='font-size: 8.54px; font-family: Arial;' textLength='11.85px' lengthAdjust='spacingAndGlyphs'>EU</text>
<text x='239.48' y='37.84' text-anchor='middle' style='font-size: 8.54px; font-family: Arial;' textLength='11.85px' lengthAdjust='spacingAndGlyphs'>EU</text>
<text x='412.06' y='85.53' text-anchor='middle' style='font-size: 8.54px; font-family: Arial;' textLength='11.85px' lengthAdjust='spacingAndGlyphs'>EU</text>
<text x='336.21' y='133.67' text-anchor='middle' style='font-size: 8.54px; font-family: Arial;' textLength='11.85px' lengthAdjust='spacingAndGlyphs'>EU</text>
<text x='437.20' y='180.05' text-anchor='middle' style='font-size: 8.54px; font-family: Arial;' textLength='11.85px' lengthAdjust='spacingAndGlyphs'>EU</text>
<text x='554.25' y='222.83' text-anchor='middle' style='font-size: 8.54px; font-family: Arial;' textLength='11.85px' lengthAdjust='spacingAndGlyphs'>EU</text>
<text x='462.74' y='269.30' text-anchor='middle' style='font-size: 8.54px; font-family: Arial;' textLength='11.85px' lengthAdjust='spacingAndGlyphs'>EU</text>
<text x='477.66' y='318.05' text-anchor='middle' style='font-size: 8.54px; font-family: Arial;' textLength='11.85px' lengthAdjust='spacingAndGlyphs'>EU</text>
<line x1='318.46' y1='375.78' x2='303.35' y2='371.25' style='stroke-width: 1.07;' />
<text x='326.19' y='379.05' text-anchor='middle' style='font-size: 8.54px; font-family: Arial;' textLength='11.85px' lengthAdjust='spacingAndGlyphs'>EU</text>
<text x='334.99' y='431.03' text-anchor='middle' style='font-size: 8.54px; font-family: Arial;' textLength='11.85px' lengthAdjust='spacingAndGlyphs'>EU</text>
<text x='301.80' y='460.02' text-anchor='middle' style='font-size: 8.54px; font-family: Arial;' textLength='11.85px' lengthAdjust='spacingAndGlyphs'>EU</text>
<text x='422.44' y='511.09' text-anchor='middle' style='font-size: 8.54px; font-family: Arial;' textLength='11.85px' lengthAdjust='spacingAndGlyphs'>EU</text>
<text x='163.46' y='37.41' text-anchor='middle' style='font-size: 8.54px; font-family: Arial;' textLength='8.06px' lengthAdjust='spacingAndGlyphs'>EI</text>
<text x='159.18' y='84.56' text-anchor='middle' style='font-size: 8.54px; font-family: Arial;' textLength='8.06px' lengthAdjust='spacingAndGlyphs'>EI</text>
<text x='145.19' y='133.90' text-anchor='middle' style='font-size: 8.54px; font-family: Arial;' textLength='8.06px' lengthAdjust='spacingAndGlyphs'>EI</text>
<text x='261.27' y='183.11' text-anchor='middle' style='font-size: 8.54px; font-family: Arial;' textLength='8.06px' lengthAdjust='spacingAndGlyphs'>EI</text>
<text x='298.34' y='221.30' text-anchor='middle' style='font-size: 8.54px; font-family: Arial;' textLength='8.06px' lengthAdjust='spacingAndGlyphs'>EI</text>
<text x='288.09' y='278.12' text-anchor='middle' style='font-size: 8.54px; font-family: Arial;' textLength='8.06px' lengthAdjust='spacingAndGlyphs'>EI</text>
<text x='304.45' y='325.98' text-anchor='middle' style='font-size: 8.54px; font-family: Arial;' textLength='8.06px' lengthAdjust='spacingAndGlyphs'>EI</text>
<line x1='107.91' y1='377.29' x2='101.68' y2='371.25' style='stroke-width: 1.07;' />
<text x='113.74' y='381.80' text-anchor='middle' style='font-size: 8.54px; font-family: Arial;' textLength='8.06px' lengthAdjust='spacingAndGlyphs'>EI</text>
<line x1='92.73' y1='411.45' x2='88.60' y2='419.37' style='stroke-width: 1.07;' />
<text x='98.55' y='412.61' text-anchor='middle' style='font-size: 8.54px; font-family: Arial;' textLength='8.06px' lengthAdjust='spacingAndGlyphs'>EI</text>
<text x='68.30' y='480.33' text-anchor='middle' style='font-size: 8.54px; font-family: Arial;' textLength='8.06px' lengthAdjust='spacingAndGlyphs'>EI</text>
<text x='126.54' y='518.66' text-anchor='middle' style='font-size: 8.54px; font-family: Arial;' textLength='8.06px' lengthAdjust='spacingAndGlyphs'>EI</text>
<text x='337.64' y='37.30' text-anchor='middle' style='font-size: 8.54px; font-family: Arial;' textLength='8.06px' lengthAdjust='spacingAndGlyphs'>EI</text>
<text x='366.90' y='85.51' text-anchor='middle' style='font-size: 8.54px; font-family: Arial;' textLength='8.06px' lengthAdjust='spacingAndGlyphs'>EI</text>
<text x='378.36' y='141.40' text-anchor='middle' style='font-size: 8.54px; font-family: Arial;' textLength='8.06px' lengthAdjust='spacingAndGlyphs'>EI</text>
<text x='398.94' y='183.62' text-anchor='middle' style='font-size: 8.54px; font-family: Arial;' textLength='8.06px' lengthAdjust='spacingAndGlyphs'>EI</text>
<text x='456.78' y='222.77' text-anchor='middle' style='font-size: 8.54px; font-family: Arial;' textLength='8.06px' lengthAdjust='spacingAndGlyphs'>EI</text>
<text x='487.96' y='278.07' text-anchor='middle' style='font-size: 8.54px; font-family: Arial;' textLength='8.06px' lengthAdjust='spacingAndGlyphs'>EI</text>
<text x='437.12' y='318.79' text-anchor='middle' style='font-size: 8.54px; font-family: Arial;' textLength='8.06px' lengthAdjust='spacingAndGlyphs'>EI</text>
<text x='309.99' y='365.12' text-anchor='middle' style='font-size: 8.54px; font-family: Arial;' textLength='8.06px' lengthAdjust='spacingAndGlyphs'>EI</text>
<text x='249.33' y='414.83' text-anchor='middle' style='font-size: 8.54px; font-family: Arial;' textLength='8.06px' lengthAdjust='spacingAndGlyphs'>EI</text>
<text x='265.98' y='470.62' text-anchor='middle' style='font-size: 8.54px; font-family: Arial;' textLength='8.06px' lengthAdjust='spacingAndGlyphs'>EI</text>
<text x='368.54' y='526.79' text-anchor='middle' style='font-size: 8.54px; font-family: Arial;' textLength='8.06px' lengthAdjust='spacingAndGlyphs'>EI</text>
</g>
<g clip-path='url(#cpMC4wMHw1NzYuMDB8MC4wMHw1NzYuMDA=)'>
<text x='37.98' y='518.78' text-anchor='end' style='font-size: 8.80px; fill: #4D4D4D; font-family: Arial;' textLength='19.56px' lengthAdjust='spacingAndGlyphs'>slIS4</text>
<text x='37.98' y='470.65' text-anchor='end' style='font-size: 8.80px; fill: #4D4D4D; font-family: Arial;' textLength='19.56px' lengthAdjust='spacingAndGlyphs'>slIS3</text>
<text x='37.98' y='422.52' text-anchor='end' style='font-size: 8.80px; fill: #4D4D4D; font-family: Arial;' textLength='19.56px' lengthAdjust='spacingAndGlyphs'>slIS2</text>
<text x='37.98' y='374.40' text-anchor='end' style='font-size: 8.80px; fill: #4D4D4D; font-family: Arial;' textLength='19.56px' lengthAdjust='spacingAndGlyphs'>slIS1</text>
<text x='37.98' y='326.27' text-anchor='end' style='font-size: 8.80px; fill: #4D4D4D; font-family: Arial;' textLength='17.14px' lengthAdjust='spacingAndGlyphs'>attI7</text>
<text x='37.98' y='278.14' text-anchor='end' style='font-size: 8.80px; fill: #4D4D4D; font-family: Arial;' textLength='17.14px' lengthAdjust='spacingAndGlyphs'>attI6</text>
<text x='37.98' y='230.01' text-anchor='end' style='font-size: 8.80px; fill: #4D4D4D; font-family: Arial;' textLength='17.14px' lengthAdjust='spacingAndGlyphs'>attI5</text>
<text x='37.98' y='181.89' text-anchor='end' style='font-size: 8.80px; fill: #4D4D4D; font-family: Arial;' textLength='17.14px' lengthAdjust='spacingAndGlyphs'>attI4</text>
<text x='37.98' y='133.76' text-anchor='end' style='font-size: 8.80px; fill: #4D4D4D; font-family: Arial;' textLength='17.14px' lengthAdjust='spacingAndGlyphs'>attI3</text>
<text x='37.98' y='85.63' text-anchor='end' style='font-size: 8.80px; fill: #4D4D4D; font-family: Arial;' textLength='17.14px' lengthAdjust='spacingAndGlyphs'>attI2</text>
<text x='37.98' y='37.51' text-anchor='end' style='font-size: 8.80px; fill: #4D4D4D; font-family: Arial;' textLength='17.14px' lengthAdjust='spacingAndGlyphs'>attI1</text>
<text x='48.94' y='555.74' text-anchor='middle' style='font-size: 8.80px; fill: #4D4D4D; font-family: Arial;' textLength='15.17px' lengthAdjust='spacingAndGlyphs'>-1.0</text>
<text x='172.21' y='555.74' text-anchor='middle' style='font-size: 8.80px; fill: #4D4D4D; font-family: Arial;' textLength='15.17px' lengthAdjust='spacingAndGlyphs'>-0.5</text>
<text x='295.49' y='555.74' text-anchor='middle' style='font-size: 8.80px; fill: #4D4D4D; font-family: Arial;' textLength='12.24px' lengthAdjust='spacingAndGlyphs'>0.0</text>
<text x='418.76' y='555.74' text-anchor='middle' style='font-size: 8.80px; fill: #4D4D4D; font-family: Arial;' textLength='12.24px' lengthAdjust='spacingAndGlyphs'>0.5</text>
<text x='542.04' y='555.74' text-anchor='middle' style='font-size: 8.80px; fill: #4D4D4D; font-family: Arial;' textLength='12.24px' lengthAdjust='spacingAndGlyphs'>1.0</text>
<text x='306.71' y='568.20' text-anchor='middle' style='font-size: 11.00px; font-family: Arial;' textLength='66.69px' lengthAdjust='spacingAndGlyphs'>factorLoading</text>
<text transform='translate(13.36,274.99) rotate(-90)' text-anchor='middle' style='font-size: 11.00px; font-family: Arial;' textLength='20.79px' lengthAdjust='spacingAndGlyphs'>item</text>
</g>
</svg>
