<?xml version='1.0' encoding='UTF-8' ?>
<svg xmlns='http://www.w3.org/2000/svg' xmlns:xlink='http://www.w3.org/1999/xlink' class='svglite' width='576.00pt' height='576.00pt' viewBox='0 0 576.00 576.00'>
<defs>
  <style type='text/css'><![CDATA[
    .svglite line, .svglite polyline, .svglite polygon, .svglite path, .svglite rect, .svglite circle {
      fill: none;
      stroke: #000000;
      stroke-linecap: round;
      stroke-linejoin: round;
      stroke-miterlimit: 10.00;
    }
  ]]></style>
</defs>
<rect width='100%' height='100%' style='stroke: none; fill: none;'/>
<defs>
  <clipPath id='cpMC4wMHw1NzYuMDB8MC4wMHw1NzYuMDA='>
    <rect x='0.00' y='0.00' width='576.00' height='576.00' />
  </clipPath>
</defs>
<g clip-path='url(#cpMC4wMHw1NzYuMDB8MC4wMHw1NzYuMDA=)'>
</g>
<defs>
  <clipPath id='cpMzUuODR8NTcwLjUyfDIzLjE4fDU0NC41MA=='>
    <rect x='35.84' y='23.18' width='534.68' height='521.33' />
  </clipPath>
</defs>
<g clip-path='url(#cpMzUuODR8NTcwLjUyfDIzLjE4fDU0NC41MA==)'>
<polyline points='119.98,544.50 119.98,23.18 ' style='stroke-width: 0.53; stroke: #EBEBEB; stroke-linecap: butt;' />
<polyline points='246.12,544.50 246.12,23.18 ' style='stroke-width: 0.53; stroke: #EBEBEB; stroke-linecap: butt;' />
<polyline points='372.26,544.50 372.26,23.18 ' style='stroke-width: 0.53; stroke: #EBEBEB; stroke-linecap: butt;' />
<polyline points='498.41,544.50 498.41,23.18 ' style='stroke-width: 0.53; stroke: #EBEBEB; stroke-linecap: butt;' />
<polyline points='35.84,494.05 570.52,494.05 ' style='stroke-width: 1.07; stroke: #EBEBEB; stroke-linecap: butt;' />
<polyline points='35.84,409.97 570.52,409.97 ' style='stroke-width: 1.07; stroke: #EBEBEB; stroke-linecap: butt;' />
<polyline points='35.84,325.88 570.52,325.88 ' style='stroke-width: 1.07; stroke: #EBEBEB; stroke-linecap: butt;' />
<polyline points='35.84,241.80 570.52,241.80 ' style='stroke-width: 1.07; stroke: #EBEBEB; stroke-linecap: butt;' />
<polyline points='35.84,157.71 570.52,157.71 ' style='stroke-width: 1.07; stroke: #EBEBEB; stroke-linecap: butt;' />
<polyline points='35.84,73.63 570.52,73.63 ' style='stroke-width: 1.07; stroke: #EBEBEB; stroke-linecap: butt;' />
<polyline points='56.90,544.50 56.90,23.18 ' style='stroke-width: 1.07; stroke: #EBEBEB; stroke-linecap: butt;' />
<polyline points='183.05,544.50 183.05,23.18 ' style='stroke-width: 1.07; stroke: #EBEBEB; stroke-linecap: butt;' />
<polyline points='309.19,544.50 309.19,23.18 ' style='stroke-width: 1.07; stroke: #EBEBEB; stroke-linecap: butt;' />
<polyline points='435.33,544.50 435.33,23.18 ' style='stroke-width: 1.07; stroke: #EBEBEB; stroke-linecap: butt;' />
<polyline points='561.48,544.50 561.48,23.18 ' style='stroke-width: 1.07; stroke: #EBEBEB; stroke-linecap: butt;' />
<line x1='309.19' y1='544.50' x2='309.19' y2='23.18' style='stroke-width: 1.07; stroke-linecap: butt;' />
<circle cx='326.65' cy='325.88' r='2.83' style='stroke-width: 0.71; stroke: none; fill: #D3E039;' />
<circle cx='305.95' cy='409.97' r='2.02' style='stroke-width: 0.71; stroke: none; fill: #F6E629;' />
<circle cx='290.37' cy='494.05' r='2.88' style='stroke-width: 0.71; stroke: none; fill: #D0E03A;' />
<circle cx='120.41' cy='73.63' r='6.07' style='stroke-width: 0.71; stroke: none; fill: #3F4F89;' />
<circle cx='67.65' cy='157.71' r='6.68' style='stroke-width: 0.71; stroke: none; fill: #45105B;' />
<circle cx='103.56' cy='241.80' r='6.27' style='stroke-width: 0.71; stroke: none; fill: #433D80;' />
<polygon points='515.02,316.13 523.47,330.76 506.58,330.76 ' style='stroke-width: 0.71; stroke: none; fill: #433D80;' />
<polygon points='528.23,399.98 536.88,414.96 519.58,414.96 ' style='stroke-width: 0.71; stroke: none; fill: #452E72;' />
<polygon points='501.80,484.55 510.03,498.81 493.57,498.81 ' style='stroke-width: 0.71; stroke: none; fill: #404B88;' />
<polygon points='288.11,69.01 292.11,75.94 284.11,75.94 ' style='stroke-width: 0.71; stroke: none; fill: #CADF3C;' />
<polygon points='305.74,154.55 308.48,159.30 303.00,159.30 ' style='stroke-width: 0.71; stroke: none; fill: #F5E62A;' />
<polygon points='333.06,237.03 337.20,244.18 328.93,244.18 ' style='stroke-width: 0.71; stroke: none; fill: #C3DD3F;' />
<circle cx='305.83' cy='325.88' r='2.03' style='stroke-width: 0.71; stroke: none; fill: #F5E62A;' />
<circle cx='311.96' cy='409.97' r='1.97' style='stroke-width: 0.71; stroke: none; fill: #F7E629;' />
<circle cx='291.43' cy='494.05' r='2.84' style='stroke-width: 0.71; stroke: none; fill: #D3E039;' />
<circle cx='89.54' cy='73.63' r='6.43' style='stroke-width: 0.71; stroke: none; fill: #452D72;' />
<circle cx='82.68' cy='157.71' r='6.51' style='stroke-width: 0.71; stroke: none; fill: #46256B;' />
<circle cx='87.00' cy='241.80' r='6.46' style='stroke-width: 0.71; stroke: none; fill: #452A6F;' />
<polygon points='463.29,317.15 470.86,330.25 455.73,330.25 ' style='stroke-width: 0.71; stroke: none; fill: #2E738D;' />
<polygon points='534.18,399.87 542.92,415.02 525.43,415.02 ' style='stroke-width: 0.71; stroke: none; fill: #46276C;' />
<polygon points='423.29,486.23 430.06,497.96 416.51,497.96 ' style='stroke-width: 0.71; stroke: none; fill: #299A87;' />
<polygon points='325.36,69.31 329.10,75.79 321.63,75.79 ' style='stroke-width: 0.71; stroke: none; fill: #D6E138;' />
<polygon points='297.59,153.72 301.05,159.71 294.14,159.71 ' style='stroke-width: 0.71; stroke: none; fill: #E2E333;' />
<polygon points='306.50,238.75 309.14,243.32 303.85,243.32 ' style='stroke-width: 0.71; stroke: none; fill: #F7E629;' />
<circle cx='313.85' cy='325.88' r='2.14' style='stroke-width: 0.71; stroke: none; fill: #F2E52B;' />
<circle cx='311.06' cy='409.97' r='1.86' style='stroke-width: 0.71; stroke: none; fill: #F9E628;' />
<circle cx='295.50' cy='494.05' r='2.67' style='stroke-width: 0.71; stroke: none; fill: #DDE235;' />
<circle cx='83.68' cy='73.63' r='6.50' style='stroke-width: 0.71; stroke: none; fill: #46266C;' />
<circle cx='60.14' cy='157.71' r='6.76' style='stroke-width: 0.71; stroke: none; fill: #440154;' />
<circle cx='81.23' cy='241.80' r='6.53' style='stroke-width: 0.71; stroke: none; fill: #462369;' />
<polygon points='541.56,315.66 550.41,330.99 532.70,330.99 ' style='stroke-width: 0.71; stroke: none; fill: #461E65;' />
<polygon points='533.04,399.89 541.76,415.01 524.31,415.01 ' style='stroke-width: 0.71; stroke: none; fill: #46286D;' />
<polygon points='496.35,484.65 504.49,498.75 488.20,498.75 ' style='stroke-width: 0.71; stroke: none; fill: #3F5189;' />
<polygon points='304.44,70.29 307.33,75.30 301.55,75.30 ' style='stroke-width: 0.71; stroke: none; fill: #F2E52B;' />
<polygon points='300.75,153.99 303.98,159.58 297.53,159.58 ' style='stroke-width: 0.71; stroke: none; fill: #E9E430;' />
<polygon points='325.70,237.46 329.45,243.97 321.94,243.97 ' style='stroke-width: 0.71; stroke: none; fill: #D6E138;' />
<circle cx='315.34' cy='325.88' r='2.25' style='stroke-width: 0.71; stroke: none; fill: #EFE52D;' />
<circle cx='248.39' cy='409.97' r='4.05' style='stroke-width: 0.71; stroke: none; fill: #6DC85E;' />
<circle cx='320.01' cy='494.05' r='2.53' style='stroke-width: 0.71; stroke: none; fill: #E4E332;' />
<circle cx='92.54' cy='73.63' r='6.40' style='stroke-width: 0.71; stroke: none; fill: #453175;' />
<circle cx='76.72' cy='157.71' r='6.58' style='stroke-width: 0.71; stroke: none; fill: #461E65;' />
<circle cx='94.49' cy='241.80' r='6.37' style='stroke-width: 0.71; stroke: none; fill: #453377;' />
<polygon points='546.22,315.58 555.14,331.03 537.29,331.03 ' style='stroke-width: 0.71; stroke: none; fill: #451760;' />
<polygon points='462.72,401.24 470.27,414.33 455.16,414.33 ' style='stroke-width: 0.71; stroke: none; fill: #2E748D;' />
<polygon points='506.15,484.47 514.45,498.85 497.85,498.85 ' style='stroke-width: 0.71; stroke: none; fill: #414787;' />
<polygon points='300.84,69.91 304.06,75.49 297.62,75.49 ' style='stroke-width: 0.71; stroke: none; fill: #E9E430;' />
<polygon points='302.60,154.17 305.67,159.49 299.54,159.49 ' style='stroke-width: 0.71; stroke: none; fill: #EEE52E;' />
<polygon points='328.42,237.29 332.32,244.05 324.52,244.05 ' style='stroke-width: 0.71; stroke: none; fill: #CFDF3B;' />
<circle cx='306.20' cy='325.88' r='1.99' style='stroke-width: 0.71; stroke: none; fill: #F6E629;' />
<circle cx='319.72' cy='409.97' r='2.51' style='stroke-width: 0.71; stroke: none; fill: #E4E332;' />
<circle cx='284.31' cy='494.05' r='3.10' style='stroke-width: 0.71; stroke: none; fill: #C1DD40;' />
<circle cx='85.31' cy='73.63' r='6.48' style='stroke-width: 0.71; stroke: none; fill: #46286D;' />
<circle cx='92.99' cy='157.71' r='6.39' style='stroke-width: 0.71; stroke: none; fill: #453175;' />
<circle cx='91.58' cy='241.80' r='6.41' style='stroke-width: 0.71; stroke: none; fill: #453074;' />
<polygon points='518.90,316.06 527.40,330.79 510.39,330.79 ' style='stroke-width: 0.71; stroke: none; fill: #44397C;' />
<polygon points='541.53,399.74 550.39,415.08 532.68,415.08 ' style='stroke-width: 0.71; stroke: none; fill: #461E65;' />
<polygon points='477.70,485.02 485.52,498.57 469.87,498.57 ' style='stroke-width: 0.71; stroke: none; fill: #38648C;' />
<polygon points='302.71,70.09 305.77,75.39 299.65,75.39 ' style='stroke-width: 0.71; stroke: none; fill: #EEE52D;' />
<polygon points='309.04,155.50 310.96,158.82 307.13,158.82 ' style='stroke-width: 0.71; stroke: none; fill: #FDE725;' />
<polygon points='317.58,238.08 320.81,243.66 314.36,243.66 ' style='stroke-width: 0.71; stroke: none; fill: #E9E430;' />
<circle cx='296.09' cy='325.88' r='2.64' style='stroke-width: 0.71; stroke: none; fill: #DEE235;' />
<circle cx='283.04' cy='409.97' r='3.15' style='stroke-width: 0.71; stroke: none; fill: #BDDC41;' />
<circle cx='325.61' cy='494.05' r='2.79' style='stroke-width: 0.71; stroke: none; fill: #D6E138;' />
<circle cx='110.14' cy='73.63' r='6.19' style='stroke-width: 0.71; stroke: none; fill: #414487;' />
<circle cx='82.00' cy='157.71' r='6.52' style='stroke-width: 0.71; stroke: none; fill: #46246A;' />
<circle cx='112.39' cy='241.80' r='6.16' style='stroke-width: 0.71; stroke: none; fill: #414787;' />
<polygon points='488.11,316.64 496.11,330.50 480.11,330.50 ' style='stroke-width: 0.71; stroke: none; fill: #3D5A8A;' />
<polygon points='472.64,401.04 480.37,414.43 464.91,414.43 ' style='stroke-width: 0.71; stroke: none; fill: #356A8C;' />
<polygon points='509.98,484.39 518.35,498.88 501.62,498.88 ' style='stroke-width: 0.71; stroke: none; fill: #424285;' />
<polygon points='331.12,68.96 335.16,75.96 327.08,75.96 ' style='stroke-width: 0.71; stroke: none; fill: #C8DE3D;' />
<polygon points='285.94,152.98 290.04,160.08 281.84,160.08 ' style='stroke-width: 0.71; stroke: none; fill: #C5DE3E;' />
<polygon points='329.45,237.23 333.41,244.08 325.50,244.08 ' style='stroke-width: 0.71; stroke: none; fill: #CCDF3C;' />
<line x1='340.93' y1='323.62' x2='326.65' y2='325.88' style='stroke-width: 1.07;' />
<text x='348.66' y='326.64' text-anchor='middle' style='font-size: 8.54px; font-family: Arial;' textLength='11.85px' lengthAdjust='spacingAndGlyphs'>AU</text>
<line x1='297.54' y1='418.44' x2='305.95' y2='409.97' style='stroke-width: 1.07;' />
<text x='289.81' y='422.71' text-anchor='middle' style='font-size: 8.54px; font-family: Arial;' textLength='11.85px' lengthAdjust='spacingAndGlyphs'>AU</text>
<text x='281.96' y='488.17' text-anchor='middle' style='font-size: 8.54px; font-family: Arial;' textLength='11.85px' lengthAdjust='spacingAndGlyphs'>AU</text>
<text x='134.63' y='77.86' text-anchor='middle' style='font-size: 8.54px; font-family: Arial;' textLength='11.85px' lengthAdjust='spacingAndGlyphs'>AU</text>
<text x='61.77' y='151.05' text-anchor='middle' style='font-size: 8.54px; font-family: Arial;' textLength='11.85px' lengthAdjust='spacingAndGlyphs'>AU</text>
<line x1='109.16' y1='247.92' x2='103.56' y2='241.80' style='stroke-width: 1.07;' />
<text x='116.89' y='252.67' text-anchor='middle' style='font-size: 8.54px; font-family: Arial;' textLength='11.85px' lengthAdjust='spacingAndGlyphs'>AU</text>
<text x='502.41' y='329.03' text-anchor='middle' style='font-size: 8.54px; font-family: Arial;' textLength='11.85px' lengthAdjust='spacingAndGlyphs'>AU</text>
<line x1='509.07' y1='414.58' x2='528.23' y2='409.97' style='stroke-width: 1.07;' />
<text x='501.35' y='417.78' text-anchor='middle' style='font-size: 8.54px; font-family: Arial;' textLength='11.85px' lengthAdjust='spacingAndGlyphs'>AU</text>
<text x='493.28' y='490.10' text-anchor='middle' style='font-size: 8.54px; font-family: Arial;' textLength='11.85px' lengthAdjust='spacingAndGlyphs'>AU</text>
<line x1='269.50' y1='70.76' x2='288.11' y2='73.63' style='stroke-width: 1.07;' />
<text x='261.77' y='73.78' text-anchor='middle' style='font-size: 8.54px; font-family: Arial;' textLength='11.85px' lengthAdjust='spacingAndGlyphs'>AU</text>
<line x1='313.94' y1='166.56' x2='305.74' y2='157.71' style='stroke-width: 1.07;' />
<text x='321.66' y='170.87' text-anchor='middle' style='font-size: 8.54px; font-family: Arial;' textLength='11.85px' lengthAdjust='spacingAndGlyphs'>AU</text>
<line x1='351.98' y1='240.93' x2='333.06' y2='241.80' style='stroke-width: 1.07;' />
<text x='359.70' y='243.98' text-anchor='middle' style='font-size: 8.54px; font-family: Arial;' textLength='11.85px' lengthAdjust='spacingAndGlyphs'>AU</text>
<text x='307.43' y='335.58' text-anchor='middle' style='font-size: 8.54px; font-family: Arial;' textLength='8.06px' lengthAdjust='spacingAndGlyphs'>AI</text>
<line x1='319.11' y1='417.66' x2='311.96' y2='409.97' style='stroke-width: 1.07;' />
<text x='324.94' y='422.12' text-anchor='middle' style='font-size: 8.54px; font-family: Arial;' textLength='8.06px' lengthAdjust='spacingAndGlyphs'>AI</text>
<text x='292.79' y='506.05' text-anchor='middle' style='font-size: 8.54px; font-family: Arial;' textLength='8.06px' lengthAdjust='spacingAndGlyphs'>AI</text>
<text x='93.71' y='69.24' text-anchor='middle' style='font-size: 8.54px; font-family: Arial;' textLength='8.06px' lengthAdjust='spacingAndGlyphs'>AI</text>
<text x='87.63' y='151.60' text-anchor='middle' style='font-size: 8.54px; font-family: Arial;' textLength='8.06px' lengthAdjust='spacingAndGlyphs'>AI</text>
<line x1='78.64' y1='237.93' x2='87.00' y2='241.80' style='stroke-width: 1.07;' />
<text x='72.81' y='240.45' text-anchor='middle' style='font-size: 8.54px; font-family: Arial;' textLength='8.06px' lengthAdjust='spacingAndGlyphs'>AI</text>
<text x='455.99' y='321.76' text-anchor='middle' style='font-size: 8.54px; font-family: Arial;' textLength='8.06px' lengthAdjust='spacingAndGlyphs'>AI</text>
<text x='540.99' y='421.89' text-anchor='middle' style='font-size: 8.54px; font-family: Arial;' textLength='8.06px' lengthAdjust='spacingAndGlyphs'>AI</text>
<text x='415.86' y='504.35' text-anchor='middle' style='font-size: 8.54px; font-family: Arial;' textLength='8.06px' lengthAdjust='spacingAndGlyphs'>AI</text>
<line x1='333.80' y1='70.11' x2='325.36' y2='73.63' style='stroke-width: 1.07;' />
<text x='339.63' y='72.80' text-anchor='middle' style='font-size: 8.54px; font-family: Arial;' textLength='8.06px' lengthAdjust='spacingAndGlyphs'>AI</text>
<line x1='280.90' y1='164.02' x2='297.59' y2='157.71' style='stroke-width: 1.07;' />
<text x='275.07' y='167.41' text-anchor='middle' style='font-size: 8.54px; font-family: Arial;' textLength='8.06px' lengthAdjust='spacingAndGlyphs'>AI</text>
<line x1='292.57' y1='245.43' x2='306.50' y2='241.80' style='stroke-width: 1.07;' />
<text x='286.74' y='248.62' text-anchor='middle' style='font-size: 8.54px; font-family: Arial;' textLength='8.06px' lengthAdjust='spacingAndGlyphs'>AI</text>
<line x1='321.06' y1='333.11' x2='313.85' y2='325.88' style='stroke-width: 1.07;' />
<text x='329.02' y='337.54' text-anchor='middle' style='font-size: 8.54px; font-family: Arial;' textLength='12.33px' lengthAdjust='spacingAndGlyphs'>CU</text>
<text x='302.50' y='405.38' text-anchor='middle' style='font-size: 8.54px; font-family: Arial;' textLength='12.33px' lengthAdjust='spacingAndGlyphs'>CU</text>
<text x='305.13' y='489.51' text-anchor='middle' style='font-size: 8.54px; font-family: Arial;' textLength='12.33px' lengthAdjust='spacingAndGlyphs'>CU</text>
<line x1='61.55' y1='72.72' x2='83.68' y2='73.63' style='stroke-width: 1.07;' />
<text x='53.58' y='75.77' text-anchor='middle' style='font-size: 8.54px; font-family: Arial;' textLength='12.33px' lengthAdjust='spacingAndGlyphs'>CU</text>
<text x='47.20' y='165.08' text-anchor='middle' style='font-size: 8.54px; font-family: Arial;' textLength='12.33px' lengthAdjust='spacingAndGlyphs'>CU</text>
<line x1='62.98' y1='243.86' x2='81.23' y2='241.80' style='stroke-width: 1.07;' />
<text x='55.01' y='246.93' text-anchor='middle' style='font-size: 8.54px; font-family: Arial;' textLength='12.33px' lengthAdjust='spacingAndGlyphs'>CU</text>
<text x='538.02' y='337.79' text-anchor='middle' style='font-size: 8.54px; font-family: Arial;' textLength='12.33px' lengthAdjust='spacingAndGlyphs'>CU</text>
<line x1='529.13' y1='403.20' x2='533.04' y2='409.97' style='stroke-width: 1.07;' />
<text x='521.17' y='404.18' text-anchor='middle' style='font-size: 8.54px; font-family: Arial;' textLength='12.33px' lengthAdjust='spacingAndGlyphs'>CU</text>
<text x='485.08' y='504.37' text-anchor='middle' style='font-size: 8.54px; font-family: Arial;' textLength='12.33px' lengthAdjust='spacingAndGlyphs'>CU</text>
<text x='315.13' y='82.07' text-anchor='middle' style='font-size: 8.54px; font-family: Arial;' textLength='12.33px' lengthAdjust='spacingAndGlyphs'>CU</text>
<text x='291.48' y='153.25' text-anchor='middle' style='font-size: 8.54px; font-family: Arial;' textLength='12.33px' lengthAdjust='spacingAndGlyphs'>CU</text>
<text x='317.54' y='253.46' text-anchor='middle' style='font-size: 8.54px; font-family: Arial;' textLength='12.33px' lengthAdjust='spacingAndGlyphs'>CU</text>
<text x='320.72' y='319.68' text-anchor='middle' style='font-size: 8.54px; font-family: Arial;' textLength='8.53px' lengthAdjust='spacingAndGlyphs'>CI</text>
<text x='255.67' y='405.13' text-anchor='middle' style='font-size: 8.54px; font-family: Arial;' textLength='8.53px' lengthAdjust='spacingAndGlyphs'>CI</text>
<text x='322.54' y='504.77' text-anchor='middle' style='font-size: 8.54px; font-family: Arial;' textLength='8.53px' lengthAdjust='spacingAndGlyphs'>CI</text>
<text x='101.34' y='84.27' text-anchor='middle' style='font-size: 8.54px; font-family: Arial;' textLength='8.53px' lengthAdjust='spacingAndGlyphs'>CI</text>
<text x='74.13' y='169.50' text-anchor='middle' style='font-size: 8.54px; font-family: Arial;' textLength='8.53px' lengthAdjust='spacingAndGlyphs'>CI</text>
<text x='102.34' y='236.39' text-anchor='middle' style='font-size: 8.54px; font-family: Arial;' textLength='8.53px' lengthAdjust='spacingAndGlyphs'>CI</text>
<text x='557.33' y='328.78' text-anchor='middle' style='font-size: 8.54px; font-family: Arial;' textLength='8.53px' lengthAdjust='spacingAndGlyphs'>CI</text>
<text x='454.22' y='413.02' text-anchor='middle' style='font-size: 8.54px; font-family: Arial;' textLength='8.53px' lengthAdjust='spacingAndGlyphs'>CI</text>
<text x='517.12' y='490.33' text-anchor='middle' style='font-size: 8.54px; font-family: Arial;' textLength='8.53px' lengthAdjust='spacingAndGlyphs'>CI</text>
<line x1='285.71' y1='79.04' x2='300.84' y2='73.63' style='stroke-width: 1.07;' />
<text x='279.64' y='82.41' text-anchor='middle' style='font-size: 8.54px; font-family: Arial;' textLength='8.53px' lengthAdjust='spacingAndGlyphs'>CI</text>
<text x='313.65' y='153.83' text-anchor='middle' style='font-size: 8.54px; font-family: Arial;' textLength='8.53px' lengthAdjust='spacingAndGlyphs'>CI</text>
<line x1='335.20' y1='245.74' x2='328.42' y2='241.80' style='stroke-width: 1.07;' />
<text x='341.27' y='249.75' text-anchor='middle' style='font-size: 8.54px; font-family: Arial;' textLength='8.53px' lengthAdjust='spacingAndGlyphs'>CI</text>
<text x='299.30' y='318.89' text-anchor='middle' style='font-size: 8.54px; font-family: Arial;' textLength='11.85px' lengthAdjust='spacingAndGlyphs'>EU</text>
<line x1='334.94' y1='405.14' x2='319.72' y2='409.97' style='stroke-width: 1.07;' />
<text x='342.67' y='407.94' text-anchor='middle' style='font-size: 8.54px; font-family: Arial;' textLength='11.85px' lengthAdjust='spacingAndGlyphs'>EU</text>
<line x1='270.02' y1='496.83' x2='284.31' y2='494.05' style='stroke-width: 1.07;' />
<text x='262.30' y='499.95' text-anchor='middle' style='font-size: 8.54px; font-family: Arial;' textLength='11.85px' lengthAdjust='spacingAndGlyphs'>EU</text>
<text x='73.08' y='79.30' text-anchor='middle' style='font-size: 8.54px; font-family: Arial;' textLength='11.85px' lengthAdjust='spacingAndGlyphs'>EU</text>
<line x1='107.86' y1='155.36' x2='92.99' y2='157.71' style='stroke-width: 1.07;' />
<text x='115.59' y='158.39' text-anchor='middle' style='font-size: 8.54px; font-family: Arial;' textLength='11.85px' lengthAdjust='spacingAndGlyphs'>EU</text>
<text x='91.61' y='252.48' text-anchor='middle' style='font-size: 8.54px; font-family: Arial;' textLength='11.85px' lengthAdjust='spacingAndGlyphs'>EU</text>
<text x='521.58' y='321.57' text-anchor='middle' style='font-size: 8.54px; font-family: Arial;' textLength='11.85px' lengthAdjust='spacingAndGlyphs'>EU</text>
<line x1='551.31' y1='407.52' x2='541.53' y2='409.97' style='stroke-width: 1.07;' />
<text x='559.04' y='410.50' text-anchor='middle' style='font-size: 8.54px; font-family: Arial;' textLength='11.85px' lengthAdjust='spacingAndGlyphs'>EU</text>
<text x='465.22' y='495.86' text-anchor='middle' style='font-size: 8.54px; font-family: Arial;' textLength='11.85px' lengthAdjust='spacingAndGlyphs'>EU</text>
<text x='296.21' y='67.42' text-anchor='middle' style='font-size: 8.54px; font-family: Arial;' textLength='11.85px' lengthAdjust='spacingAndGlyphs'>EU</text>
<line x1='324.68' y1='152.92' x2='309.04' y2='157.71' style='stroke-width: 1.07;' />
<text x='332.40' y='155.73' text-anchor='middle' style='font-size: 8.54px; font-family: Arial;' textLength='11.85px' lengthAdjust='spacingAndGlyphs'>EU</text>
<line x1='312.06' y1='236.23' x2='317.58' y2='241.80' style='stroke-width: 1.07;' />
<text x='304.34' y='237.60' text-anchor='middle' style='font-size: 8.54px; font-family: Arial;' textLength='11.85px' lengthAdjust='spacingAndGlyphs'>EU</text>
<line x1='287.30' y1='329.27' x2='296.09' y2='325.88' style='stroke-width: 1.07;' />
<text x='281.47' y='332.63' text-anchor='middle' style='font-size: 8.54px; font-family: Arial;' textLength='8.06px' lengthAdjust='spacingAndGlyphs'>EI</text>
<text x='272.36' y='414.85' text-anchor='middle' style='font-size: 8.54px; font-family: Arial;' textLength='8.06px' lengthAdjust='spacingAndGlyphs'>EI</text>
<text x='338.46' y='496.15' text-anchor='middle' style='font-size: 8.54px; font-family: Arial;' textLength='8.06px' lengthAdjust='spacingAndGlyphs'>EI</text>
<text x='117.34' y='68.32' text-anchor='middle' style='font-size: 8.54px; font-family: Arial;' textLength='8.06px' lengthAdjust='spacingAndGlyphs'>EI</text>
<line x1='92.33' y1='164.91' x2='82.00' y2='157.71' style='stroke-width: 1.07;' />
<text x='98.16' y='168.84' text-anchor='middle' style='font-size: 8.54px; font-family: Arial;' textLength='8.06px' lengthAdjust='spacingAndGlyphs'>EI</text>
<line x1='128.32' y1='239.42' x2='112.39' y2='241.80' style='stroke-width: 1.07;' />
<text x='134.15' y='242.44' text-anchor='middle' style='font-size: 8.54px; font-family: Arial;' textLength='8.06px' lengthAdjust='spacingAndGlyphs'>EI</text>
<text x='479.94' y='328.92' text-anchor='middle' style='font-size: 8.54px; font-family: Arial;' textLength='8.06px' lengthAdjust='spacingAndGlyphs'>EI</text>
<text x='480.70' y='413.03' text-anchor='middle' style='font-size: 8.54px; font-family: Arial;' textLength='8.06px' lengthAdjust='spacingAndGlyphs'>EI</text>
<line x1='526.51' y1='500.36' x2='509.98' y2='494.05' style='stroke-width: 1.07;' />
<text x='532.34' y='503.76' text-anchor='middle' style='font-size: 8.54px; font-family: Arial;' textLength='8.06px' lengthAdjust='spacingAndGlyphs'>EI</text>
<line x1='349.94' y1='78.16' x2='331.12' y2='73.63' style='stroke-width: 1.07;' />
<text x='355.77' y='81.36' text-anchor='middle' style='font-size: 8.54px; font-family: Arial;' textLength='8.06px' lengthAdjust='spacingAndGlyphs'>EI</text>
<line x1='265.10' y1='152.25' x2='285.94' y2='157.71' style='stroke-width: 1.07;' />
<text x='259.27' y='155.14' text-anchor='middle' style='font-size: 8.54px; font-family: Arial;' textLength='8.06px' lengthAdjust='spacingAndGlyphs'>EI</text>
<text x='327.03' y='235.80' text-anchor='middle' style='font-size: 8.54px; font-family: Arial;' textLength='8.06px' lengthAdjust='spacingAndGlyphs'>EI</text>
</g>
<g clip-path='url(#cpMC4wMHw1NzYuMDB8MC4wMHw1NzYuMDA=)'>
<text x='30.91' y='497.20' text-anchor='end' style='font-size: 8.80px; fill: #4D4D4D; font-family: Arial;' textLength='22.02px' lengthAdjust='spacingAndGlyphs'>Imp 3</text>
<text x='30.91' y='413.12' text-anchor='end' style='font-size: 8.80px; fill: #4D4D4D; font-family: Arial;' textLength='22.02px' lengthAdjust='spacingAndGlyphs'>Imp 2</text>
<text x='30.91' y='329.03' text-anchor='end' style='font-size: 8.80px; fill: #4D4D4D; font-family: Arial;' textLength='22.02px' lengthAdjust='spacingAndGlyphs'>Imp 1</text>
<text x='30.91' y='244.95' text-anchor='end' style='font-size: 8.80px; fill: #4D4D4D; font-family: Arial;' textLength='25.43px' lengthAdjust='spacingAndGlyphs'>PBC 3</text>
<text x='30.91' y='160.86' text-anchor='end' style='font-size: 8.80px; fill: #4D4D4D; font-family: Arial;' textLength='25.43px' lengthAdjust='spacingAndGlyphs'>PBC 2</text>
<text x='30.91' y='76.78' text-anchor='end' style='font-size: 8.80px; fill: #4D4D4D; font-family: Arial;' textLength='25.43px' lengthAdjust='spacingAndGlyphs'>PBC 1</text>
<text x='56.90' y='555.74' text-anchor='middle' style='font-size: 8.80px; fill: #4D4D4D; font-family: Arial;' textLength='15.17px' lengthAdjust='spacingAndGlyphs'>-1.0</text>
<text x='183.05' y='555.74' text-anchor='middle' style='font-size: 8.80px; fill: #4D4D4D; font-family: Arial;' textLength='15.17px' lengthAdjust='spacingAndGlyphs'>-0.5</text>
<text x='309.19' y='555.74' text-anchor='middle' style='font-size: 8.80px; fill: #4D4D4D; font-family: Arial;' textLength='12.24px' lengthAdjust='spacingAndGlyphs'>0.0</text>
<text x='435.33' y='555.74' text-anchor='middle' style='font-size: 8.80px; fill: #4D4D4D; font-family: Arial;' textLength='12.24px' lengthAdjust='spacingAndGlyphs'>0.5</text>
<text x='561.48' y='555.74' text-anchor='middle' style='font-size: 8.80px; fill: #4D4D4D; font-family: Arial;' textLength='12.24px' lengthAdjust='spacingAndGlyphs'>1.0</text>
<text x='303.18' y='568.20' text-anchor='middle' style='font-size: 11.00px; font-family: Arial;' textLength='69.72px' lengthAdjust='spacingAndGlyphs'>Factor loading</text>
<text x='35.84' y='14.93' style='font-size: 13.20px; font-family: Arial;' textLength='266.17px' lengthAdjust='spacingAndGlyphs'>Perceived Behavioral Control and Importance</text>
</g>
</svg>
