<?xml version='1.0' encoding='UTF-8' ?>
<svg xmlns='http://www.w3.org/2000/svg' xmlns:xlink='http://www.w3.org/1999/xlink' class='svglite' width='576.00pt' height='576.00pt' viewBox='0 0 576.00 576.00'>
<defs>
  <style type='text/css'><![CDATA[
    .svglite line, .svglite polyline, .svglite polygon, .svglite path, .svglite rect, .svglite circle {
      fill: none;
      stroke: #000000;
      stroke-linecap: round;
      stroke-linejoin: round;
      stroke-miterlimit: 10.00;
    }
  ]]></style>
</defs>
<rect width='100%' height='100%' style='stroke: none; fill: none;'/>
<defs>
  <clipPath id='cpMC4wMHw1NzYuMDB8MC4wMHw1NzYuMDA='>
    <rect x='0.00' y='0.00' width='576.00' height='576.00' />
  </clipPath>
</defs>
<g clip-path='url(#cpMC4wMHw1NzYuMDB8MC4wMHw1NzYuMDA=)'>
</g>
<defs>
  <clipPath id='cpNDIuNDN8NTcwLjUyfDUuNDh8NTQ0LjUw'>
    <rect x='42.43' y='5.48' width='528.09' height='539.02' />
  </clipPath>
</defs>
<g clip-path='url(#cpNDIuNDN8NTcwLjUyfDUuNDh8NTQ0LjUw)'>
<polyline points='127.69,544.50 127.69,5.48 ' style='stroke-width: 0.53; stroke: #EBEBEB; stroke-linecap: butt;' />
<polyline points='246.17,544.50 246.17,5.48 ' style='stroke-width: 0.53; stroke: #EBEBEB; stroke-linecap: butt;' />
<polyline points='364.64,544.50 364.64,5.48 ' style='stroke-width: 0.53; stroke: #EBEBEB; stroke-linecap: butt;' />
<polyline points='483.11,544.50 483.11,5.48 ' style='stroke-width: 0.53; stroke: #EBEBEB; stroke-linecap: butt;' />
<polyline points='42.43,492.34 570.52,492.34 ' style='stroke-width: 1.07; stroke: #EBEBEB; stroke-linecap: butt;' />
<polyline points='42.43,405.40 570.52,405.40 ' style='stroke-width: 1.07; stroke: #EBEBEB; stroke-linecap: butt;' />
<polyline points='42.43,318.46 570.52,318.46 ' style='stroke-width: 1.07; stroke: #EBEBEB; stroke-linecap: butt;' />
<polyline points='42.43,231.52 570.52,231.52 ' style='stroke-width: 1.07; stroke: #EBEBEB; stroke-linecap: butt;' />
<polyline points='42.43,144.58 570.52,144.58 ' style='stroke-width: 1.07; stroke: #EBEBEB; stroke-linecap: butt;' />
<polyline points='42.43,57.64 570.52,57.64 ' style='stroke-width: 1.07; stroke: #EBEBEB; stroke-linecap: butt;' />
<polyline points='68.45,544.50 68.45,5.48 ' style='stroke-width: 1.07; stroke: #EBEBEB; stroke-linecap: butt;' />
<polyline points='186.93,544.50 186.93,5.48 ' style='stroke-width: 1.07; stroke: #EBEBEB; stroke-linecap: butt;' />
<polyline points='305.40,544.50 305.40,5.48 ' style='stroke-width: 1.07; stroke: #EBEBEB; stroke-linecap: butt;' />
<polyline points='423.88,544.50 423.88,5.48 ' style='stroke-width: 1.07; stroke: #EBEBEB; stroke-linecap: butt;' />
<polyline points='542.35,544.50 542.35,5.48 ' style='stroke-width: 1.07; stroke: #EBEBEB; stroke-linecap: butt;' />
<line x1='305.40' y1='544.50' x2='305.40' y2='5.48' style='stroke-width: 1.07; stroke-linecap: butt;' />
<circle cx='112.57' cy='57.64' r='6.19' style='stroke-width: 0.71; stroke: none; fill: #414487;' />
<circle cx='95.00' cy='144.58' r='6.40' style='stroke-width: 0.71; stroke: none; fill: #453074;' />
<circle cx='131.69' cy='231.52' r='5.95' style='stroke-width: 0.71; stroke: none; fill: #3D598A;' />
<circle cx='295.34' cy='318.46' r='2.49' style='stroke-width: 0.71; stroke: none; fill: #E5E332;' />
<circle cx='313.85' cy='405.40' r='2.40' style='stroke-width: 0.71; stroke: none; fill: #E9E430;' />
<circle cx='308.26' cy='492.34' r='1.97' style='stroke-width: 0.71; stroke: none; fill: #F7E629;' />
<polygon points='294.40,53.69 297.82,59.62 290.97,59.62 ' style='stroke-width: 0.71; stroke: none; fill: #E3E333;' />
<polygon points='298.05,140.96 301.19,146.40 294.91,146.40 ' style='stroke-width: 0.71; stroke: none; fill: #ECE42F;' />
<polygon points='336.43,226.35 340.90,234.11 331.95,234.11 ' style='stroke-width: 0.71; stroke: none; fill: #AEDA45;' />
<polygon points='509.66,308.62 518.19,323.38 501.14,323.38 ' style='stroke-width: 0.71; stroke: none; fill: #44377B;' />
<polygon points='502.09,395.70 510.50,410.25 493.69,410.25 ' style='stroke-width: 0.71; stroke: none; fill: #424083;' />
<polygon points='461.88,483.45 469.58,496.79 454.18,496.79 ' style='stroke-width: 0.71; stroke: none; fill: #346C8C;' />
<circle cx='287.32' cy='57.64' r='2.87' style='stroke-width: 0.71; stroke: none; fill: #D1E03A;' />
<circle cx='310.87' cy='144.58' r='2.20' style='stroke-width: 0.71; stroke: none; fill: #F0E52C;' />
<circle cx='217.24' cy='231.52' r='4.64' style='stroke-width: 0.71; stroke: none; fill: #3CAF7C;' />
<circle cx='181.49' cy='318.46' r='5.24' style='stroke-width: 0.71; stroke: none; fill: #2B8D8A;' />
<circle cx='103.11' cy='405.40' r='6.31' style='stroke-width: 0.71; stroke: none; fill: #44397D;' />
<circle cx='146.80' cy='492.34' r='5.75' style='stroke-width: 0.71; stroke: none; fill: #36698C;' />
<polygon points='445.22,49.12 452.61,61.91 437.84,61.91 ' style='stroke-width: 0.71; stroke: none; fill: #2B7D8D;' />
<polygon points='517.76,134.59 526.41,149.58 509.10,149.58 ' style='stroke-width: 0.71; stroke: none; fill: #452E72;' />
<polygon points='374.54,224.88 380.30,234.84 368.79,234.84 ' style='stroke-width: 0.71; stroke: none; fill: #5FBF69;' />
<polygon points='338.96,313.17 343.55,321.11 334.38,321.11 ' style='stroke-width: 0.71; stroke: none; fill: #A7D947;' />
<polygon points='302.84,402.39 305.45,406.90 300.24,406.90 ' style='stroke-width: 0.71; stroke: none; fill: #F8E628;' />
<polygon points='290.23,488.07 293.93,494.47 286.54,494.47 ' style='stroke-width: 0.71; stroke: none; fill: #D8E137;' />
<circle cx='305.07' cy='57.64' r='1.42' style='stroke-width: 0.71; stroke: none; fill: #FDE725;' />
<circle cx='311.03' cy='144.58' r='2.21' style='stroke-width: 0.71; stroke: none; fill: #F0E52C;' />
<circle cx='294.33' cy='231.52' r='2.55' style='stroke-width: 0.71; stroke: none; fill: #E2E333;' />
<circle cx='72.88' cy='318.46' r='6.66' style='stroke-width: 0.71; stroke: none; fill: #45125D;' />
<circle cx='91.53' cy='405.40' r='6.45' style='stroke-width: 0.71; stroke: none; fill: #452C70;' />
<circle cx='94.86' cy='492.34' r='6.41' style='stroke-width: 0.71; stroke: none; fill: #453074;' />
<polygon points='522.04,47.57 530.76,62.68 513.32,62.68 ' style='stroke-width: 0.71; stroke: none; fill: #46286D;' />
<polygon points='517.57,134.59 526.22,149.58 508.92,149.58 ' style='stroke-width: 0.71; stroke: none; fill: #452E72;' />
<polygon points='480.54,222.24 488.57,236.16 472.50,236.16 ' style='stroke-width: 0.71; stroke: none; fill: #3D588A;' />
<polygon points='299.10,314.94 302.14,320.22 296.05,320.22 ' style='stroke-width: 0.71; stroke: none; fill: #EEE52D;' />
<polygon points='299.98,401.98 302.94,407.11 297.03,407.11 ' style='stroke-width: 0.71; stroke: none; fill: #F1E52C;' />
<polygon points='320.61,488.07 324.31,494.48 316.91,494.48 ' style='stroke-width: 0.71; stroke: none; fill: #D8E137;' />
<circle cx='318.16' cy='57.64' r='2.63' style='stroke-width: 0.71; stroke: none; fill: #DEE235;' />
<circle cx='242.38' cy='144.58' r='4.14' style='stroke-width: 0.71; stroke: none; fill: #68C463;' />
<circle cx='262.11' cy='231.52' r='3.67' style='stroke-width: 0.71; stroke: none; fill: #8BD44E;' />
<circle cx='89.53' cy='318.46' r='6.47' style='stroke-width: 0.71; stroke: none; fill: #46296E;' />
<circle cx='84.76' cy='405.40' r='6.52' style='stroke-width: 0.71; stroke: none; fill: #462369;' />
<circle cx='136.17' cy='492.34' r='5.89' style='stroke-width: 0.71; stroke: none; fill: #3B5E8B;' />
<polygon points='546.52,47.14 555.62,62.90 537.42,62.90 ' style='stroke-width: 0.71; stroke: none; fill: #440154;' />
<polygon points='434.23,136.31 441.39,148.72 427.07,148.72 ' style='stroke-width: 0.71; stroke: none; fill: #2C888B;' />
<polygon points='449.89,222.89 457.37,235.84 442.42,235.84 ' style='stroke-width: 0.71; stroke: none; fill: #2A788E;' />
<polygon points='290.81,314.23 294.47,320.58 287.15,320.58 ' style='stroke-width: 0.71; stroke: none; fill: #DAE137;' />
<polygon points='308.66,402.28 311.36,406.96 305.95,406.96 ' style='stroke-width: 0.71; stroke: none; fill: #F6E629;' />
<polygon points='338.50,487.07 343.07,494.98 333.94,494.98 ' style='stroke-width: 0.71; stroke: none; fill: #A9D947;' />
<circle cx='256.17' cy='57.64' r='3.83' style='stroke-width: 0.71; stroke: none; fill: #79D052;' />
<circle cx='326.18' cy='144.58' r='2.98' style='stroke-width: 0.71; stroke: none; fill: #CADE3D;' />
<circle cx='274.50' cy='231.52' r='3.32' style='stroke-width: 0.71; stroke: none; fill: #AFDA45;' />
<circle cx='83.91' cy='318.46' r='6.53' style='stroke-width: 0.71; stroke: none; fill: #462268;' />
<circle cx='111.70' cy='405.40' r='6.20' style='stroke-width: 0.71; stroke: none; fill: #414386;' />
<circle cx='68.07' cy='492.34' r='6.71' style='stroke-width: 0.71; stroke: none; fill: #450958;' />
<polygon points='474.66,48.48 482.59,62.22 466.73,62.22 ' style='stroke-width: 0.71; stroke: none; fill: #3B5E8B;' />
<polygon points='537.92,134.23 546.89,149.76 528.95,149.76 ' style='stroke-width: 0.71; stroke: none; fill: #45125D;' />
<polygon points='454.00,222.80 461.55,235.88 446.45,235.88 ' style='stroke-width: 0.71; stroke: none; fill: #2E748E;' />
<polygon points='302.17,315.34 304.87,320.02 299.47,320.02 ' style='stroke-width: 0.71; stroke: none; fill: #F6E629;' />
<polygon points='338.30,400.14 342.85,408.03 333.74,408.03 ' style='stroke-width: 0.71; stroke: none; fill: #A9D946;' />
<polygon points='294.86,488.42 298.25,494.30 291.46,494.30 ' style='stroke-width: 0.71; stroke: none; fill: #E4E332;' />
<circle cx='156.53' cy='57.64' r='5.61' style='stroke-width: 0.71; stroke: none; fill: #2E748D;' />
<circle cx='299.83' cy='144.58' r='2.21' style='stroke-width: 0.71; stroke: none; fill: #F0E52C;' />
<circle cx='205.77' cy='231.52' r='4.85' style='stroke-width: 0.71; stroke: none; fill: #24A585;' />
<circle cx='147.24' cy='318.46' r='5.74' style='stroke-width: 0.71; stroke: none; fill: #356A8C;' />
<circle cx='66.44' cy='405.40' r='6.73' style='stroke-width: 0.71; stroke: none; fill: #440556;' />
<circle cx='179.14' cy='492.34' r='5.28' style='stroke-width: 0.71; stroke: none; fill: #2C8A8B;' />
<polygon points='357.96,51.57 363.22,60.68 352.70,60.68 ' style='stroke-width: 0.71; stroke: none; fill: #75CD56;' />
<polygon points='508.00,134.77 516.50,149.49 499.50,149.49 ' style='stroke-width: 0.71; stroke: none; fill: #44397C;' />
<polygon points='389.57,224.42 395.72,235.07 383.42,235.07 ' style='stroke-width: 0.71; stroke: none; fill: #45B278;' />
<polygon points='343.25,312.98 348.00,321.20 338.50,321.20 ' style='stroke-width: 0.71; stroke: none; fill: #9BD64A;' />
<polygon points='279.45,400.48 283.71,407.86 275.19,407.86 ' style='stroke-width: 0.71; stroke: none; fill: #BCDC41;' />
<polygon points='350.70,486.54 355.72,495.24 345.68,495.24 ' style='stroke-width: 0.71; stroke: none; fill: #84D34F;' />
<text x='118.57' y='53.89' text-anchor='middle' style='font-size: 8.54px; font-family: Arial;' textLength='11.85px' lengthAdjust='spacingAndGlyphs'>AU</text>
<text x='102.50' y='139.97' text-anchor='middle' style='font-size: 8.54px; font-family: Arial;' textLength='11.85px' lengthAdjust='spacingAndGlyphs'>AU</text>
<text x='124.79' y='242.41' text-anchor='middle' style='font-size: 8.54px; font-family: Arial;' textLength='11.85px' lengthAdjust='spacingAndGlyphs'>AU</text>
<line x1='289.66' y1='324.94' x2='295.34' y2='318.46' style='stroke-width: 1.07;' />
<text x='281.93' y='329.61' text-anchor='middle' style='font-size: 8.54px; font-family: Arial;' textLength='11.85px' lengthAdjust='spacingAndGlyphs'>AU</text>
<line x1='321.99' y1='398.69' x2='313.85' y2='405.40' style='stroke-width: 1.07;' />
<text x='329.72' y='400.65' text-anchor='middle' style='font-size: 8.54px; font-family: Arial;' textLength='11.85px' lengthAdjust='spacingAndGlyphs'>AU</text>
<text x='311.51' y='502.83' text-anchor='middle' style='font-size: 8.54px; font-family: Arial;' textLength='11.85px' lengthAdjust='spacingAndGlyphs'>AU</text>
<text x='295.83' y='69.42' text-anchor='middle' style='font-size: 8.54px; font-family: Arial;' textLength='11.85px' lengthAdjust='spacingAndGlyphs'>AU</text>
<line x1='282.58' y1='141.65' x2='298.05' y2='144.58' style='stroke-width: 1.07;' />
<text x='274.85' y='144.65' text-anchor='middle' style='font-size: 8.54px; font-family: Arial;' textLength='11.85px' lengthAdjust='spacingAndGlyphs'>AU</text>
<text x='330.01' y='241.85' text-anchor='middle' style='font-size: 8.54px; font-family: Arial;' textLength='11.85px' lengthAdjust='spacingAndGlyphs'>AU</text>
<text x='516.38' y='314.66' text-anchor='middle' style='font-size: 8.54px; font-family: Arial;' textLength='11.85px' lengthAdjust='spacingAndGlyphs'>AU</text>
<text x='494.71' y='416.00' text-anchor='middle' style='font-size: 8.54px; font-family: Arial;' textLength='11.85px' lengthAdjust='spacingAndGlyphs'>AU</text>
<text x='469.80' y='488.12' text-anchor='middle' style='font-size: 8.54px; font-family: Arial;' textLength='11.85px' lengthAdjust='spacingAndGlyphs'>AU</text>
<text x='277.22' y='60.69' text-anchor='middle' style='font-size: 8.54px; font-family: Arial;' textLength='8.06px' lengthAdjust='spacingAndGlyphs'>AI</text>
<line x1='318.88' y1='150.94' x2='310.87' y2='144.58' style='stroke-width: 1.07;' />
<text x='324.70' y='155.09' text-anchor='middle' style='font-size: 8.54px; font-family: Arial;' textLength='8.06px' lengthAdjust='spacingAndGlyphs'>AI</text>
<text x='225.72' y='234.59' text-anchor='middle' style='font-size: 8.54px; font-family: Arial;' textLength='8.06px' lengthAdjust='spacingAndGlyphs'>AI</text>
<text x='174.71' y='328.43' text-anchor='middle' style='font-size: 8.54px; font-family: Arial;' textLength='8.06px' lengthAdjust='spacingAndGlyphs'>AI</text>
<line x1='109.74' y1='412.53' x2='103.11' y2='405.40' style='stroke-width: 1.07;' />
<text x='115.57' y='417.01' text-anchor='middle' style='font-size: 8.54px; font-family: Arial;' textLength='8.06px' lengthAdjust='spacingAndGlyphs'>AI</text>
<text x='154.58' y='495.39' text-anchor='middle' style='font-size: 8.54px; font-family: Arial;' textLength='8.06px' lengthAdjust='spacingAndGlyphs'>AI</text>
<text x='437.34' y='68.75' text-anchor='middle' style='font-size: 8.54px; font-family: Arial;' textLength='8.06px' lengthAdjust='spacingAndGlyphs'>AI</text>
<text x='527.92' y='148.16' text-anchor='middle' style='font-size: 8.54px; font-family: Arial;' textLength='8.06px' lengthAdjust='spacingAndGlyphs'>AI</text>
<text x='366.57' y='234.58' text-anchor='middle' style='font-size: 8.54px; font-family: Arial;' textLength='8.06px' lengthAdjust='spacingAndGlyphs'>AI</text>
<text x='334.76' y='329.51' text-anchor='middle' style='font-size: 8.54px; font-family: Arial;' textLength='8.06px' lengthAdjust='spacingAndGlyphs'>AI</text>
<text x='301.35' y='400.95' text-anchor='middle' style='font-size: 8.54px; font-family: Arial;' textLength='8.06px' lengthAdjust='spacingAndGlyphs'>AI</text>
<line x1='275.22' y1='496.60' x2='290.23' y2='492.34' style='stroke-width: 1.07;' />
<text x='269.39' y='499.83' text-anchor='middle' style='font-size: 8.54px; font-family: Arial;' textLength='8.06px' lengthAdjust='spacingAndGlyphs'>AI</text>
<text x='313.19' y='53.97' text-anchor='middle' style='font-size: 8.54px; font-family: Arial;' textLength='12.33px' lengthAdjust='spacingAndGlyphs'>CU</text>
<text x='311.58' y='140.89' text-anchor='middle' style='font-size: 8.54px; font-family: Arial;' textLength='12.33px' lengthAdjust='spacingAndGlyphs'>CU</text>
<text x='305.54' y='234.62' text-anchor='middle' style='font-size: 8.54px; font-family: Arial;' textLength='12.33px' lengthAdjust='spacingAndGlyphs'>CU</text>
<text x='61.40' y='321.35' text-anchor='middle' style='font-size: 8.54px; font-family: Arial;' textLength='12.33px' lengthAdjust='spacingAndGlyphs'>CU</text>
<text x='94.53' y='401.69' text-anchor='middle' style='font-size: 8.54px; font-family: Arial;' textLength='12.33px' lengthAdjust='spacingAndGlyphs'>CU</text>
<text x='91.49' y='502.49' text-anchor='middle' style='font-size: 8.54px; font-family: Arial;' textLength='12.33px' lengthAdjust='spacingAndGlyphs'>CU</text>
<text x='514.30' y='67.81' text-anchor='middle' style='font-size: 8.54px; font-family: Arial;' textLength='12.33px' lengthAdjust='spacingAndGlyphs'>CU</text>
<text x='509.55' y='137.71' text-anchor='middle' style='font-size: 8.54px; font-family: Arial;' textLength='12.33px' lengthAdjust='spacingAndGlyphs'>CU</text>
<text x='490.46' y='234.60' text-anchor='middle' style='font-size: 8.54px; font-family: Arial;' textLength='12.33px' lengthAdjust='spacingAndGlyphs'>CU</text>
<line x1='308.96' y1='312.49' x2='299.10' y2='318.46' style='stroke-width: 1.07;' />
<text x='316.92' y='314.79' text-anchor='middle' style='font-size: 8.54px; font-family: Arial;' textLength='12.33px' lengthAdjust='spacingAndGlyphs'>CU</text>
<text x='289.46' y='416.32' text-anchor='middle' style='font-size: 8.54px; font-family: Arial;' textLength='12.33px' lengthAdjust='spacingAndGlyphs'>CU</text>
<text x='328.01' y='486.56' text-anchor='middle' style='font-size: 8.54px; font-family: Arial;' textLength='12.33px' lengthAdjust='spacingAndGlyphs'>CU</text>
<line x1='327.91' y1='58.29' x2='318.16' y2='57.64' style='stroke-width: 1.07;' />
<text x='333.97' y='61.35' text-anchor='middle' style='font-size: 8.54px; font-family: Arial;' textLength='8.53px' lengthAdjust='spacingAndGlyphs'>CI</text>
<text x='248.83' y='140.33' text-anchor='middle' style='font-size: 8.54px; font-family: Arial;' textLength='8.53px' lengthAdjust='spacingAndGlyphs'>CI</text>
<text x='253.75' y='234.57' text-anchor='middle' style='font-size: 8.54px; font-family: Arial;' textLength='8.53px' lengthAdjust='spacingAndGlyphs'>CI</text>
<text x='99.27' y='321.51' text-anchor='middle' style='font-size: 8.54px; font-family: Arial;' textLength='8.53px' lengthAdjust='spacingAndGlyphs'>CI</text>
<text x='75.77' y='408.56' text-anchor='middle' style='font-size: 8.54px; font-family: Arial;' textLength='8.53px' lengthAdjust='spacingAndGlyphs'>CI</text>
<text x='127.65' y='495.41' text-anchor='middle' style='font-size: 8.54px; font-family: Arial;' textLength='8.53px' lengthAdjust='spacingAndGlyphs'>CI</text>
<text x='554.26' y='53.58' text-anchor='middle' style='font-size: 8.54px; font-family: Arial;' textLength='8.53px' lengthAdjust='spacingAndGlyphs'>CI</text>
<text x='427.51' y='154.50' text-anchor='middle' style='font-size: 8.54px; font-family: Arial;' textLength='8.53px' lengthAdjust='spacingAndGlyphs'>CI</text>
<text x='441.36' y='234.59' text-anchor='middle' style='font-size: 8.54px; font-family: Arial;' textLength='8.53px' lengthAdjust='spacingAndGlyphs'>CI</text>
<line x1='270.61' y1='313.65' x2='290.81' y2='318.46' style='stroke-width: 1.07;' />
<text x='264.55' y='316.57' text-anchor='middle' style='font-size: 8.54px; font-family: Arial;' textLength='8.53px' lengthAdjust='spacingAndGlyphs'>CI</text>
<text x='316.36' y='415.75' text-anchor='middle' style='font-size: 8.54px; font-family: Arial;' textLength='8.53px' lengthAdjust='spacingAndGlyphs'>CI</text>
<text x='344.60' y='503.80' text-anchor='middle' style='font-size: 8.54px; font-family: Arial;' textLength='8.53px' lengthAdjust='spacingAndGlyphs'>CI</text>
<text x='248.70' y='67.56' text-anchor='middle' style='font-size: 8.54px; font-family: Arial;' textLength='11.85px' lengthAdjust='spacingAndGlyphs'>EU</text>
<line x1='334.98' y1='141.42' x2='326.18' y2='144.58' style='stroke-width: 1.07;' />
<text x='342.70' y='144.26' text-anchor='middle' style='font-size: 8.54px; font-family: Arial;' textLength='11.85px' lengthAdjust='spacingAndGlyphs'>EU</text>
<text x='284.05' y='234.73' text-anchor='middle' style='font-size: 8.54px; font-family: Arial;' textLength='11.85px' lengthAdjust='spacingAndGlyphs'>EU</text>
<text x='80.71' y='328.29' text-anchor='middle' style='font-size: 8.54px; font-family: Arial;' textLength='11.85px' lengthAdjust='spacingAndGlyphs'>EU</text>
<line x1='125.57' y1='400.79' x2='111.70' y2='405.40' style='stroke-width: 1.07;' />
<text x='133.29' y='403.58' text-anchor='middle' style='font-size: 8.54px; font-family: Arial;' textLength='11.85px' lengthAdjust='spacingAndGlyphs'>EU</text>
<text x='73.49' y='487.56' text-anchor='middle' style='font-size: 8.54px; font-family: Arial;' textLength='11.85px' lengthAdjust='spacingAndGlyphs'>EU</text>
<text x='481.55' y='53.66' text-anchor='middle' style='font-size: 8.54px; font-family: Arial;' textLength='11.85px' lengthAdjust='spacingAndGlyphs'>EU</text>
<text x='549.05' y='147.54' text-anchor='middle' style='font-size: 8.54px; font-family: Arial;' textLength='11.85px' lengthAdjust='spacingAndGlyphs'>EU</text>
<text x='464.20' y='234.57' text-anchor='middle' style='font-size: 8.54px; font-family: Arial;' textLength='11.85px' lengthAdjust='spacingAndGlyphs'>EU</text>
<text x='305.27' y='328.80' text-anchor='middle' style='font-size: 8.54px; font-family: Arial;' textLength='11.85px' lengthAdjust='spacingAndGlyphs'>EU</text>
<text x='352.47' y='409.23' text-anchor='middle' style='font-size: 8.54px; font-family: Arial;' textLength='11.85px' lengthAdjust='spacingAndGlyphs'>EU</text>
<text x='286.59' y='486.45' text-anchor='middle' style='font-size: 8.54px; font-family: Arial;' textLength='11.85px' lengthAdjust='spacingAndGlyphs'>EU</text>
<text x='149.74' y='68.40' text-anchor='middle' style='font-size: 8.54px; font-family: Arial;' textLength='8.06px' lengthAdjust='spacingAndGlyphs'>EI</text>
<text x='292.81' y='157.78' text-anchor='middle' style='font-size: 8.54px; font-family: Arial;' textLength='8.06px' lengthAdjust='spacingAndGlyphs'>EI</text>
<text x='197.58' y='234.55' text-anchor='middle' style='font-size: 8.54px; font-family: Arial;' textLength='8.06px' lengthAdjust='spacingAndGlyphs'>EI</text>
<text x='154.08' y='314.53' text-anchor='middle' style='font-size: 8.54px; font-family: Arial;' textLength='8.06px' lengthAdjust='spacingAndGlyphs'>EI</text>
<text x='57.96' y='408.40' text-anchor='middle' style='font-size: 8.54px; font-family: Arial;' textLength='8.06px' lengthAdjust='spacingAndGlyphs'>EI</text>
<text x='185.56' y='488.12' text-anchor='middle' style='font-size: 8.54px; font-family: Arial;' textLength='8.06px' lengthAdjust='spacingAndGlyphs'>EI</text>
<text x='364.52' y='53.99' text-anchor='middle' style='font-size: 8.54px; font-family: Arial;' textLength='8.06px' lengthAdjust='spacingAndGlyphs'>EI</text>
<line x1='498.05' y1='148.42' x2='508.00' y2='144.58' style='stroke-width: 1.07;' />
<text x='492.22' y='151.78' text-anchor='middle' style='font-size: 8.54px; font-family: Arial;' textLength='8.06px' lengthAdjust='spacingAndGlyphs'>EI</text>
<text x='396.65' y='226.55' text-anchor='middle' style='font-size: 8.54px; font-family: Arial;' textLength='8.06px' lengthAdjust='spacingAndGlyphs'>EI</text>
<text x='353.47' y='320.33' text-anchor='middle' style='font-size: 8.54px; font-family: Arial;' textLength='8.06px' lengthAdjust='spacingAndGlyphs'>EI</text>
<text x='266.69' y='407.86' text-anchor='middle' style='font-size: 8.54px; font-family: Arial;' textLength='8.06px' lengthAdjust='spacingAndGlyphs'>EI</text>
<line x1='358.62' y1='492.16' x2='350.70' y2='492.34' style='stroke-width: 1.07;' />
<text x='364.45' y='495.21' text-anchor='middle' style='font-size: 8.54px; font-family: Arial;' textLength='8.06px' lengthAdjust='spacingAndGlyphs'>EI</text>
</g>
<g clip-path='url(#cpMC4wMHw1NzYuMDB8MC4wMHw1NzYuMDA=)'>
<text x='37.50' y='495.49' text-anchor='end' style='font-size: 8.80px; fill: #4D4D4D; font-family: Arial;' textLength='19.09px' lengthAdjust='spacingAndGlyphs'>pbc3</text>
<text x='37.50' y='408.55' text-anchor='end' style='font-size: 8.80px; fill: #4D4D4D; font-family: Arial;' textLength='19.09px' lengthAdjust='spacingAndGlyphs'>pbc2</text>
<text x='37.50' y='321.61' text-anchor='end' style='font-size: 8.80px; fill: #4D4D4D; font-family: Arial;' textLength='19.09px' lengthAdjust='spacingAndGlyphs'>pbc1</text>
<text x='37.50' y='234.67' text-anchor='end' style='font-size: 8.80px; fill: #4D4D4D; font-family: Arial;' textLength='19.09px' lengthAdjust='spacingAndGlyphs'>intn3</text>
<text x='37.50' y='147.73' text-anchor='end' style='font-size: 8.80px; fill: #4D4D4D; font-family: Arial;' textLength='19.09px' lengthAdjust='spacingAndGlyphs'>intn2</text>
<text x='37.50' y='60.79' text-anchor='end' style='font-size: 8.80px; fill: #4D4D4D; font-family: Arial;' textLength='19.09px' lengthAdjust='spacingAndGlyphs'>intn1</text>
<text x='68.45' y='555.74' text-anchor='middle' style='font-size: 8.80px; fill: #4D4D4D; font-family: Arial;' textLength='15.17px' lengthAdjust='spacingAndGlyphs'>-1.0</text>
<text x='186.93' y='555.74' text-anchor='middle' style='font-size: 8.80px; fill: #4D4D4D; font-family: Arial;' textLength='15.17px' lengthAdjust='spacingAndGlyphs'>-0.5</text>
<text x='305.40' y='555.74' text-anchor='middle' style='font-size: 8.80px; fill: #4D4D4D; font-family: Arial;' textLength='12.24px' lengthAdjust='spacingAndGlyphs'>0.0</text>
<text x='423.88' y='555.74' text-anchor='middle' style='font-size: 8.80px; fill: #4D4D4D; font-family: Arial;' textLength='12.24px' lengthAdjust='spacingAndGlyphs'>0.5</text>
<text x='542.35' y='555.74' text-anchor='middle' style='font-size: 8.80px; fill: #4D4D4D; font-family: Arial;' textLength='12.24px' lengthAdjust='spacingAndGlyphs'>1.0</text>
<text x='306.48' y='568.20' text-anchor='middle' style='font-size: 11.00px; font-family: Arial;' textLength='66.69px' lengthAdjust='spacingAndGlyphs'>factorLoading</text>
<text transform='translate(13.36,274.99) rotate(-90)' text-anchor='middle' style='font-size: 11.00px; font-family: Arial;' textLength='20.79px' lengthAdjust='spacingAndGlyphs'>item</text>
</g>
</svg>
