<?xml version='1.0' encoding='UTF-8' ?>
<svg xmlns='http://www.w3.org/2000/svg' xmlns:xlink='http://www.w3.org/1999/xlink' class='svglite' width='576.00pt' height='576.00pt' viewBox='0 0 576.00 576.00'>
<defs>
  <style type='text/css'><![CDATA[
    .svglite line, .svglite polyline, .svglite polygon, .svglite path, .svglite rect, .svglite circle {
      fill: none;
      stroke: #000000;
      stroke-linecap: round;
      stroke-linejoin: round;
      stroke-miterlimit: 10.00;
    }
  ]]></style>
</defs>
<rect width='100%' height='100%' style='stroke: none; fill: none;'/>
<defs>
  <clipPath id='cpMC4wMHw1NzYuMDB8MC4wMHw1NzYuMDA='>
    <rect x='0.00' y='0.00' width='576.00' height='576.00' />
  </clipPath>
</defs>
<g clip-path='url(#cpMC4wMHw1NzYuMDB8MC4wMHw1NzYuMDA=)'>
</g>
<defs>
  <clipPath id='cpMTguNDF8NTcwLjUyfDUuNDh8NTQ0LjUw'>
    <rect x='18.41' y='5.48' width='552.11' height='539.02' />
  </clipPath>
</defs>
<g clip-path='url(#cpMTguNDF8NTcwLjUyfDUuNDh8NTQ0LjUw)'>
<polyline points='87.43,544.50 87.43,5.48 ' style='stroke-width: 0.53; stroke: #EBEBEB; stroke-linecap: butt;' />
<polyline points='225.45,544.50 225.45,5.48 ' style='stroke-width: 0.53; stroke: #EBEBEB; stroke-linecap: butt;' />
<polyline points='363.48,544.50 363.48,5.48 ' style='stroke-width: 0.53; stroke: #EBEBEB; stroke-linecap: butt;' />
<polyline points='501.51,544.50 501.51,5.48 ' style='stroke-width: 0.53; stroke: #EBEBEB; stroke-linecap: butt;' />
<polyline points='18.41,544.50 18.41,5.48 ' style='stroke-width: 1.07; stroke: #EBEBEB; stroke-linecap: butt;' />
<polyline points='156.44,544.50 156.44,5.48 ' style='stroke-width: 1.07; stroke: #EBEBEB; stroke-linecap: butt;' />
<polyline points='294.47,544.50 294.47,5.48 ' style='stroke-width: 1.07; stroke: #EBEBEB; stroke-linecap: butt;' />
<polyline points='432.49,544.50 432.49,5.48 ' style='stroke-width: 1.07; stroke: #EBEBEB; stroke-linecap: butt;' />
<polyline points='570.52,544.50 570.52,5.48 ' style='stroke-width: 1.07; stroke: #EBEBEB; stroke-linecap: butt;' />
<line x1='294.47' y1='544.50' x2='294.47' y2='5.48' style='stroke-width: 1.07; stroke-linecap: butt;' />
</g>
<g clip-path='url(#cpMC4wMHw1NzYuMDB8MC4wMHw1NzYuMDA=)'>
<text x='18.41' y='555.74' text-anchor='middle' style='font-size: 8.80px; fill: #4D4D4D; font-family: Arial;' textLength='24.96px' lengthAdjust='spacingAndGlyphs'>-0.050</text>
<text x='156.44' y='555.74' text-anchor='middle' style='font-size: 8.80px; fill: #4D4D4D; font-family: Arial;' textLength='24.96px' lengthAdjust='spacingAndGlyphs'>-0.025</text>
<text x='294.47' y='555.74' text-anchor='middle' style='font-size: 8.80px; fill: #4D4D4D; font-family: Arial;' textLength='22.03px' lengthAdjust='spacingAndGlyphs'>0.000</text>
<text x='432.49' y='555.74' text-anchor='middle' style='font-size: 8.80px; fill: #4D4D4D; font-family: Arial;' textLength='22.03px' lengthAdjust='spacingAndGlyphs'>0.025</text>
<text x='570.52' y='555.74' text-anchor='middle' style='font-size: 8.80px; fill: #4D4D4D; font-family: Arial;' textLength='22.03px' lengthAdjust='spacingAndGlyphs'>0.050</text>
<text x='294.47' y='568.20' text-anchor='middle' style='font-size: 11.00px; font-family: Arial;' textLength='66.69px' lengthAdjust='spacingAndGlyphs'>factorLoading</text>
<text transform='translate(13.36,274.99) rotate(-90)' text-anchor='middle' style='font-size: 11.00px; font-family: Arial;' textLength='20.79px' lengthAdjust='spacingAndGlyphs'>item</text>
</g>
</svg>
