<?xml version='1.0' encoding='UTF-8' ?>
<svg xmlns='http://www.w3.org/2000/svg' xmlns:xlink='http://www.w3.org/1999/xlink' class='svglite' width='576.00pt' height='576.00pt' viewBox='0 0 576.00 576.00'>
<defs>
  <style type='text/css'><![CDATA[
    .svglite line, .svglite polyline, .svglite polygon, .svglite path, .svglite rect, .svglite circle {
      fill: none;
      stroke: #000000;
      stroke-linecap: round;
      stroke-linejoin: round;
      stroke-miterlimit: 10.00;
    }
  ]]></style>
</defs>
<rect width='100%' height='100%' style='stroke: none; fill: none;'/>
<defs>
  <clipPath id='cpMC4wMHw1NzYuMDB8MC4wMHw1NzYuMDA='>
    <rect x='0.00' y='0.00' width='576.00' height='576.00' />
  </clipPath>
</defs>
<g clip-path='url(#cpMC4wMHw1NzYuMDB8MC4wMHw1NzYuMDA=)'>
</g>
<defs>
  <clipPath id='cpNDUuODV8NTcwLjUyfDUuNDh8NTQ0LjUw'>
    <rect x='45.85' y='5.48' width='524.67' height='539.02' />
  </clipPath>
</defs>
<g clip-path='url(#cpNDUuODV8NTcwLjUyfDUuNDh8NTQ0LjUw)'>
<polyline points='134.27,544.50 134.27,5.48 ' style='stroke-width: 0.53; stroke: #EBEBEB; stroke-linecap: butt;' />
<polyline points='252.15,544.50 252.15,5.48 ' style='stroke-width: 0.53; stroke: #EBEBEB; stroke-linecap: butt;' />
<polyline points='370.04,544.50 370.04,5.48 ' style='stroke-width: 0.53; stroke: #EBEBEB; stroke-linecap: butt;' />
<polyline points='487.93,544.50 487.93,5.48 ' style='stroke-width: 0.53; stroke: #EBEBEB; stroke-linecap: butt;' />
<polyline points='45.85,482.31 570.52,482.31 ' style='stroke-width: 1.07; stroke: #EBEBEB; stroke-linecap: butt;' />
<polyline points='45.85,378.65 570.52,378.65 ' style='stroke-width: 1.07; stroke: #EBEBEB; stroke-linecap: butt;' />
<polyline points='45.85,274.99 570.52,274.99 ' style='stroke-width: 1.07; stroke: #EBEBEB; stroke-linecap: butt;' />
<polyline points='45.85,171.33 570.52,171.33 ' style='stroke-width: 1.07; stroke: #EBEBEB; stroke-linecap: butt;' />
<polyline points='45.85,67.67 570.52,67.67 ' style='stroke-width: 1.07; stroke: #EBEBEB; stroke-linecap: butt;' />
<polyline points='75.32,544.50 75.32,5.48 ' style='stroke-width: 1.07; stroke: #EBEBEB; stroke-linecap: butt;' />
<polyline points='193.21,544.50 193.21,5.48 ' style='stroke-width: 1.07; stroke: #EBEBEB; stroke-linecap: butt;' />
<polyline points='311.10,544.50 311.10,5.48 ' style='stroke-width: 1.07; stroke: #EBEBEB; stroke-linecap: butt;' />
<polyline points='428.98,544.50 428.98,5.48 ' style='stroke-width: 1.07; stroke: #EBEBEB; stroke-linecap: butt;' />
<polyline points='546.87,544.50 546.87,5.48 ' style='stroke-width: 1.07; stroke: #EBEBEB; stroke-linecap: butt;' />
<line x1='311.10' y1='544.50' x2='311.10' y2='5.48' style='stroke-width: 1.07; stroke-linecap: butt;' />
<circle cx='192.37' cy='274.99' r='5.16' style='stroke-width: 0.71; stroke: none; fill: #2B9289;' />
<circle cx='310.88' cy='378.65' r='1.49' style='stroke-width: 0.71; stroke: none; fill: #FDE725;' />
<circle cx='101.63' cy='482.31' r='6.39' style='stroke-width: 0.71; stroke: none; fill: #453175;' />
<circle cx='115.98' cy='67.67' r='6.22' style='stroke-width: 0.71; stroke: none; fill: #424285;' />
<circle cx='161.89' cy='171.33' r='5.61' style='stroke-width: 0.71; stroke: none; fill: #2E738D;' />
<polygon points='366.62,268.81 371.97,278.08 361.26,278.08 ' style='stroke-width: 0.71; stroke: none; fill: #71CB5A;' />
<polygon points='546.20,368.25 555.21,383.85 537.20,383.85 ' style='stroke-width: 0.71; stroke: none; fill: #450E5A;' />
<polygon points='301.90,478.49 305.20,484.22 298.59,484.22 ' style='stroke-width: 0.71; stroke: none; fill: #E7E331;' />
<polygon points='306.42,64.33 309.32,69.35 303.53,69.35 ' style='stroke-width: 0.71; stroke: none; fill: #F2E52B;' />
<polygon points='326.08,167.07 329.77,173.47 322.39,173.47 ' style='stroke-width: 0.71; stroke: none; fill: #D8E137;' />
<circle cx='310.78' cy='274.99' r='1.55' style='stroke-width: 0.71; stroke: none; fill: #FDE725;' />
<circle cx='236.66' cy='378.65' r='4.38' style='stroke-width: 0.71; stroke: none; fill: #57BB6F;' />
<circle cx='193.21' cy='482.31' r='5.15' style='stroke-width: 0.71; stroke: none; fill: #2B9389;' />
<circle cx='89.42' cy='67.67' r='6.53' style='stroke-width: 0.71; stroke: none; fill: #462268;' />
<circle cx='166.82' cy='171.33' r='5.54' style='stroke-width: 0.71; stroke: none; fill: #2A798E;' />
<polygon points='509.84,265.25 518.28,279.86 501.41,279.86 ' style='stroke-width: 0.71; stroke: none; fill: #433E81;' />
<polygon points='351.93,373.03 356.80,381.46 347.07,381.46 ' style='stroke-width: 0.71; stroke: none; fill: #92D54C;' />
<polygon points='365.95,476.15 371.28,485.39 360.61,485.39 ' style='stroke-width: 0.71; stroke: none; fill: #72CB59;' />
<polygon points='310.92,65.46 312.83,68.78 309.00,68.78 ' style='stroke-width: 0.71; stroke: none; fill: #FDE725;' />
<polygon points='284.29,166.37 288.59,173.82 279.99,173.82 ' style='stroke-width: 0.71; stroke: none; fill: #BADC42;' />
<circle cx='177.00' cy='274.99' r='5.40' style='stroke-width: 0.71; stroke: none; fill: #2B838C;' />
<circle cx='311.74' cy='378.65' r='1.65' style='stroke-width: 0.71; stroke: none; fill: #FCE726;' />
<circle cx='69.70' cy='482.31' r='6.76' style='stroke-width: 0.71; stroke: none; fill: #440154;' />
<circle cx='104.13' cy='67.67' r='6.36' style='stroke-width: 0.71; stroke: none; fill: #453478;' />
<circle cx='101.19' cy='171.33' r='6.40' style='stroke-width: 0.71; stroke: none; fill: #453175;' />
<polygon points='399.78,267.76 406.05,278.61 393.51,278.61 ' style='stroke-width: 0.71; stroke: none; fill: #3BAF7D;' />
<polygon points='546.67,368.24 555.68,383.85 537.66,383.85 ' style='stroke-width: 0.71; stroke: none; fill: #450D5A;' />
<polygon points='294.21,477.91 298.01,484.51 290.40,484.51 ' style='stroke-width: 0.71; stroke: none; fill: #D3E039;' />
<polygon points='307.38,64.46 310.16,69.28 304.59,69.28 ' style='stroke-width: 0.71; stroke: none; fill: #F4E62A;' />
<polygon points='326.38,167.05 330.09,173.48 322.67,173.48 ' style='stroke-width: 0.71; stroke: none; fill: #D8E137;' />
<circle cx='280.34' cy='274.99' r='3.32' style='stroke-width: 0.71; stroke: none; fill: #AFDA45;' />
<circle cx='322.36' cy='378.65' r='2.56' style='stroke-width: 0.71; stroke: none; fill: #E2E333;' />
<circle cx='116.40' cy='482.31' r='6.21' style='stroke-width: 0.71; stroke: none; fill: #424285;' />
<circle cx='77.12' cy='67.67' r='6.67' style='stroke-width: 0.71; stroke: none; fill: #45105C;' />
<circle cx='153.71' cy='171.33' r='5.73' style='stroke-width: 0.71; stroke: none; fill: #356B8C;' />
<polygon points='490.21,265.64 498.31,279.67 482.10,279.67 ' style='stroke-width: 0.71; stroke: none; fill: #3E5389;' />
<polygon points='527.89,368.58 536.61,383.69 519.17,383.69 ' style='stroke-width: 0.71; stroke: none; fill: #46296D;' />
<polygon points='327.22,477.97 330.99,484.48 323.46,484.48 ' style='stroke-width: 0.71; stroke: none; fill: #D5E038;' />
<polygon points='293.24,63.22 297.10,69.90 289.38,69.90 ' style='stroke-width: 0.71; stroke: none; fill: #D1E03A;' />
<polygon points='357.86,165.48 362.93,174.26 352.79,174.26 ' style='stroke-width: 0.71; stroke: none; fill: #80D250;' />
<circle cx='295.55' cy='274.99' r='2.77' style='stroke-width: 0.71; stroke: none; fill: #D7E138;' />
<circle cx='313.82' cy='378.65' r='1.97' style='stroke-width: 0.71; stroke: none; fill: #F7E629;' />
<circle cx='137.39' cy='482.31' r='5.95' style='stroke-width: 0.71; stroke: none; fill: #3D598A;' />
<circle cx='74.07' cy='67.67' r='6.71' style='stroke-width: 0.71; stroke: none; fill: #450A58;' />
<circle cx='105.64' cy='171.33' r='6.34' style='stroke-width: 0.71; stroke: none; fill: #44367A;' />
<polygon points='523.92,264.99 532.59,279.99 515.26,279.99 ' style='stroke-width: 0.71; stroke: none; fill: #452D72;' />
<polygon points='539.07,368.38 547.97,383.79 530.17,383.79 ' style='stroke-width: 0.71; stroke: none; fill: #461A62;' />
<polygon points='367.50,476.09 372.88,485.42 362.12,485.42 ' style='stroke-width: 0.71; stroke: none; fill: #70CA5B;' />
<polygon points='282.12,62.60 286.52,70.21 277.73,70.21 ' style='stroke-width: 0.71; stroke: none; fill: #B4DB43;' />
<polygon points='338.36,166.34 342.68,173.83 334.04,173.83 ' style='stroke-width: 0.71; stroke: none; fill: #B8DB42;' />
<circle cx='221.51' cy='274.99' r='4.67' style='stroke-width: 0.71; stroke: none; fill: #39AE7E;' />
<circle cx='310.44' cy='378.65' r='1.66' style='stroke-width: 0.71; stroke: none; fill: #FCE726;' />
<circle cx='110.52' cy='482.31' r='6.28' style='stroke-width: 0.71; stroke: none; fill: #433C7F;' />
<circle cx='128.23' cy='67.67' r='6.06' style='stroke-width: 0.71; stroke: none; fill: #3F4F89;' />
<circle cx='139.65' cy='171.33' r='5.92' style='stroke-width: 0.71; stroke: none; fill: #3C5C8A;' />
<polygon points='397.46,267.82 403.67,278.58 391.25,278.58 ' style='stroke-width: 0.71; stroke: none; fill: #40B17B;' />
<polygon points='546.31,368.25 555.32,383.85 537.31,383.85 ' style='stroke-width: 0.71; stroke: none; fill: #450E5A;' />
<polygon points='295.94,478.03 299.65,484.45 292.24,484.45 ' style='stroke-width: 0.71; stroke: none; fill: #D8E137;' />
<polygon points='345.27,62.35 349.88,70.34 340.66,70.34 ' style='stroke-width: 0.71; stroke: none; fill: #A5D847;' />
<polygon points='295.91,167.05 299.61,173.47 292.20,173.47 ' style='stroke-width: 0.71; stroke: none; fill: #D8E137;' />
<text x='202.13' y='278.03' text-anchor='middle' style='font-size: 8.54px; font-family: Arial;' textLength='11.85px' lengthAdjust='spacingAndGlyphs'>AU</text>
<text x='304.23' y='373.57' text-anchor='middle' style='font-size: 8.54px; font-family: Arial;' textLength='11.85px' lengthAdjust='spacingAndGlyphs'>AU</text>
<text x='91.54' y='485.37' text-anchor='middle' style='font-size: 8.54px; font-family: Arial;' textLength='11.85px' lengthAdjust='spacingAndGlyphs'>AU</text>
<line x1='126.53' y1='60.92' x2='115.98' y2='67.67' style='stroke-width: 1.07;' />
<text x='134.26' y='63.23' text-anchor='middle' style='font-size: 8.54px; font-family: Arial;' textLength='11.85px' lengthAdjust='spacingAndGlyphs'>AU</text>
<text x='171.65' y='183.39' text-anchor='middle' style='font-size: 8.54px; font-family: Arial;' textLength='11.85px' lengthAdjust='spacingAndGlyphs'>AU</text>
<text x='360.63' y='284.88' text-anchor='middle' style='font-size: 8.54px; font-family: Arial;' textLength='11.85px' lengthAdjust='spacingAndGlyphs'>AU</text>
<line x1='551.86' y1='383.65' x2='546.20' y2='378.65' style='stroke-width: 1.07;' />
<text x='559.59' y='388.19' text-anchor='middle' style='font-size: 8.54px; font-family: Arial;' textLength='11.85px' lengthAdjust='spacingAndGlyphs'>AU</text>
<line x1='309.26' y1='476.60' x2='301.90' y2='482.31' style='stroke-width: 1.07;' />
<text x='316.98' y='478.52' text-anchor='middle' style='font-size: 8.54px; font-family: Arial;' textLength='11.85px' lengthAdjust='spacingAndGlyphs'>AU</text>
<text x='298.25' y='62.11' text-anchor='middle' style='font-size: 8.54px; font-family: Arial;' textLength='11.85px' lengthAdjust='spacingAndGlyphs'>AU</text>
<line x1='316.27' y1='172.71' x2='326.08' y2='171.33' style='stroke-width: 1.07;' />
<text x='308.55' y='175.78' text-anchor='middle' style='font-size: 8.54px; font-family: Arial;' textLength='11.85px' lengthAdjust='spacingAndGlyphs'>AU</text>
<text x='320.32' y='278.95' text-anchor='middle' style='font-size: 8.54px; font-family: Arial;' textLength='8.06px' lengthAdjust='spacingAndGlyphs'>AI</text>
<text x='229.76' y='388.80' text-anchor='middle' style='font-size: 8.54px; font-family: Arial;' textLength='8.06px' lengthAdjust='spacingAndGlyphs'>AI</text>
<text x='186.58' y='492.93' text-anchor='middle' style='font-size: 8.54px; font-family: Arial;' textLength='8.06px' lengthAdjust='spacingAndGlyphs'>AI</text>
<text x='97.15' y='62.64' text-anchor='middle' style='font-size: 8.54px; font-family: Arial;' textLength='8.06px' lengthAdjust='spacingAndGlyphs'>AI</text>
<line x1='183.57' y1='167.91' x2='166.82' y2='171.33' style='stroke-width: 1.07;' />
<text x='189.40' y='170.89' text-anchor='middle' style='font-size: 8.54px; font-family: Arial;' textLength='8.06px' lengthAdjust='spacingAndGlyphs'>AI</text>
<text x='501.67' y='278.05' text-anchor='middle' style='font-size: 8.54px; font-family: Arial;' textLength='8.06px' lengthAdjust='spacingAndGlyphs'>AI</text>
<text x='360.82' y='381.66' text-anchor='middle' style='font-size: 8.54px; font-family: Arial;' textLength='8.06px' lengthAdjust='spacingAndGlyphs'>AI</text>
<text x='357.47' y='485.36' text-anchor='middle' style='font-size: 8.54px; font-family: Arial;' textLength='8.06px' lengthAdjust='spacingAndGlyphs'>AI</text>
<line x1='324.45' y1='63.84' x2='310.92' y2='67.67' style='stroke-width: 1.07;' />
<text x='330.28' y='66.74' text-anchor='middle' style='font-size: 8.54px; font-family: Arial;' textLength='8.06px' lengthAdjust='spacingAndGlyphs'>AI</text>
<text x='275.04' y='174.43' text-anchor='middle' style='font-size: 8.54px; font-family: Arial;' textLength='8.06px' lengthAdjust='spacingAndGlyphs'>AI</text>
<text x='167.04' y='278.03' text-anchor='middle' style='font-size: 8.54px; font-family: Arial;' textLength='12.33px' lengthAdjust='spacingAndGlyphs'>CU</text>
<line x1='308.85' y1='385.64' x2='311.74' y2='378.65' style='stroke-width: 1.07;' />
<text x='300.88' y='390.91' text-anchor='middle' style='font-size: 8.54px; font-family: Arial;' textLength='12.33px' lengthAdjust='spacingAndGlyphs'>CU</text>
<text x='63.43' y='492.53' text-anchor='middle' style='font-size: 8.54px; font-family: Arial;' textLength='12.33px' lengthAdjust='spacingAndGlyphs'>CU</text>
<text x='110.39' y='79.90' text-anchor='middle' style='font-size: 8.54px; font-family: Arial;' textLength='12.33px' lengthAdjust='spacingAndGlyphs'>CU</text>
<text x='90.75' y='174.39' text-anchor='middle' style='font-size: 8.54px; font-family: Arial;' textLength='12.33px' lengthAdjust='spacingAndGlyphs'>CU</text>
<text x='410.48' y='278.03' text-anchor='middle' style='font-size: 8.54px; font-family: Arial;' textLength='12.33px' lengthAdjust='spacingAndGlyphs'>CU</text>
<text x='553.78' y='372.79' text-anchor='middle' style='font-size: 8.54px; font-family: Arial;' textLength='12.33px' lengthAdjust='spacingAndGlyphs'>CU</text>
<text x='281.57' y='485.36' text-anchor='middle' style='font-size: 8.54px; font-family: Arial;' textLength='12.33px' lengthAdjust='spacingAndGlyphs'>CU</text>
<text x='313.62' y='80.20' text-anchor='middle' style='font-size: 8.54px; font-family: Arial;' textLength='12.33px' lengthAdjust='spacingAndGlyphs'>CU</text>
<text x='328.29' y='166.49' text-anchor='middle' style='font-size: 8.54px; font-family: Arial;' textLength='12.33px' lengthAdjust='spacingAndGlyphs'>CU</text>
<text x='272.00' y='278.05' text-anchor='middle' style='font-size: 8.54px; font-family: Arial;' textLength='8.53px' lengthAdjust='spacingAndGlyphs'>CI</text>
<line x1='335.94' y1='380.04' x2='322.36' y2='378.65' style='stroke-width: 1.07;' />
<text x='342.00' y='383.11' text-anchor='middle' style='font-size: 8.54px; font-family: Arial;' textLength='8.53px' lengthAdjust='spacingAndGlyphs'>CI</text>
<text x='126.17' y='486.78' text-anchor='middle' style='font-size: 8.54px; font-family: Arial;' textLength='8.53px' lengthAdjust='spacingAndGlyphs'>CI</text>
<text x='75.08' y='80.48' text-anchor='middle' style='font-size: 8.54px; font-family: Arial;' textLength='8.53px' lengthAdjust='spacingAndGlyphs'>CI</text>
<text x='148.47' y='167.21' text-anchor='middle' style='font-size: 8.54px; font-family: Arial;' textLength='8.53px' lengthAdjust='spacingAndGlyphs'>CI</text>
<text x='482.17' y='278.03' text-anchor='middle' style='font-size: 8.54px; font-family: Arial;' textLength='8.53px' lengthAdjust='spacingAndGlyphs'>CI</text>
<line x1='512.12' y1='375.42' x2='527.89' y2='378.65' style='stroke-width: 1.07;' />
<text x='506.06' y='378.42' text-anchor='middle' style='font-size: 8.54px; font-family: Arial;' textLength='8.53px' lengthAdjust='spacingAndGlyphs'>CI</text>
<text x='337.44' y='485.50' text-anchor='middle' style='font-size: 8.54px; font-family: Arial;' textLength='8.53px' lengthAdjust='spacingAndGlyphs'>CI</text>
<text x='286.23' y='78.96' text-anchor='middle' style='font-size: 8.54px; font-family: Arial;' textLength='8.53px' lengthAdjust='spacingAndGlyphs'>CI</text>
<text x='367.13' y='174.39' text-anchor='middle' style='font-size: 8.54px; font-family: Arial;' textLength='8.53px' lengthAdjust='spacingAndGlyphs'>CI</text>
<text x='301.80' y='268.77' text-anchor='middle' style='font-size: 8.54px; font-family: Arial;' textLength='11.85px' lengthAdjust='spacingAndGlyphs'>EU</text>
<text x='324.23' y='373.15' text-anchor='middle' style='font-size: 8.54px; font-family: Arial;' textLength='11.85px' lengthAdjust='spacingAndGlyphs'>EU</text>
<text x='147.85' y='485.32' text-anchor='middle' style='font-size: 8.54px; font-family: Arial;' textLength='11.85px' lengthAdjust='spacingAndGlyphs'>EU</text>
<line x1='64.85' y1='63.96' x2='74.07' y2='67.67' style='stroke-width: 1.07;' />
<text x='57.13' y='66.69' text-anchor='middle' style='font-size: 8.54px; font-family: Arial;' textLength='11.85px' lengthAdjust='spacingAndGlyphs'>EU</text>
<text x='115.49' y='170.69' text-anchor='middle' style='font-size: 8.54px; font-family: Arial;' textLength='11.85px' lengthAdjust='spacingAndGlyphs'>EU</text>
<text x='533.82' y='278.01' text-anchor='middle' style='font-size: 8.54px; font-family: Arial;' textLength='11.85px' lengthAdjust='spacingAndGlyphs'>EU</text>
<line x1='531.33' y1='385.26' x2='539.07' y2='378.65' style='stroke-width: 1.07;' />
<text x='523.60' y='389.47' text-anchor='middle' style='font-size: 8.54px; font-family: Arial;' textLength='11.85px' lengthAdjust='spacingAndGlyphs'>EU</text>
<text x='377.80' y='485.38' text-anchor='middle' style='font-size: 8.54px; font-family: Arial;' textLength='11.85px' lengthAdjust='spacingAndGlyphs'>EU</text>
<text x='267.88' y='70.06' text-anchor='middle' style='font-size: 8.54px; font-family: Arial;' textLength='11.85px' lengthAdjust='spacingAndGlyphs'>EU</text>
<text x='347.88' y='180.30' text-anchor='middle' style='font-size: 8.54px; font-family: Arial;' textLength='11.85px' lengthAdjust='spacingAndGlyphs'>EU</text>
<text x='229.36' y='270.79' text-anchor='middle' style='font-size: 8.54px; font-family: Arial;' textLength='8.06px' lengthAdjust='spacingAndGlyphs'>EI</text>
<line x1='289.31' y1='376.05' x2='310.44' y2='378.65' style='stroke-width: 1.07;' />
<text x='283.49' y='379.09' text-anchor='middle' style='font-size: 8.54px; font-family: Arial;' textLength='8.06px' lengthAdjust='spacingAndGlyphs'>EI</text>
<text x='109.68' y='476.61' text-anchor='middle' style='font-size: 8.54px; font-family: Arial;' textLength='8.06px' lengthAdjust='spacingAndGlyphs'>EI</text>
<line x1='145.65' y1='73.12' x2='128.23' y2='67.67' style='stroke-width: 1.07;' />
<text x='151.48' y='76.40' text-anchor='middle' style='font-size: 8.54px; font-family: Arial;' textLength='8.06px' lengthAdjust='spacingAndGlyphs'>EI</text>
<text x='134.34' y='182.33' text-anchor='middle' style='font-size: 8.54px; font-family: Arial;' textLength='8.06px' lengthAdjust='spacingAndGlyphs'>EI</text>
<text x='388.99' y='278.06' text-anchor='middle' style='font-size: 8.54px; font-family: Arial;' textLength='8.06px' lengthAdjust='spacingAndGlyphs'>EI</text>
<text x='535.69' y='374.74' text-anchor='middle' style='font-size: 8.54px; font-family: Arial;' textLength='8.06px' lengthAdjust='spacingAndGlyphs'>EI</text>
<text x='302.06' y='492.93' text-anchor='middle' style='font-size: 8.54px; font-family: Arial;' textLength='8.06px' lengthAdjust='spacingAndGlyphs'>EI</text>
<text x='353.66' y='78.59' text-anchor='middle' style='font-size: 8.54px; font-family: Arial;' textLength='8.06px' lengthAdjust='spacingAndGlyphs'>EI</text>
<text x='290.47' y='166.77' text-anchor='middle' style='font-size: 8.54px; font-family: Arial;' textLength='8.06px' lengthAdjust='spacingAndGlyphs'>EI</text>
</g>
<g clip-path='url(#cpMC4wMHw1NzYuMDB8MC4wMHw1NzYuMDA=)'>
<text x='40.92' y='485.46' text-anchor='end' style='font-size: 8.80px; fill: #4D4D4D; font-family: Arial;' textLength='19.09px' lengthAdjust='spacingAndGlyphs'>intn3</text>
<text x='40.92' y='381.80' text-anchor='end' style='font-size: 8.80px; fill: #4D4D4D; font-family: Arial;' textLength='19.09px' lengthAdjust='spacingAndGlyphs'>intn2</text>
<text x='40.92' y='278.14' text-anchor='end' style='font-size: 8.80px; fill: #4D4D4D; font-family: Arial;' textLength='19.09px' lengthAdjust='spacingAndGlyphs'>intn1</text>
<text x='40.92' y='174.48' text-anchor='end' style='font-size: 8.80px; fill: #4D4D4D; font-family: Arial;' textLength='22.51px' lengthAdjust='spacingAndGlyphs'>pstB2</text>
<text x='40.92' y='70.82' text-anchor='end' style='font-size: 8.80px; fill: #4D4D4D; font-family: Arial;' textLength='22.51px' lengthAdjust='spacingAndGlyphs'>pstB1</text>
<text x='75.32' y='555.74' text-anchor='middle' style='font-size: 8.80px; fill: #4D4D4D; font-family: Arial;' textLength='15.17px' lengthAdjust='spacingAndGlyphs'>-1.0</text>
<text x='193.21' y='555.74' text-anchor='middle' style='font-size: 8.80px; fill: #4D4D4D; font-family: Arial;' textLength='15.17px' lengthAdjust='spacingAndGlyphs'>-0.5</text>
<text x='311.10' y='555.74' text-anchor='middle' style='font-size: 8.80px; fill: #4D4D4D; font-family: Arial;' textLength='12.24px' lengthAdjust='spacingAndGlyphs'>0.0</text>
<text x='428.98' y='555.74' text-anchor='middle' style='font-size: 8.80px; fill: #4D4D4D; font-family: Arial;' textLength='12.24px' lengthAdjust='spacingAndGlyphs'>0.5</text>
<text x='546.87' y='555.74' text-anchor='middle' style='font-size: 8.80px; fill: #4D4D4D; font-family: Arial;' textLength='12.24px' lengthAdjust='spacingAndGlyphs'>1.0</text>
<text x='308.19' y='568.20' text-anchor='middle' style='font-size: 11.00px; font-family: Arial;' textLength='66.69px' lengthAdjust='spacingAndGlyphs'>factorLoading</text>
<text transform='translate(13.36,274.99) rotate(-90)' text-anchor='middle' style='font-size: 11.00px; font-family: Arial;' textLength='20.79px' lengthAdjust='spacingAndGlyphs'>item</text>
</g>
</svg>
